%!PS-Adobe-3.0 EPSF-3.0
%%BoundingBox: 0 0 459 385
%%Creator: yExport 1.5
%%Producer: org.freehep.graphicsio.ps.EPSGraphics2D Revision: 12753 
%%For: 
%%Title: 
%%CreationDate: Thursday, July 28, 2016 10:54:37 PM EEST
%%LanguageLevel: 3
%%EndComments
%%BeginProlog
100 dict dup begin

%
% File: org/freehep/graphicsio.ps/PSProlog.txt
% Author: Charles Loomis
%

% Redefinitions which save some space in the output file.  These are also
% the same as the PDF operators.
/q {gsave} def
/Q {grestore} def

/n {newpath} def
/m {moveto} def
/l {lineto} def
/c {curveto} def
/h {closepath} def

/re {4 -2 roll moveto
     dup 0 exch rlineto exch 0 rlineto
     neg 0 exch rlineto closepath} def

/f {fill} def
/f* {eofill} def
/F {gsave vg&FC fill grestore} def
/F* {gsave vg&FC eofill grestore} def

/s {closepath stroke} def
/S {stroke} def

/b {closepath gsave vg&FC fill grestore
    gsave stroke grestore newpath} def
/B {gsave vg&FC fill grestore gsave stroke grestore newpath} def
/b* {closepath gsave vg&FC eofill grestore
    gsave stroke grestore newpath} def
/B* {gsave vg&FC eofill grestore gsave stroke grestore newpath} def

/g {1 array astore /vg&fcolor exch def} def
/G {setgray} def
/k {4 array astore /vg&fcolor exch def} def
/K {setcmykcolor} def
/rg {3 array astore /vg&fcolor exch def} def
/RG {setrgbcolor} def

% Initialize the fill color.
0 0 0 rg

/vg&FC {mark vg&fcolor aload pop
        counttomark 1 eq {G} if
        counttomark 3 eq {RG} if
        counttomark 4 eq {K} if
        cleartomark } def

/vg&DFC {/vg&fcolor exch def} def

/vg&C {mark exch aload pop
       counttomark 1 eq {G} if
       counttomark 3 eq {RG} if
       counttomark 4 eq {K} if
       cleartomark } def

/w {setlinewidth} def
/j {setlinejoin} def
/J {setlinecap} def
/M {setmiterlimit} def
/d {setdash} def
/i {setflat} def

/W {clip} def
/W* {eoclip} def

% Setup the default graphics state.
% (black; 1 pt. linewidth; miter join; butt-ends; solid)
/defaultGraphicsState {0 g 1 w 0 j 0 J [] 0 d} def

% Emulation of the rectangle operators for PostScript implementations
% which do not implement all Level 2 features.  This is an INCOMPLETE
% emulation; only the "x y width height rect..." form is emulated.
/*rf {gsave newpath re fill grestore} def
/*rs {gsave newpath re stroke grestore} def
/*rc {newpath re clip} def
/rf  /rectfill where {pop /rectfill}{/*rf} ifelse load def
/rs  /rectstroke where {pop /rectstroke}{/*rs} ifelse load def
/rc  /rectclip where {pop /rectclip}{/*rc} ifelse load def

% Emulation of the selectfont operator.  This includes a 20% increase in
% the fontsize which is necessary to get sizes similar to the Java fonts.
/*sf {exch findfont exch
      dup type /arraytype eq {makefont}{scalefont} ifelse setfont} bind def
/sf /selectfont where {pop {1.2 mul selectfont}}{{1.2 mul *sf}} ifelse def

% Special version of stroke which allows the dash pattern to continue
% across path segments.  (This may be needed for PostScript although
% modern printers seem to do this correctly.)
/vg&stroke {
  currentdash pop length 0 eq
  {stroke}
  {
    currentdash /vg&doffset exch def pop
    flattenpath
    {m vg&resetdash}
    {2 copy
     currentpoint
     3 -1 roll sub dup mul
     3 1 roll sub dup mul
     add sqrt
     3 1 roll l
     currentdash 3 -1 roll add setdash}
     {}
     {h vg&resetdash}
     pathforall
     stroke
     vg&resetdash
  } ifelse
} def
/vg&resetdash {currentdash pop vg&doffset setdash} def

% Initialize variables for safety.
/delta 0 def
/xv 0 def  /yv 0 def  /width 0 def  /height 0 def

% Initialize to portrait INTERNATIONAL (Letter-height, A4-width) page.
/pw 595 def  /ph 791  def  /po true def /ftp false def

% Initialize margins to 20 points.
/ml 20 def  /mr 20 def  /mt 20 def  /mb 20 def

% Temporary matrices.
/smatrix 0 def  /nmatrix 0 def

% set page size (usage: <page width><page height> setpagesize)
/setpagesize {/ph exch def /pw exch def} def

% set page orientation (usage: portrait or landscape)
/portrait {/po true def} def
/landscape {/po false def} def

% force natural size for image (usage: naturalsize)
/naturalsize {/ftp false def} def

% resize image to fill page (usage: fittopage)
/fittopage {/ftp true def} def

% set margins of the page (usage: <left><bottom><top><right> setmargins)
/setmargins {/mr exch def /mt exch def /mb exch def /ml exch def} def

% set the graphic's size (usage: <width><height> setsize)
/setsize {/gh exch def /gw exch def} def

% set the graphic's origin (usage: <x0><y0> setorigin)
/setorigin {/gy exch def /gx exch def} def

% calculate image center
/imagecenter {pw ml sub mr sub 2 div ml add
              ph mt sub mb sub 2 div mb add} def

% calculate the necessary scaling
/imagescale {po {gw}{gh} ifelse pw ml sub mr sub div
             po {gh}{gw} ifelse ph mt sub mb sub div
             2 copy lt {exch} if pop
             ftp not {1 2 copy lt {exch} if pop} if
             1 exch div /sfactor exch def
             /gw gw sfactor mul def /gh gh sfactor mul def} def

% calculate image origin
/imageorigin {pw ml sub mr sub 2 div ml add
              po {gw}{gh} ifelse 2 div sub
              ph mt sub mb sub 2 div mb add
              po {gh}{gw} ifelse 2 div po {add}{sub} ifelse} def

% calculate the clipping origin
/cliporigin  {pw ml sub mr sub 2 div ml add
              po {gw}{gh} ifelse 2 div sub floor
              ph mt sub mb sub 2 div mb add
              po {gh}{gw} ifelse 2 div sub floor} def

% Set the clipping region to the bounding box.
/cliptobounds {cliporigin po {gw}{gh} ifelse 1 add
                          po {gh}{gw} ifelse 1 add rc} def

% set the base transformation matrix (usage: setbasematrix)
/setbasematrix {imageorigin translate
                po {0}{90} ifelse rotate
                sfactor sfactor neg scale
                /defaultmatrix matrix currentmatrix def} def

% The lower-right bias in drawing 1 pt. wide lines.
/bias  {q 0.5 0.5 translate} def
/unbias {Q} def

% Define the composite fonts used to print Unicode strings.
% Undefine particular values in an encoding array.
/vg&undef { {exch dup 3 -1 roll /.notdef put} forall } def
/vg&redef { {3 -1 roll dup 4 2 roll put} forall } def

% usage: key encoding basefontname vg&newbasefont font
/vg&newbasefont {
findfont dup length dict copy
  begin
    currentdict /FID undef
    /Encoding exch def
    dup /FontName exch def
    currentdict
  end
definefont
} def

% usage: key encoding basefontname vg&newskewedbasefont font
/vg&newskewedbasefont {
findfont dup length dict copy
  begin
    currentdict /FID undef
    /Encoding exch def
    dup /FontName exch def
    exch FontMatrix exch matrix concatmatrix /FontMatrix exch def
    currentdict
  end
definefont
} def

% usage: basekey suffix vg&nconcat name
/vg&nconcat {
  2 {dup length string cvs exch} repeat
  dup length 3 -1 roll dup length 3 -1 roll add string
  dup 0 4 -1 roll dup length 5 1 roll putinterval
  dup 4 -2 roll exch putinterval cvn
} def

%usage: fontname vg&skewmatrix matrix
/vg&skewmatrix {
findfont dup /FontInfo known
  {
    /FontInfo get dup /ItalicAngle known
    {
      [ 1 0 4 -1 roll /ItalicAngle get neg dup sin exch cos div 1 0 0 ]
    }
    {pop matrix} ifelse
  }
  {pop matrix} ifelse
} def

% usage: newfontname basefontname vg&newcompositefont --
/vg&newcompositefont {
/vg&fstyle exch def
/vg&bfont exch def
/vg&fname exch def
<<
/FontStyleBits vg&fstyle
/FontType 0
/FontMatrix matrix
/FontName vg&fname
/FMapType 2
/Encoding [ 0 1 255 {pop 6} for ]
          dup 16#00 0 put % Latin
          dup 16#03 1 put % Greek
          dup 16#20 2 put % Punctuation
          dup 16#21 3 put % Arrows
          dup 16#22 4 put % MathOps
          dup 16#27 5 put % Dingbats

/FDepVector [
vg&bfont /-UC-Latin vg&nconcat UCLatinEncoding
vg&bfont vg&newbasefont

vg&bfont vg&skewmatrix
vg&bfont /-UC-Greek vg&nconcat UCGreekEncoding
/Symbol vg&newskewedbasefont

vg&bfont /-UC-Punctuation vg&nconcat UCPunctuationEncoding
vg&bfont vg&newbasefont

/Arrows-UC findfont
/MathOps-UC findfont
/Dingbats-UC findfont
/Undefined-UC findfont ]
>>
vg&fname exch definefont pop
} def

% Null encoding vector (all elements set to .notdef)
/NullEncoding [ 256 {/.notdef} repeat ] def

% Unicode Latin encoding (unicode codes \u0000-\u00ff)
/UCLatinEncoding
  ISOLatin1Encoding dup length array copy
  dup 16#60 /grave put
  [ 16#90 16#91 16#92 16#93 16#94 16#95 16#96
    16#97 16#98 16#9a 16#9b 16#9d 16#9e 16#9f
  ] vg&undef
  def

% Unicode Greek encoding (unicode codes \u0370-\u03ff)
/UCGreekEncoding
  NullEncoding dup length array copy
  << 16#91 /Alpha    16#92 /Beta      16#93 /Gamma    16#94 /Delta
     16#95 /Epsilon  16#96 /Zeta      16#97 /Eta      16#98 /Theta
     16#99 /Iota     16#9a /Kappa     16#9b /Lambda   16#9c /Mu
     16#9d /Nu       16#9e /Xi        16#9f /Omicron  16#a0 /Pi
     16#a1 /Rho      16#a3 /Sigma     16#a4 /Tau      16#a5 /Upsilon
     16#a6 /Phi      16#a7 /Chi       16#a8 /Psi      16#a9 /Omega
     16#b1 /alpha    16#b2 /beta      16#b3 /gamma    16#b4 /delta
     16#b5 /epsilon  16#b6 /zeta      16#b7 /eta      16#b8 /theta
     16#b9 /iota     16#ba /kappa     16#bb /lambda   16#bc /mu
     16#bd /nu       16#be /xi        16#bf /omicron  16#c0 /pi
     16#c1 /rho      16#c2 /sigma1    16#c3 /sigma    16#c4 /tau
     16#c5 /upsilon  16#c6 /phi1      16#c7 /chi      16#c8 /psi
     16#c9 /omega    16#7e /semicolon 16#87 /dotmath  16#d1 /theta1
     16#d2 /Upsilon1 16#d5 /phi       16#d6 /omega1
  >> vg&redef
  def

% Unicode punctuation encoding (unicode codes \u2000-\u206f)
/UCPunctuationEncoding
  NullEncoding dup length array copy
  << 16#10 /hyphen          16#11 /hyphen              16#12 /endash
     16#13 /emdash          16#18 /quoteleft           16#19 /quoteright
     16#1a /quotesinglbase  16#1b /quotesingle         16#1c /quotedblleft
     16#1d /quotedblright   16#1e /quotedblbase        16#1f /quotedbl
     16#20 /dagger          16#21 /daggerdbl           16#22 /bullet
     16#24 /period          16#26 /ellipsis            16#27 /periodcentered
     16#30 /perthousand     16#44 /fraction
     16#70 /zerosuperior    16#74 /foursuperior        16#75 /fivesuperior
     16#76 /sixsuperior     16#77 /sevensuperior       16#78 /eightsuperior
     16#79 /ninesuperior    16#7b /hyphensuperior      16#7d /parenleftsuperior
     16#7e /parenrightsuperior
     16#80 /zeroinferior    16#84 /fourinferior        16#85 /fiveinferior
     16#81 /oneinferior     16#82 /twoinferior         16#83 /threeinferior
     16#86 /sixinferior     16#87 /seveninferior       16#88 /eightinferior
     16#89 /nineinferior    16#8b /hypheninferior      16#8d /parenleftinferior
     16#8e /parenrightinferior
  >> vg&redef
  def

% Unicode mathematical operators encoding (unicode codes \u2200-\u22ff)
/UCMathOpsEncoding
  NullEncoding dup length array copy
  << 16#00 /universal       16#02 /partialdiff         16#03 /existential
     16#05 /emptyset        16#06 /Delta               16#07 /gradient
     16#08 /element         16#09 /notelement          16#0b /suchthat
     16#0f /product         16#11 /summation           16#12 /minus
     16#15 /fraction        16#17 /asteriskmath        16#19 /bullet
     16#1a /radical         16#1d /proportional        16#1e /infinity
     16#20 /angle           16#23 /bar                 16#27 /logicaland
     16#28 /logicalor       16#29 /intersection        16#2a /union
     16#2b /integral        16#34 /therefore           16#36 /colon
     16#3c /similar         16#45 /congruent           16#48 /approxequal
     16#60 /notequal        16#61 /equivalence         16#64 /lessequal
     16#65 /greaterequal    16#82 /propersubset        16#83 /propersuperset
     16#86 /reflexsubset    16#87 /reflexsuperset      16#95 /circleplus
     16#97 /circlemultiply  16#a5 /perpendicular       16#03 /existential
     16#c0 /logicaland      16#c1 /logicalor           16#c2 /intersection
     16#c3 /union           16#c4 /diamond             16#c5 /dotmath
  >> vg&redef
  def

% Unicode arrows encoding (unicode codes \u2190-\u21ff)
% Also includes those "Letterlike" unicode characters
% which are available in the symbol font. (unicode codes \u2100-\u214f)
/UCArrowsEncoding
  NullEncoding dup length array copy
  << 16#11 /Ifraktur        16#1c /Rfraktur            16#22 /trademarkserif
     16#35 /aleph
     16#90 /arrowleft       16#91 /arrowup             16#92 /arrowright
     16#93 /arrowdown       16#94 /arrowboth           16#d0 /arrowdblleft
     16#d1 /arrowdblup      16#d2 /arrowdblright       16#d3 /arrowdbldown
     16#d4 /arrowdblboth
  >> vg&redef
  def

/ZapfDingbats findfont /Encoding get
dup length array copy /UCDingbatsEncoding exch def
16#20 1 16#7f {
  dup 16#20 sub exch
  UCDingbatsEncoding exch get
  UCDingbatsEncoding 3 1 roll put
} for
16#a0 1 16#ff {
  dup 16#40 sub exch
  UCDingbatsEncoding exch get
  UCDingbatsEncoding 3 1 roll put
} for
UCDingbatsEncoding [ 16#c0 1 16#ff {} for ] vg&undef
[ 16#00  16#05 16#0a 16#0b  16#28 16#4c 16#4e  16#53 16#54 16#55  16#57 16#5f
  16#60  16#68 16#69 16#6a  16#6b 16#6c 16#6d  16#6e 16#6f 16#70  16#71 16#72
  16#73  16#74 16#75 16#95  16#96 16#97 16#b0  16#bf
] vg&undef pop

% Define the base fonts which don't change.
/Undefined-UC NullEncoding       /Helvetica    vg&newbasefont pop
/MathOps-UC   UCMathOpsEncoding  /Symbol       vg&newbasefont pop
/Arrows-UC    UCArrowsEncoding   /Symbol       vg&newbasefont pop
/Dingbats-UC  UCDingbatsEncoding /ZapfDingbats vg&newbasefont pop

% Make the SansSerif composite fonts.
/SansSerif /Helvetica 16#00 vg&newcompositefont
/SansSerif-Bold /Helvetica-Bold 16#01 vg&newcompositefont
/SansSerif-Italic /Helvetica-Oblique 16#02 vg&newcompositefont
/SansSerif-BoldItalic /Helvetica-BoldOblique 16#03 vg&newcompositefont

% Make the Serif composite fonts.
/Serif /Times-Roman 16#00 vg&newcompositefont
/Serif-Bold /Times-Bold 16#01 vg&newcompositefont
/Serif-Italic /Times-Italic 16#02 vg&newcompositefont
/Serif-BoldItalic /Times-BoldItalic 16#03 vg&newcompositefont

% Make the Monospaced composite fonts.
/Monospaced /Courier 16#00 vg&newcompositefont
/Monospaced-Bold /Courier-Bold 16#01 vg&newcompositefont
/Monospaced-Italic /Courier-Oblique 16#02 vg&newcompositefont
/Monospaced-BoldItalic /Courier-BoldOblique 16#03 vg&newcompositefont

% Make the Dialog composite fonts.
/Dialog /Helvetica 16#00 vg&newcompositefont
/Dialog-Bold /Helvetica-Bold 16#01 vg&newcompositefont
/Dialog-Italic /Helvetica-Oblique 16#02 vg&newcompositefont
/Dialog-BoldItalic /Helvetica-BoldOblique 16#03 vg&newcompositefont

% Make the DialogInput composite fonts.
/DialogInput /Courier 16#00 vg&newcompositefont
/DialogInput-Bold /Courier-Bold 16#01 vg&newcompositefont
/DialogInput-Italic /Courier-Oblique 16#02 vg&newcompositefont
/DialogInput-BoldItalic /Courier-BoldOblique 16#03 vg&newcompositefont

% Make the Typewriter composite fonts (JDK 1.1 only).
/Typewriter /Courier 16#00 vg&newcompositefont
/Typewriter-Bold /Courier-Bold 16#01 vg&newcompositefont
/Typewriter-Italic /Courier-Oblique 16#02 vg&newcompositefont
/Typewriter-BoldItalic /Courier-BoldOblique 16#03 vg&newcompositefont


/cfontH {
 dup /fontsize exch def /SansSerif exch sf
 /vg&fontstyles [{cfontH} {cfontHB} {cfontHI} {cfontHBI}] def
} def
/cfontHB {
  dup /fontsize exch def /SansSerif-Bold exch sf
 /vg&fontstyles [{cfontH} {cfontHB} {cfontHI} {cfontHBI}] def
} def
/cfontHI {
 dup /fontsize exch def /SansSerif-Italic exch sf
 /vg&fontstyles [{cfontH} {cfontHB} {cfontHI} {cfontHBI}] def
} def
/cfontHBI {
 dup /fontsize exch def /SansSerif-BoldItalic exch sf
 /vg&fontstyles [{cfontH} {cfontHB} {cfontHI} {cfontHBI}] def
} def

/cfontT {
 dup /fontsize exch def /Serif exch sf
 /vg&fontstyles [{cfontT} {cfontTB} {cfontTI} {cfontTBI}] def
} def
/cfontTB {
 dup /fontsize exch def /Serif-Bold exch sf
 /vg&fontstyles [{cfontT} {cfontTB} {cfontTI} {cfontTBI}] def
} def
/cfontTI {
 dup /fontsize exch def /Serif-Italic exch sf
 /vg&fontstyles [{cfontT} {cfontTB} {cfontTI} {cfontTBI}] def
} def
/cfontTBI {
 dup /fontsize exch def /Serif-BoldItalic exch sf
 /vg&fontstyles [{cfontT} {cfontTB} {cfontTI} {cfontTBI}] def
} def

/cfontC {
 dup /fontsize exch def /Typewriter exch sf
 /vg&fontstyles [{cfontC} {cfontCB} {cfontCI} {cfontCBI}] def
} def
/cfontCB {
 dup /fontsize exch def /Typewriter-Bold exch sf
 /vg&fontstyles [{cfontC} {cfontCB} {cfontCI} {cfontCBI}] def
} def
/cfontCI {
 dup /fontsize exch def /Typewriter-Italic exch sf
 /vg&fontstyles [{cfontC} {cfontCB} {cfontCI} {cfontCBI}] def
} def
/cfontCBI {
 dup /fontsize exch def /Typewriter-BoldItalic exch sf
 /vg&fontstyles [{cfontC} {cfontCB} {cfontCI} {cfontCBI}] def
} def

% Darken or lighten the current color.
/darken {0.7 exch exp 3 copy
         q 4 -1 roll vg&C
         currentrgbcolor 3 {4 -2 roll mul} repeat
         3 array astore Q} def

/displayColorMap
<< /Cr   [1.00 0.00 0.00]       /Cg     [0.00 1.00 0.00]
   /Cb   [0.00 0.00 1.00]       /Cc     [1.00 0.00 0.00 0.00]
   /Cm   [0.00 1.00 0.00 0.00]  /Cy     [0.00 0.00 1.00 0.00]
   /Co   [1.00 0.78 0.00]       /Cp     [1.00 0.67 0.67]
   /Cw   [1   ]                 /Cgrl   [0.75]
   /Cgr  [0.50]                 /Cgrd   [0.25]
   /Ck   [0   ]
   /CGr  [1.00 0.00 0.00]       /CGg    [0.00 1.00 0.00]
   /CGb  [0.00 0.00 1.00]       /CGc    [1.00 0.00 0.00 0.00]
   /CGm  [0.00 1.00 0.00 0.00]  /CGy    [0.00 0.00 1.00 0.00]
   /CGo  [1.00 0.78 0.00]       /CGp    [1.00 0.67 0.67]
   /CGw  [1   ]                 /CGgrl  [0.75]
   /CGgr [0.50]                 /CGgrd  [0.25]
   /CGk  [0   ]
   /CIr  [1.00 0.00 0.00]       /CIg    [0.00 1.00 0.00]
   /CIb  [0.00 0.00 1.00]       /CIc    [1.00 0.00 0.00 0.00]
   /CIm  [0.00 1.00 0.00 0.00]  /CIy    [0.00 0.00 1.00 0.00]
   /CIo  [1.00 0.78 0.00]       /CIp    [1.00 0.67 0.67]
   /CIw  [1   ]                 /CIgrl  [0.75]
   /CIgr [0.50]                 /CIgrd  [0.25]
   /CIk  [0   ]
>> def

/printColorMap
<< /Cr   [1.00 0.33 0.33]       /Cg     [0.33 1.00 0.33]
   /Cb   [0.33 0.33 1.00]       /Cc     [1.00 0.00 0.00 0.00]
   /Cm   [0.00 1.00 0.00 0.00]  /Cy     [0.00 0.00 1.00 0.00]
   /Co   [1.00 0.78 0.00]       /Cp     [1.00 0.67 0.67]
   /Cw   [1   ]                 /Cgrl   [0.75]
   /Cgr  [0.50]                 /Cgrd   [0.25]
   /Ck   [0   ]
   /CGr  [1.00 0.33 0.33]       /CGg    [0.33 1.00 0.33]
   /CGb  [0.33 0.33 1.00]       /CGc    [1.00 0.00 0.00 0.00]
   /CGm  [0.00 1.00 0.00 0.00]  /CGy    [0.00 0.00 1.00 0.00]
   /CGo  [1.00 0.78 0.00]       /CGp    [1.00 0.67 0.67]
   /CGw  [1   ]                 /CGgrl  [0.75]
   /CGgr [0.50]                 /CGgrd  [0.25]
   /CGk  [0   ]
   /CIr  [1.00 0.33 0.33]       /CIg    [0.33 1.00 0.33]
   /CIb  [0.33 0.33 1.00]       /CIc    [1.00 0.00 0.00 0.00]
   /CIm  [0.00 1.00 0.00 0.00]  /CIy    [0.00 0.00 1.00 0.00]
   /CIo  [1.00 0.78 0.00]       /CIp    [1.00 0.67 0.67]
   /CIw  [1   ]                 /CIgrl  [0.75]
   /CIgr [0.50]                 /CIgrd  [0.25]
   /CIk  [0   ]
>> def

/grayColorMap
<< /Cr   [0   ]                 /Cg     [0   ]
   /Cb   [0   ]                 /Cc     [0   ]
   /Cm   [0   ]                 /Cy     [0   ]
   /Co   [0   ]                 /Cp     [0   ]
   /Cw   [0   ]                 /Cgrl   [0   ]
   /Cgr  [0   ]                 /Cgrd   [0   ]
   /Ck   [0   ]
   /CGr  [0.75]                 /CGg    [1   ]
   /CGb  [0.50]                 /CGc    [0.75]
   /CGm  [0.50]                 /CGy    [1   ]
   /CGo  [0.75]                 /CGp    [1   ]
   /CGw  [0   ]                 /CGgrl  [0.25]
   /CGgr [0.50]                 /CGgrd  [0.75]
   /CGk  [1   ]
   /CIr  [1   ]                 /CIg    [1   ]
   /CIb  [1   ]                 /CIc    [1   ]
   /CIm  [1   ]                 /CIy    [1   ]
   /CIo  [1   ]                 /CIp    [1   ]
   /CIw  [1   ]                 /CIgrl  [1   ]
   /CIgr [1   ]                 /CIgrd  [1   ]
   /CIk  [1   ]
>> def

/bwColorMap
<< /Cr   [0   ]                 /Cg     [0   ]
   /Cb   [0   ]                 /Cc     [0   ]
   /Cm   [0   ]                 /Cy     [0   ]
   /Co   [0   ]                 /Cp     [0   ]
   /Cw   [0   ]                 /Cgrl   [0   ]
   /Cgr  [0   ]                 /Cgrd   [0   ]
   /Ck   [0   ]
   /CGr  [1   ]                 /CGg    [1   ]
   /CGb  [1   ]                 /CGc    [1   ]
   /CGm  [1   ]                 /CGy    [1   ]
   /CGo  [1   ]                 /CGp    [1   ]
   /CGw  [0   ]                 /CGgrl  [1   ]
   /CGgr [1   ]                 /CGgrd  [1   ]
   /CGk  [1   ]
   /CIr  [1   ]                 /CIg    [1   ]
   /CIb  [1   ]                 /CIc    [1   ]
   /CIm  [1   ]                 /CIy    [1   ]
   /CIo  [1   ]                 /CIp    [1   ]
   /CIw  [1   ]                 /CIgrl  [1   ]
   /CIgr [1   ]                 /CIgrd  [1   ]
   /CIk  [1   ]
>> def

%
% The following routines handle the alignment of and printing of
% tagged strings.
%

% Predefine the bounding box values.
/bbllx 0 def /bblly 0 def /bburx 0 def /bbury 0 def

% This routine pops the first unicode character off of a string and returns
% the remainder of the string, the character code of first character,
% and a "true" if the string was non-zero length.
% <string>      popfirst <remaining string> <true>
% <null string> popfirst <false>
/popfirst {
  dup length 1 gt
    {dup 0 get /vg&fbyte exch def
     dup 1 get /vg&cbyte exch def
     dup length 2 sub 2 exch getinterval true}
    {pop false} ifelse
} def

% This routine shows a single unicode character given the font and
% character codes.
% <font code> <char code> unicharshow --
/unicharshow {
  2 string
  dup 0 5 -1 roll put
  dup 1 4 -1 roll put
  internalshow
} def

% This is an internal routine to alternate between determining the
% bounding box for stringsize and showing the string for recshow.
% <string> internalshow --
/internalshow {show} def

% This is an internal routine to alternate between determining the
% bounding box for stringsize and stroking various ornaments.
% <string> internalstroke --
/internalstroke {S} def

% Sets up internalshow to use the null device to determine string size.
% -- nullinternalshow --
/nullinternalshow {/internalshow {false charpath flattenpath
                                  pathbbox updatebbox} def} def

% Sets up internalstroke to use the null device to determine string size.
% -- nullinternalstroke --
/nullinternalstroke {
 /internalstroke {flattenpath pathbbox updatebbox} def} def

% This routine tests to see if the character code matches the first
% character of a string.
% <char code> <string> testchar <char code> <true or false>
/testchar {exch dup 3 -1 roll 0 get eq} def

% Raise the text baseline for superscripts.
% -- raise --
/raise {
  0 fontsize 2 div rmoveto
  /fontsize fontsize 2 mul 3 div def
  currentfont /FontName get fontsize sf
} def

% Un-raise the text baseline for superscripts.
% -- unraise --
/unraise {
  /fontsize fontsize 1.5 mul def
  0 fontsize 2 div neg rmoveto
} def

% Lower the text baseline for subscripts.
% -- lower --
/lower {
  0 fontsize 3 div neg rmoveto
  /fontsize fontsize 2 mul 3 div def
  currentfont /FontName get fontsize sf
} def

% Un-lower the text baseline for subscripts.
% -- unlower --
/unlower {
  /fontsize fontsize 1.5 mul def
  0 fontsize 3 div rmoveto
} def

% Compare the top two elements on the stack and leave only the
% larger one.
/maxval {2 copy gt {pop} {exch pop} ifelse} def

% Tokenize a string.  Do not use the usual PostScript token because
% parentheses will not be interpreted correctly because of rescanning
% of the string.
/vg&token {/vg&string exch def /vg&index -1 def /vg&level 0 def
0 2 vg&string length 2 sub {
  dup dup 1 add exch vg&string exch get 8 bitshift vg&string 3 -1 roll get or
  dup 16#f0fe eq {pop 1}{16#f0ff eq {-1}{0} ifelse} ifelse
  /vg&level exch vg&level add def
  vg&level 0 eq {/vg&index exch def exit} if pop
} for
vg&index 0 ge {
  vg&string vg&index 2 add dup vg&string length exch sub getinterval
  vg&index 2 gt {vg&string 2 vg&index 2 sub getinterval}{()} ifelse
  true}
{false} ifelse
} bind def

% Recursively show an unicode string.
% <string> recshow --
/recshow {
  popfirst
  {
    % Test to see if this is a string attribute.
    vg&fbyte 16#f0 and 16#e0 eq
    {
      q

      % Font style.
      currentfont dup /FontStyleBits known {/FontStyleBits get}{pop 0} ifelse
      vg&cbyte or vg&fontstyles exch get fontsize exch exec

      vg&token pop recshow currentpoint Q m recshow
    }
    {
      vg&fbyte 16#F8 and 16#F0 eq {

        % Superscript and/or subscript.
        vg&cbyte 16#00 eq {
          vg&token pop exch vg&token pop 3 -1 roll
          q raise recshow unraise currentpoint pop Q exch
          q lower recshow unlower currentpoint pop Q
          maxval currentpoint exch pop m recshow } if

        % Strikeout.
        vg&cbyte 16#01 eq {
          vg&token pop currentpoint 3 -1 roll recshow
          q 0 J vg&underline vg&uthick w
          currentpoint 4 -2 roll fontsize 3 div add moveto
          fontsize 3 div add lineto internalstroke Q
          recshow} if

        % Underline.
        vg&cbyte 16#02 eq {
          vg&token pop currentpoint 3 -1 roll recshow
          q 0 J vg&underline vg&uthick w
          currentpoint 4 -2 roll vg&uoffset add moveto
          vg&uoffset add lineto internalstroke Q
          recshow} if

        % Dashed underline.
        vg&cbyte 16#03 eq {
          vg&token pop currentpoint 3 -1 roll recshow
          q 0 J [ vg&uthick 5 mul vg&uthick 2 mul] 0 d
          vg&underline vg&uthick w
          currentpoint 4 -2 roll vg&uoffset add moveto
          vg&uoffset add lineto internalstroke Q
          recshow} if

        % Dotted underline.
        vg&cbyte 16#04 eq {
          vg&token pop currentpoint 3 -1 roll recshow
          q 1 J [ 0 vg&uthick 3 mul] 0 d
          vg&underline vg&uthick w
          currentpoint 4 -2 roll vg&uoffset add moveto
          vg&uoffset add lineto internalstroke Q
          recshow} if

        % Thick underline.
        vg&cbyte 16#05 eq {
          vg&token pop currentpoint 3 -1 roll recshow
          q 0 J vg&underline vg&uthick 2 mul w
          currentpoint 4 -2 roll vg&uoffset vg&uthick 2 div sub add moveto
          vg&uoffset vg&uthick 2 div sub add lineto internalstroke Q
          recshow} if

        % Gray thick underline.
        vg&cbyte 16#06 eq {
          vg&token pop currentpoint 3 -1 roll recshow
          q 0 J vg&underline vg&uthick 2 mul w 0.5 setgray
          currentpoint 4 -2 roll vg&uoffset vg&uthick 2 div sub add moveto
          vg&uoffset vg&uthick 2 div sub add lineto internalstroke Q
          recshow} if

        % Overbar.
        vg&cbyte 16#07 eq {
          vg&token pop dup stringsize relative 4 1 roll pop pop exch
          3 -1 roll recshow
          q 0 J vg&underline vg&uthick w
          vg&uoffset neg add dup currentpoint pop exch m l internalstroke Q
          recshow} if
      }
      {
        vg&fbyte vg&cbyte unicharshow recshow
      } ifelse
    } ifelse
  } if
} def

% Get the underline position and thickness from the current font.
/vg&underline {

currentfont dup /FontType get 0 eq {/FDepVector get 0 get} if
dup dup /FontInfo known {
  /FontInfo get dup
  dup /UnderlinePosition known {
    /UnderlinePosition get /vg&uoffset exch def
  }
  {
    pop /vg&uoffset 0 def
  } ifelse
  dup /UnderlineThickness known {
    /UnderlineThickness get /vg&uthick exch def
  }
  {
    pop /vg&uthick 0 def
  } ifelse
}
{
  pop /vg&uoffset 0 def /vg&uthick 0 def
} ifelse
/FontMatrix get
currentfont dup /FontType get 0 eq
{/FontMatrix get matrix concatmatrix}{pop} ifelse
dup 0 vg&uoffset 3 -1 roll transform /vg&uoffset exch def pop
0 vg&uthick 3 -1 roll transform /vg&uthick exch def pop
} def

% Make a frame with the coordinates on the stack.
% <llx> <lly> <urx> <ury> frame --
/frame {4 copy m 3 1 roll exch l 4 -2 roll l l h} def

% Resets the accumulated bounding box to a degenerate box at the
% current point.
% -- resetbbox --
/resetbbox {
  currentpoint 2 copy
  /bbury exch def
  /bburx exch def
  /bblly exch def
  /bbllx exch def
} def

% Update the accumulated bounding box.
% <llx'> <lly'> <urx'> <ury'> updatebbox --
/updatebbox {
  dup bbury gt {/bbury exch def} {pop} ifelse
  dup bburx gt {/bburx exch def} {pop} ifelse
  dup bblly lt {/bblly exch def} {pop} ifelse
  dup bbllx lt {/bbllx exch def} {pop} ifelse
} def

% Set the bounding box to the values on the stack.
% <llx'> <lly'> <urx'> <ury'> updatebbox --
/restorebbox {
  /bbury exch def /bburx exch def /bblly exch def /bbllx exch def
} def

% Push the accumulated bounding box onto the stack.
% -- pushbbox <llx> <lly> <urx> <ury>
/pushbbox {bbllx bblly bburx bbury} def

% Make the relative bounding box relative to the currentpoint.
% <llx'> <lly'> <urx'> <ury'> inflate <llx> <lly> <urx> <ury>
/inflate {
  2 {fontsize 0.2 mul add 4 1 roll} repeat
  2 {fontsize 0.2 mul sub 4 1 roll} repeat
} def

% Make the relative bounding box relative to the currentpoint.
% <llx'> <lly'> <urx'> <ury'> relative <llx> <lly> <urx> <ury>
/relative {
  currentpoint 3 -1 roll add 3 1 roll add exch 4 2 roll
  currentpoint 3 -1 roll add 3 1 roll add exch 4 2 roll
} def

% Returns the size of a string appropriate for recshow.
% <string> stringsize <llx> <lly> <urx> <ury>
/stringsize {
  pushbbox /internalshow load /internalstroke load 7 -1 roll
  q
  nulldevice 0 0 m
  nullinternalshow nullinternalstroke
  resetbbox
  recshow
  /internalstroke exch def /internalshow exch def
  pushbbox 8 -4 roll restorebbox
  Q
} def

% Calculate values for string positioning.
/calcval {4 copy
  3 -1 roll sub /widy exch def sub neg /widx exch def
  pop pop /dy exch def /dx exch def} def

% Utilities to position a string.
% First letter (U=upper, C=center, B=baseline, L=lower)
% Second letter (L=left, C=center, R=right)
/align [
{calcval dx neg widy dy add neg rmoveto} % UL
{calcval dx neg widy 2 div dy add neg rmoveto} % CL
{calcval dx neg 0 rmoveto} % BL
{calcval dx neg dy neg rmoveto} % LL
{calcval widx dx add neg widy dy add neg rmoveto} % UR
{calcval widx dx add neg widy 2 div dy add neg rmoveto} % CR
{calcval widx dx add neg 0 rmoveto} % BR
{calcval widx dx add neg dy neg rmoveto} % LR
{calcval widx 2 div dx add neg widy dy add neg rmoveto} % UC
{calcval widx 2 div dx add neg widy 2 div dy add neg rmoveto} % CC
{calcval widx 2 div dx add neg 0 rmoveto} % BC
{calcval widx 2 div dx add neg dy neg rmoveto} % LC
] def

/vg&str {m q 1 -1 scale dup stringsize 4 copy align 11 -1 roll get exec
         q inflate relative frame exch exec Q recshow Q} def

end /procDict exch def
%%EndProlog

%%BeginSetup
save
procDict begin
printColorMap begin
459 385 setpagesize
0 0 0 0 setmargins
0 0 setorigin
459 385 setsize
naturalsize
portrait
imagescale
cliptobounds
setbasematrix
/Helvetica 10 sf
defaultGraphicsState
%%EndSetup

0.00000 0.00000 0.00000 RG
[ 1.00000 0.00000 0.00000 1.00000 0.00000 0.00000 ] defaultmatrix matrix concatmatrix setmatrix
cliprestore
1.00000 1.00000 1.00000 RG
newpath
0.00000 0.00000 m
459.000 0.00000 l
459.000 385.000 l
0.00000 385.000 l
0.00000 0.00000 l
h
f
0.00000 0.00000 0.00000 RG
0.00000 0.00000 0.00000 RG
[ 1.00000 0.00000 0.00000 1.00000 0.00000 0.00000 ] defaultmatrix matrix concatmatrix setmatrix
cliprestore
1.00000 1.00000 1.00000 RG
newpath
0.00000 0.00000 m
459.000 0.00000 l
459.000 385.000 l
0.00000 385.000 l
0.00000 0.00000 l
h
f
0.00000 0.00000 0.00000 RG
0 0 459 385 rc
q
[ 1.50000 0.00000 0.00000 1.50000 0.00000 0.00000 ] concat
[ 1.00000 0.00000 0.00000 1.00000 -361.000 -480.000 ] concat
1.00000 1.00000 1.00000 RG
newpath
361.000 480.000 m
667.000 480.000 l
667.000 737.000 l
361.000 737.000 l
361.000 480.000 l
h
f
0.00000 0.00000 0.00000 RG
[ 1.50000 0.00000 0.00000 1.50000 -541.500 -720.000 ] defaultmatrix matrix concatmatrix setmatrix
[ 1.50000 0.00000 0.00000 1.50000 -541.500 -720.000 ] defaultmatrix matrix concatmatrix setmatrix
[ 1.00000 0.00000 0.00000 1.00000 0.00000 0.00000 ] defaultmatrix matrix concatmatrix setmatrix
[ 1.50000 0.00000 0.00000 1.50000 -541.500 -720.000 ] defaultmatrix matrix concatmatrix setmatrix
1.00000 1.00000 1.00000 RG
newpath
664.220 566.981 m
664.220 575.265 657.504 581.981 649.220 581.981  c
640.935 581.981 634.220 575.265 634.220 566.981  c
634.220 558.697 640.935 551.981 649.220 551.981  c
657.504 551.981 664.220 558.697 664.220 566.981  c
h
f
0.00000 0.00000 0.00000 RG
0 J
1.45000 M
newpath
652.205 568.254 m
652.205 569.832 650.939 571.004 648.846 571.004  c
647.236 571.004 646.221 569.895 646.221 568.801  c
646.221 568.004 646.908 567.879 647.096 567.879  c
647.408 567.879 647.971 568.082 647.971 568.770  c
647.971 569.301 647.596 569.613 647.127 569.645  c
647.674 570.379 648.486 570.442 648.799 570.442  c
650.361 570.442 650.361 569.145 650.361 568.192  c
650.361 567.160 650.361 566.020 649.205 566.020  c
648.674 566.020 647.971 566.145 647.455 566.738  c
647.377 566.848 647.346 566.895 647.174 566.895  c
646.893 566.895 646.893 566.723 646.893 566.488  c
646.893 562.707 l
646.893 562.488 646.893 562.348 647.080 562.348  c
647.111 562.348 647.127 562.363 647.236 562.395  c
647.580 562.520 648.268 562.770 649.252 562.770  c
649.814 562.770 650.502 562.692 651.252 562.395  c
651.393 562.348 651.408 562.348 651.439 562.348  c
651.596 562.348 651.627 562.488 651.627 562.582  c
651.627 562.910 650.424 564.379 648.533 564.379  c
648.080 564.379 647.939 564.348 647.580 564.285  c
647.580 566.004 l
648.189 565.582 648.877 565.551 649.252 565.551  c
651.174 565.551 652.205 566.754 652.205 568.254  c
h
f
2 J
10.0000 M
1.00000 1.00000 1.00000 RG
0 J
1.45000 M
0.00000 0.00000 0.00000 RG
newpath
664.220 566.981 m
664.220 575.265 657.504 581.981 649.220 581.981  c
640.935 581.981 634.220 575.265 634.220 566.981  c
634.220 558.697 640.935 551.981 649.220 551.981  c
657.504 551.981 664.220 558.697 664.220 566.981  c
h
S
2 J
10.0000 M
1.00000 1.00000 1.00000 RG
newpath
480.677 566.981 m
480.677 575.265 473.961 581.981 465.677 581.981  c
457.393 581.981 450.677 575.265 450.677 566.981  c
450.677 558.697 457.393 551.981 465.677 551.981  c
473.961 551.981 480.677 558.697 480.677 566.981  c
h
f
0.00000 0.00000 0.00000 RG
0 J
1.45000 M
newpath
468.787 568.426 m
468.787 569.863 467.725 571.004 465.647 571.004  c
463.975 571.004 462.569 570.348 462.569 568.770  c
462.569 567.801 463.147 567.067 464.225 566.582  c
463.225 566.020 462.991 565.192 462.991 564.629  c
462.991 563.379 463.897 562.348 465.694 562.348  c
467.178 562.348 468.366 562.926 468.366 564.254  c
468.366 565.020 467.959 565.582 467.053 566.051  c
467.694 566.410 468.787 567.035 468.787 568.426  c
h
467.397 564.270 m
467.397 563.395 466.741 562.848 465.647 562.848  c
465.131 562.848 463.959 562.942 463.959 563.863  c
463.959 564.301 464.319 564.520 464.537 564.629  c
466.475 565.723 l
467.053 565.348 467.397 564.910 467.397 564.270  c
h
467.662 569.145 m
467.662 568.520 467.178 568.254 466.616 567.926  c
464.834 566.942 l
464.381 567.192 463.678 567.754 463.678 568.770  c
463.678 569.785 464.428 570.442 465.694 570.442  c
466.444 570.442 467.662 570.238 467.662 569.145  c
h
f
2 J
10.0000 M
1.00000 1.00000 1.00000 RG
0 J
1.45000 M
0.00000 0.00000 0.00000 RG
newpath
480.677 566.981 m
480.677 575.265 473.961 581.981 465.677 581.981  c
457.393 581.981 450.677 575.265 450.677 566.981  c
450.677 558.697 457.393 551.981 465.677 551.981  c
473.961 551.981 480.677 558.697 480.677 566.981  c
h
S
2 J
10.0000 M
1.00000 1.00000 1.00000 RG
newpath
603.039 566.981 m
603.039 575.265 596.323 581.981 588.039 581.981  c
579.754 581.981 573.039 575.265 573.039 566.981  c
573.039 558.697 579.754 551.981 588.039 551.981  c
596.323 551.981 603.039 558.697 603.039 566.981  c
h
f
0.00000 0.00000 0.00000 RG
0 J
1.45000 M
newpath
591.149 568.192 m
591.149 569.942 589.899 571.004 588.087 571.004  c
587.180 571.004 586.196 570.692 585.587 569.707  c
585.040 568.817 584.930 567.770 584.930 566.738  c
584.930 563.473 587.071 562.348 588.837 562.348  c
590.227 562.348 590.774 563.160 590.774 563.973  c
590.774 564.473 590.462 564.801 589.946 564.801  c
589.446 564.801 589.149 564.442 589.149 564.004  c
589.149 563.613 589.368 563.254 589.837 563.192  c
589.540 562.895 589.102 562.848 588.868 562.848  c
588.071 562.848 587.368 563.317 587.055 563.942  c
586.977 564.129 586.696 564.692 586.696 566.176  c
586.696 566.410 l
587.243 565.426 587.977 565.426 588.259 565.426  c
589.837 565.426 591.149 566.379 591.149 568.192  c
h
589.368 568.176 m
589.368 566.879 589.368 565.895 588.134 565.895  c
587.430 565.895 586.727 566.504 586.727 568.129  c
586.727 568.363 586.727 569.317 586.930 569.738  c
587.040 569.942 587.384 570.442 588.055 570.442  c
589.368 570.442 589.368 569.488 589.368 568.176  c
h
f
2 J
10.0000 M
1.00000 1.00000 1.00000 RG
0 J
1.45000 M
0.00000 0.00000 0.00000 RG
newpath
603.039 566.981 m
603.039 575.265 596.323 581.981 588.039 581.981  c
579.754 581.981 573.039 575.265 573.039 566.981  c
573.039 558.697 579.754 551.981 588.039 551.981  c
596.323 551.981 603.039 558.697 603.039 566.981  c
h
S
2 J
10.0000 M
1.00000 1.00000 1.00000 RG
newpath
541.858 566.981 m
541.858 575.265 535.142 581.981 526.858 581.981  c
518.574 581.981 511.858 575.265 511.858 566.981  c
511.858 558.697 518.574 551.981 526.858 551.981  c
535.142 551.981 541.858 558.697 541.858 566.981  c
h
f
0.00000 0.00000 0.00000 RG
0 J
1.45000 M
newpath
530.375 562.488 m
530.375 562.942 530.375 562.973 530.250 563.113  c
528.234 565.457 l
527.781 565.988 527.500 566.754 527.390 567.629  c
527.296 568.238 527.265 568.863 527.265 569.488  c
527.265 570.082 l
527.265 570.942 526.640 571.004 526.437 571.004  c
526.359 571.004 525.640 571.004 525.640 570.098  c
525.640 568.176 526.562 566.410 527.812 564.957  c
528.046 564.676 528.296 564.395 528.531 564.113  c
526.343 564.113 l
526.109 564.113 525.062 564.113 524.921 564.192  c
524.859 564.223 524.703 564.395 524.562 565.379  c
523.953 565.379 l
524.406 562.082 l
525.015 562.082 l
525.046 562.207 525.062 562.317 525.328 562.379  c
525.515 562.426 527.421 562.488 527.734 562.488  c
h
f
2 J
10.0000 M
1.00000 1.00000 1.00000 RG
0 J
1.45000 M
0.00000 0.00000 0.00000 RG
newpath
541.858 566.981 m
541.858 575.265 535.142 581.981 526.858 581.981  c
518.574 581.981 511.858 575.265 511.858 566.981  c
511.858 558.697 518.574 551.981 526.858 551.981  c
535.142 551.981 541.858 558.697 541.858 566.981  c
h
S
2 J
10.0000 M
1.00000 1.00000 1.00000 RG
newpath
419.496 497.349 m
419.496 505.633 412.780 512.349 404.496 512.349  c
396.212 512.349 389.496 505.633 389.496 497.349  c
389.496 489.065 396.212 482.349 404.496 482.349  c
412.780 482.349 419.496 489.065 419.496 497.349  c
h
f
0.00000 0.00000 0.00000 RG
0 J
1.45000 M
newpath
377.413 497.790 m
376.851 502.728 l
366.538 502.728 l
366.538 501.884 l
368.476 501.884 l
368.476 491.228 l
366.538 491.228 l
366.538 490.384 l
367.226 490.431 369.038 490.431 369.835 490.431  c
370.710 490.431 372.679 490.431 373.460 490.384  c
373.460 491.228 l
371.038 491.228 l
371.038 501.884 l
372.898 501.884 l
376.116 501.884 376.413 499.040 376.570 497.790  c
h
388.220 502.290 m
388.220 502.728 388.001 502.728 387.641 502.728  c
386.782 502.728 l
384.907 502.728 384.907 501.900 384.907 501.337  c
384.516 502.103 383.673 502.837 382.220 502.837  c
380.985 502.837 378.751 502.509 378.751 500.790  c
378.751 498.181 383.329 498.009 384.610 497.962  c
384.610 497.353 l
384.610 495.978 383.970 495.228 382.626 495.228  c
382.407 495.228 381.829 495.244 381.329 495.353  c
381.376 495.384 381.720 495.697 381.720 496.228  c
381.720 496.994 381.141 497.369 380.595 497.369  c
380.110 497.369 379.470 497.025 379.470 496.228  c
379.470 494.650 381.673 494.572 382.688 494.572  c
385.376 494.572 386.657 495.744 386.657 497.353  c
386.657 501.212 l
386.657 501.634 386.657 501.869 387.751 501.884  c
387.985 501.884 388.220 501.884 388.220 502.290  c
h
384.610 500.228 m
384.610 498.509 l
383.704 498.572 380.860 498.822 380.860 500.759  c
380.860 501.556 381.579 502.181 382.501 502.181  c
382.954 502.181 384.610 501.947 384.610 500.228  c
h
399.135 502.728 m
395.854 502.837 l
395.854 501.947 l
395.292 502.400 394.432 502.837 393.323 502.837  c
390.667 502.837 389.010 501.119 389.010 498.744  c
389.010 496.212 390.901 494.634 393.526 494.634  c
394.120 494.634 395.057 494.744 395.948 495.431  c
395.948 491.931 l
395.948 491.228 395.823 491.228 394.714 491.228  c
394.714 490.384 l
397.901 490.244 l
397.901 501.181 l
397.901 501.884 398.026 501.884 399.135 501.884  c
h
395.854 500.869 m
395.854 496.369 l
395.448 495.853 394.729 495.275 393.698 495.275  c
393.151 495.275 392.307 495.462 391.776 496.212  c
391.307 496.915 391.307 497.884 391.307 498.744  c
391.307 500.009 391.307 502.181 393.510 502.181  c
394.870 502.181 395.620 501.197 395.854 500.869  c
h
410.613 502.728 m
407.332 502.837 l
407.332 501.947 l
406.769 502.400 405.910 502.837 404.801 502.837  c
402.144 502.837 400.488 501.119 400.488 498.744  c
400.488 496.212 402.379 494.634 405.004 494.634  c
405.597 494.634 406.535 494.744 407.426 495.431  c
407.426 491.931 l
407.426 491.228 407.301 491.228 406.191 491.228  c
406.191 490.384 l
409.379 490.244 l
409.379 501.181 l
409.379 501.884 409.504 501.884 410.613 501.884  c
h
407.332 500.869 m
407.332 496.369 l
406.926 495.853 406.207 495.275 405.176 495.275  c
404.629 495.275 403.785 495.462 403.254 496.212  c
402.785 496.915 402.785 497.884 402.785 498.744  c
402.785 500.009 402.785 502.181 404.988 502.181  c
406.347 502.181 407.097 501.197 407.332 500.869  c
h
420.169 500.619 m
420.169 500.931 419.403 502.837 416.560 502.837  c
413.653 502.837 411.856 501.087 411.856 498.681  c
411.856 496.431 413.419 494.572 416.294 494.572  c
417.544 494.572 418.497 494.900 419.169 495.540  c
420.060 496.447 420.169 497.759 420.169 498.322  c
420.169 498.806 419.997 498.806 419.591 498.806  c
414.153 498.806 l
414.153 499.728 414.169 502.119 416.716 502.119  c
417.888 502.119 418.903 501.540 419.294 500.681  c
419.403 500.384 419.435 500.290 419.731 500.290  c
419.825 500.290 420.169 500.290 420.169 500.619  c
h
418.466 498.212 m
418.435 497.587 418.403 495.228 416.294 495.228  c
415.778 495.228 415.060 495.431 414.591 496.165  c
414.216 496.759 414.200 497.509 414.153 498.212  c
h
428.712 496.103 m
428.712 496.822 428.134 497.197 427.618 497.197  c
427.103 497.197 426.525 496.837 426.525 496.103  c
426.525 495.587 426.868 495.275 426.868 495.275  c
425.056 495.275 424.618 497.478 424.618 498.728  c
424.618 501.884 l
426.181 501.884 l
426.181 502.728 l
425.525 502.681 424.384 502.681 423.697 502.681  c
421.431 502.728 l
421.431 501.884 l
422.665 501.884 l
422.665 496.322 l
422.665 495.619 422.540 495.619 421.431 495.619  c
421.431 494.775 l
424.415 494.634 l
424.415 496.665 l
424.822 495.525 425.540 494.634 426.806 494.634  c
427.743 494.634 428.712 495.150 428.712 496.103  c
h
436.737 500.212 m
436.737 502.837 433.971 502.837 433.409 502.837  c
433.050 502.837 432.112 502.837 431.284 502.259  c
430.815 502.572 l
430.440 502.837 430.409 502.837 430.284 502.837  c
429.956 502.837 429.956 502.681 429.956 502.337  c
429.956 500.369 l
429.956 499.962 429.956 499.853 430.378 499.853  c
430.643 499.853 430.721 499.853 430.815 500.103  c
431.034 500.869 431.503 502.181 433.409 502.181  c
433.800 502.181 435.456 502.181 435.456 500.837  c
435.456 499.775 434.112 499.540 433.456 499.431  c
432.081 499.181 431.393 499.072 430.675 498.447  c
430.315 498.134 429.956 497.650 429.956 496.931  c
429.956 494.572 432.721 494.572 433.268 494.572  c
433.987 494.572 434.612 494.681 435.081 494.915  c
435.784 494.572 435.815 494.572 435.893 494.572  c
436.221 494.572 436.221 494.744 436.221 495.072  c
436.221 496.525 l
436.221 496.931 436.221 497.025 435.784 497.025  c
435.409 497.025 435.393 496.931 435.378 496.665  c
435.284 495.665 434.596 495.150 433.253 495.150  c
432.909 495.150 431.237 495.150 431.237 496.259  c
431.237 497.119 432.393 497.306 433.065 497.431  c
434.471 497.665 435.050 497.775 435.753 498.306  c
436.378 498.806 436.737 499.431 436.737 500.212  c
h
441.684 496.134 m
441.684 496.915 441.059 497.540 440.277 497.540  c
439.512 497.540 438.871 496.915 438.871 496.134  c
438.871 495.369 439.512 494.744 440.277 494.744  c
441.059 494.744 441.684 495.369 441.684 496.134  c
h
441.684 501.322 m
441.684 502.103 441.059 502.728 440.277 502.728  c
439.512 502.728 438.871 502.103 438.871 501.322  c
438.871 500.556 439.512 499.915 440.277 499.915  c
441.059 499.915 441.684 500.556 441.684 501.322  c
h
f
2 J
10.0000 M
1.00000 1.00000 1.00000 RG
0.00000 0.00000 0.00000 RG
1.00000 1.00000 1.00000 RG
newpath
543.039 668.629 m
543.039 676.913 536.323 683.629 528.039 683.629  c
519.754 683.629 513.039 676.913 513.039 668.629  c
513.039 660.345 519.754 653.629 528.039 653.629  c
536.323 653.629 543.039 660.345 543.039 668.629  c
h
f
0.00000 0.00000 0.00000 RG
0 J
1.45000 M
newpath
531.024 669.621 m
530.618 672.511 l
525.040 672.511 l
525.040 672.277 l
525.040 672.011 525.040 671.996 525.212 671.840  c
527.821 669.168 l
528.743 668.246 529.227 667.371 529.227 666.465  c
529.227 665.496 528.634 664.605 527.524 664.605  c
527.055 664.605 526.555 664.746 526.180 665.058  c
526.368 665.121 526.915 665.324 526.915 665.996  c
526.915 666.652 526.399 666.933 525.977 666.933  c
525.665 666.933 525.040 666.746 525.040 665.980  c
525.040 664.808 526.274 663.996 527.837 663.996  c
529.680 663.996 531.024 664.965 531.024 666.449  c
531.024 667.683 530.196 668.293 528.712 669.386  c
528.134 669.824 527.446 670.386 526.837 670.886  c
528.759 670.886 l
528.962 670.886 529.930 670.886 530.071 670.808  c
530.259 670.715 530.384 669.886 530.415 669.621  c
h
f
2 J
10.0000 M
1.00000 1.00000 1.00000 RG
0 J
1.45000 M
0.00000 0.00000 0.00000 RG
newpath
543.039 668.629 m
543.039 676.913 536.323 683.629 528.039 683.629  c
519.754 683.629 513.039 676.913 513.039 668.629  c
513.039 660.345 519.754 653.629 528.039 653.629  c
536.323 653.629 543.039 660.345 543.039 668.629  c
h
S
2 J
10.0000 M
1.00000 1.00000 1.00000 RG
newpath
541.858 617.805 m
541.858 626.089 535.142 632.805 526.858 632.805  c
518.574 632.805 511.858 626.089 511.858 617.805  c
511.858 609.521 518.574 602.805 526.858 602.805  c
535.142 602.805 541.858 609.521 541.858 617.805  c
h
f
0.00000 0.00000 0.00000 RG
0 J
1.45000 M
newpath
529.968 617.406 m
529.968 620.734 527.921 621.828 526.234 621.828  c
524.781 621.828 524.125 621.094 524.125 620.203  c
524.125 619.719 524.437 619.375 524.937 619.375  c
525.453 619.375 525.750 619.734 525.750 620.172  c
525.750 620.766 525.265 620.953 525.109 620.984  c
525.500 621.250 525.968 621.266 526.203 621.266  c
527.109 621.266 527.656 620.687 527.890 620.172  c
528.078 619.734 528.187 618.969 528.187 618.016  c
528.187 617.734 l
527.703 618.641 527.093 618.734 526.640 618.734  c
525.031 618.734 523.750 617.766 523.750 615.969  c
523.750 614.219 525.031 613.172 526.875 613.172  c
529.968 613.172 529.968 616.547 529.968 617.406  c
h
528.187 616.125 m
528.187 615.687 528.187 614.922 528.031 614.500  c
527.968 614.375 527.671 613.672 526.906 613.672  c
525.515 613.672 525.515 614.719 525.515 616.000  c
525.515 617.297 525.515 618.266 526.750 618.266  c
527.843 618.266 528.187 616.937 528.187 616.125  c
h
f
2 J
10.0000 M
1.00000 1.00000 1.00000 RG
0 J
1.45000 M
0.00000 0.00000 0.00000 RG
newpath
541.858 617.805 m
541.858 626.089 535.142 632.805 526.858 632.805  c
518.574 632.805 511.858 626.089 511.858 617.805  c
511.858 609.521 518.574 602.805 526.858 602.805  c
535.142 602.805 541.858 609.521 541.858 617.805  c
h
S
2 J
10.0000 M
1.00000 1.00000 1.00000 RG
newpath
664.220 516.157 m
664.220 524.441 657.504 531.157 649.220 531.157  c
640.935 531.157 634.220 524.441 634.220 516.157  c
634.220 507.873 640.935 501.157 649.220 501.157  c
657.504 501.157 664.220 507.873 664.220 516.157  c
h
f
0.00000 0.00000 0.00000 RG
0 J
1.45000 M
newpath
652.330 517.696 m
652.330 518.883 651.377 520.180 649.049 520.180  c
647.377 520.180 646.111 519.399 646.111 518.227  c
646.111 517.571 646.564 517.211 647.111 517.211  c
647.689 517.211 648.096 517.618 648.096 518.211  c
648.096 518.743 647.768 519.071 647.346 519.180  c
647.971 519.571 648.643 519.618 648.986 519.618  c
650.330 519.618 650.330 518.305 650.330 517.680  c
650.330 517.024 650.330 515.743 648.924 515.743  c
648.346 515.743 l
648.111 515.743 647.986 515.743 647.986 515.508  c
647.986 515.430 648.002 515.305 648.143 515.289  c
648.205 515.274 648.236 515.274 648.768 515.243  c
650.111 515.164 650.127 513.461 650.127 513.289  c
650.127 512.868 650.096 512.024 649.002 512.024  c
648.611 512.024 648.033 512.133 647.580 512.493  c
647.627 512.508 648.330 512.649 648.330 513.414  c
648.330 513.883 648.002 514.305 647.424 514.305  c
646.924 514.305 646.533 513.961 646.533 513.399  c
646.533 512.352 647.533 511.524 649.080 511.524  c
650.924 511.524 651.908 512.336 651.908 513.336  c
651.908 514.446 650.955 515.196 650.064 515.461  c
651.955 515.868 652.330 516.977 652.330 517.696  c
h
f
2 J
10.0000 M
1.00000 1.00000 1.00000 RG
0 J
1.45000 M
0.00000 0.00000 0.00000 RG
newpath
664.220 516.157 m
664.220 524.441 657.504 531.157 649.220 531.157  c
640.935 531.157 634.220 524.441 634.220 516.157  c
634.220 507.873 640.935 501.157 649.220 501.157  c
657.504 501.157 664.220 507.873 664.220 516.157  c
h
S
2 J
10.0000 M
1.00000 1.00000 1.00000 RG
newpath
480.677 516.157 m
480.677 524.441 473.961 531.157 465.677 531.157  c
457.393 531.157 450.677 524.441 450.677 516.157  c
450.677 507.873 457.393 501.157 465.677 501.157  c
473.961 501.157 480.677 507.873 480.677 516.157  c
h
f
0.00000 0.00000 0.00000 RG
0 J
1.45000 M
newpath
468.787 517.602 m
468.787 519.039 467.725 520.180 465.647 520.180  c
463.975 520.180 462.569 519.524 462.569 517.946  c
462.569 516.977 463.147 516.243 464.225 515.758  c
463.225 515.196 462.991 514.368 462.991 513.805  c
462.991 512.555 463.897 511.524 465.694 511.524  c
467.178 511.524 468.366 512.102 468.366 513.430  c
468.366 514.196 467.959 514.758 467.053 515.227  c
467.694 515.586 468.787 516.211 468.787 517.602  c
h
467.397 513.446 m
467.397 512.571 466.741 512.024 465.647 512.024  c
465.131 512.024 463.959 512.118 463.959 513.039  c
463.959 513.477 464.319 513.696 464.537 513.805  c
466.475 514.899 l
467.053 514.524 467.397 514.086 467.397 513.446  c
h
467.662 518.321 m
467.662 517.696 467.178 517.430 466.616 517.102  c
464.834 516.118 l
464.381 516.368 463.678 516.930 463.678 517.946  c
463.678 518.961 464.428 519.618 465.694 519.618  c
466.444 519.618 467.662 519.414 467.662 518.321  c
h
f
2 J
10.0000 M
1.00000 1.00000 1.00000 RG
0 J
1.45000 M
0.00000 0.00000 0.00000 RG
newpath
480.677 516.157 m
480.677 524.441 473.961 531.157 465.677 531.157  c
457.393 531.157 450.677 524.441 450.677 516.157  c
450.677 507.873 457.393 501.157 465.677 501.157  c
473.961 501.157 480.677 507.873 480.677 516.157  c
h
S
2 J
10.0000 M
1.00000 1.00000 1.00000 RG
newpath
480.677 617.805 m
480.677 626.089 473.961 632.805 465.677 632.805  c
457.393 632.805 450.677 626.089 450.677 617.805  c
450.677 609.521 457.393 602.805 465.677 602.805  c
473.961 602.805 480.677 609.521 480.677 617.805  c
h
f
0.00000 0.00000 0.00000 RG
0 J
1.45000 M
newpath
464.632 621.687 m
464.054 621.656 462.679 621.656 462.039 621.656  c
461.414 621.656 460.023 621.656 459.460 621.687  c
459.460 621.078 l
461.273 621.078 l
461.273 614.359 l
460.492 614.609 459.789 614.609 459.570 614.609  c
459.320 614.609 l
459.320 614.000 l
459.570 614.000 l
459.851 614.000 461.195 614.000 462.195 613.266  c
462.304 613.172 462.335 613.172 462.476 613.172  c
462.820 613.172 462.820 613.297 462.820 613.594  c
462.820 621.078 l
464.632 621.078 l
h
472.552 617.547 m
472.552 618.844 472.521 621.828 469.411 621.828  c
466.271 621.828 466.255 618.828 466.255 617.547  c
466.255 616.266 466.271 613.172 469.411 613.172  c
472.536 613.172 472.552 616.281 472.552 617.547  c
h
470.896 617.391 m
470.896 616.312 470.896 614.937 470.661 614.453  c
470.427 613.891 469.896 613.641 469.411 613.641  c
469.099 613.641 468.193 613.766 468.036 614.922  c
467.927 615.609 467.927 616.453 467.927 617.391  c
467.927 618.094 467.927 619.453 468.036 620.125  c
468.208 621.078 468.943 621.359 469.411 621.359  c
469.802 621.359 470.614 621.187 470.802 619.969  c
470.896 619.297 470.896 618.109 470.896 617.391  c
h
f
2 J
10.0000 M
1.00000 1.00000 1.00000 RG
0 J
1.45000 M
0.00000 0.00000 0.00000 RG
newpath
480.677 617.805 m
480.677 626.089 473.961 632.805 465.677 632.805  c
457.393 632.805 450.677 626.089 450.677 617.805  c
450.677 609.521 457.393 602.805 465.677 602.805  c
473.961 602.805 480.677 609.521 480.677 617.805  c
h
S
2 J
10.0000 M
1.00000 1.00000 1.00000 RG
newpath
480.677 719.453 m
480.677 727.737 473.961 734.453 465.677 734.453  c
457.393 734.453 450.677 727.737 450.677 719.453  c
450.677 711.169 457.393 704.453 465.677 704.453  c
473.961 704.453 480.677 711.169 480.677 719.453  c
h
f
0.00000 0.00000 0.00000 RG
0 J
1.45000 M
newpath
468.366 723.335 m
467.787 723.304 466.412 723.304 465.772 723.304  c
465.147 723.304 463.756 723.304 463.194 723.335  c
463.194 722.726 l
465.006 722.726 l
465.006 716.007 l
464.225 716.257 463.522 716.257 463.303 716.257  c
463.053 716.257 l
463.053 715.648 l
463.303 715.648 l
463.584 715.648 464.928 715.648 465.928 714.914  c
466.037 714.820 466.069 714.820 466.209 714.820  c
466.553 714.820 466.553 714.945 466.553 715.242  c
466.553 722.726 l
468.366 722.726 l
h
f
2 J
10.0000 M
1.00000 1.00000 1.00000 RG
0 J
1.45000 M
0.00000 0.00000 0.00000 RG
newpath
480.677 719.453 m
480.677 727.737 473.961 734.453 465.677 734.453  c
457.393 734.453 450.677 727.737 450.677 719.453  c
450.677 711.169 457.393 704.453 465.677 704.453  c
473.961 704.453 480.677 711.169 480.677 719.453  c
h
S
2 J
10.0000 M
1.00000 1.00000 1.00000 RG
newpath
603.039 516.157 m
603.039 524.441 596.323 531.157 588.039 531.157  c
579.754 531.157 573.039 524.441 573.039 516.157  c
573.039 507.873 579.754 501.157 588.039 501.157  c
596.323 501.157 603.039 507.873 603.039 516.157  c
h
f
0.00000 0.00000 0.00000 RG
0 J
1.45000 M
newpath
591.352 520.039 m
590.899 520.008 589.759 520.008 589.243 520.008  c
588.680 520.008 587.509 520.008 587.009 520.039  c
587.009 519.430 l
588.462 519.430 l
588.462 518.008 l
584.727 518.008 l
584.727 517.399 l
589.259 511.727 l
589.415 511.524 589.430 511.508 589.696 511.508  c
590.071 511.508 590.087 511.571 590.087 511.930  c
590.087 517.399 l
591.352 517.399 l
591.352 518.008 l
590.087 518.008 l
590.087 519.430 l
591.352 519.430 l
h
588.602 517.399 m
588.602 513.368 l
585.399 517.399 l
h
f
2 J
10.0000 M
1.00000 1.00000 1.00000 RG
0 J
1.45000 M
0.00000 0.00000 0.00000 RG
newpath
603.039 516.157 m
603.039 524.441 596.323 531.157 588.039 531.157  c
579.754 531.157 573.039 524.441 573.039 516.157  c
573.039 507.873 579.754 501.157 588.039 501.157  c
596.323 501.157 603.039 507.873 603.039 516.157  c
h
S
2 J
10.0000 M
1.00000 1.00000 1.00000 RG
newpath
541.858 516.157 m
541.858 524.441 535.142 531.157 526.858 531.157  c
518.574 531.157 511.858 524.441 511.858 516.157  c
511.858 507.873 518.574 501.157 526.858 501.157  c
535.142 501.157 541.858 507.873 541.858 516.157  c
h
f
0.00000 0.00000 0.00000 RG
0 J
1.45000 M
newpath
530.375 511.664 m
530.375 512.118 530.375 512.149 530.250 512.289  c
528.234 514.633 l
527.781 515.164 527.500 515.930 527.390 516.805  c
527.296 517.414 527.265 518.039 527.265 518.664  c
527.265 519.258 l
527.265 520.118 526.640 520.180 526.437 520.180  c
526.359 520.180 525.640 520.180 525.640 519.274  c
525.640 517.352 526.562 515.586 527.812 514.133  c
528.046 513.852 528.296 513.571 528.531 513.289  c
526.343 513.289 l
526.109 513.289 525.062 513.289 524.921 513.368  c
524.859 513.399 524.703 513.571 524.562 514.555  c
523.953 514.555 l
524.406 511.258 l
525.015 511.258 l
525.046 511.383 525.062 511.493 525.328 511.555  c
525.515 511.602 527.421 511.664 527.734 511.664  c
h
f
2 J
10.0000 M
1.00000 1.00000 1.00000 RG
0 J
1.45000 M
0.00000 0.00000 0.00000 RG
newpath
541.858 516.157 m
541.858 524.441 535.142 531.157 526.858 531.157  c
518.574 531.157 511.858 524.441 511.858 516.157  c
511.858 507.873 518.574 501.157 526.858 501.157  c
535.142 501.157 541.858 507.873 541.858 516.157  c
h
S
2 J
10.0000 M
1.00000 1.00000 1.00000 RG
newpath
481.858 668.629 m
481.858 676.913 475.142 683.629 466.858 683.629  c
458.574 683.629 451.858 676.913 451.858 668.629  c
451.858 660.345 458.574 653.629 466.858 653.629  c
475.142 653.629 481.858 660.345 481.858 668.629  c
h
f
0.00000 0.00000 0.00000 RG
0 J
1.45000 M
newpath
470.375 664.136 m
470.375 664.590 470.375 664.621 470.250 664.761  c
468.234 667.105 l
467.781 667.636 467.500 668.402 467.390 669.277  c
467.296 669.886 467.265 670.511 467.265 671.136  c
467.265 671.730 l
467.265 672.590 466.640 672.652 466.437 672.652  c
466.359 672.652 465.640 672.652 465.640 671.746  c
465.640 669.824 466.562 668.058 467.812 666.605  c
468.046 666.324 468.296 666.043 468.531 665.761  c
466.343 665.761 l
466.109 665.761 465.062 665.761 464.921 665.840  c
464.859 665.871 464.703 666.043 464.562 667.027  c
463.953 667.027 l
464.406 663.730 l
465.015 663.730 l
465.046 663.855 465.062 663.965 465.328 664.027  c
465.515 664.074 467.421 664.136 467.734 664.136  c
h
f
2 J
10.0000 M
1.00000 1.00000 1.00000 RG
0 J
1.45000 M
0.00000 0.00000 0.00000 RG
newpath
481.858 668.629 m
481.858 676.913 475.142 683.629 466.858 683.629  c
458.574 683.629 451.858 676.913 451.858 668.629  c
451.858 660.345 458.574 653.629 466.858 653.629  c
475.142 653.629 481.858 660.345 481.858 668.629  c
h
S
2 J
10.0000 M
2.00000 w
0 J
1.45000 M
newpath
634.220 566.981 m
607.539 566.981 l
S
newpath
603.039 566.981 m
612.039 573.731 l
608.664 566.981 l
612.039 560.231 l
h
f
1.00000 w
2 J
10.0000 M
2.00000 w
0 J
1.45000 M
newpath
485.177 566.981 m
511.858 566.981 l
S
newpath
480.677 566.981 m
489.677 573.731 l
486.302 566.981 l
489.677 560.231 l
h
f
1.00000 w
2 J
10.0000 M
2.00000 w
0 J
1.45000 M
newpath
573.039 566.981 m
546.358 566.981 l
S
newpath
541.858 566.981 m
550.858 573.731 l
547.483 566.981 l
550.858 560.231 l
h
f
1.00000 w
2 J
10.0000 M
2.00000 w
0 J
1.45000 M
newpath
511.858 617.805 m
485.177 617.805 l
S
newpath
480.677 617.805 m
489.677 624.555 l
486.302 617.805 l
489.677 611.055 l
h
f
1.00000 w
2 J
10.0000 M
2.00000 w
0 J
1.45000 M
newpath
634.220 516.157 m
607.539 516.157 l
S
newpath
603.039 516.157 m
612.039 522.907 l
608.664 516.157 l
612.039 509.407 l
h
f
1.00000 w
2 J
10.0000 M
2.00000 w
0 J
1.45000 M
newpath
485.177 516.157 m
511.858 516.157 l
S
newpath
480.677 516.157 m
489.677 522.907 l
486.302 516.157 l
489.677 509.407 l
h
f
1.00000 w
2 J
10.0000 M
2.00000 w
0 J
1.45000 M
newpath
573.039 516.157 m
546.358 516.157 l
S
newpath
541.858 516.157 m
550.858 522.907 l
547.483 516.157 l
550.858 509.407 l
h
f
1.00000 w
2 J
10.0000 M
2.00000 w
0 J
1.45000 M
newpath
513.039 668.629 m
486.358 668.629 l
S
newpath
481.858 668.629 m
490.858 675.379 l
487.483 668.629 l
490.858 661.879 l
h
f
1.00000 w
2 J
10.0000 M
Q
[ 1.00000 0.00000 0.00000 1.00000 0.00000 0.00000 ] defaultmatrix matrix concatmatrix setmatrix
cliprestore

%%Trailer
%%EOF
