%!PS-Adobe-3.0 EPSF-3.0
%%BoundingBox: 0 0 358 427
%%Creator: yExport 1.5
%%Producer: org.freehep.graphicsio.ps.EPSGraphics2D Revision: 12753 
%%For: 
%%Title: 
%%CreationDate: Thursday, July 28, 2016 10:54:17 PM EEST
%%LanguageLevel: 3
%%EndComments
%%BeginProlog
100 dict dup begin

%
% File: org/freehep/graphicsio.ps/PSProlog.txt
% Author: Charles Loomis
%

% Redefinitions which save some space in the output file.  These are also
% the same as the PDF operators.
/q {gsave} def
/Q {grestore} def

/n {newpath} def
/m {moveto} def
/l {lineto} def
/c {curveto} def
/h {closepath} def

/re {4 -2 roll moveto
     dup 0 exch rlineto exch 0 rlineto
     neg 0 exch rlineto closepath} def

/f {fill} def
/f* {eofill} def
/F {gsave vg&FC fill grestore} def
/F* {gsave vg&FC eofill grestore} def

/s {closepath stroke} def
/S {stroke} def

/b {closepath gsave vg&FC fill grestore
    gsave stroke grestore newpath} def
/B {gsave vg&FC fill grestore gsave stroke grestore newpath} def
/b* {closepath gsave vg&FC eofill grestore
    gsave stroke grestore newpath} def
/B* {gsave vg&FC eofill grestore gsave stroke grestore newpath} def

/g {1 array astore /vg&fcolor exch def} def
/G {setgray} def
/k {4 array astore /vg&fcolor exch def} def
/K {setcmykcolor} def
/rg {3 array astore /vg&fcolor exch def} def
/RG {setrgbcolor} def

% Initialize the fill color.
0 0 0 rg

/vg&FC {mark vg&fcolor aload pop
        counttomark 1 eq {G} if
        counttomark 3 eq {RG} if
        counttomark 4 eq {K} if
        cleartomark } def

/vg&DFC {/vg&fcolor exch def} def

/vg&C {mark exch aload pop
       counttomark 1 eq {G} if
       counttomark 3 eq {RG} if
       counttomark 4 eq {K} if
       cleartomark } def

/w {setlinewidth} def
/j {setlinejoin} def
/J {setlinecap} def
/M {setmiterlimit} def
/d {setdash} def
/i {setflat} def

/W {clip} def
/W* {eoclip} def

% Setup the default graphics state.
% (black; 1 pt. linewidth; miter join; butt-ends; solid)
/defaultGraphicsState {0 g 1 w 0 j 0 J [] 0 d} def

% Emulation of the rectangle operators for PostScript implementations
% which do not implement all Level 2 features.  This is an INCOMPLETE
% emulation; only the "x y width height rect..." form is emulated.
/*rf {gsave newpath re fill grestore} def
/*rs {gsave newpath re stroke grestore} def
/*rc {newpath re clip} def
/rf  /rectfill where {pop /rectfill}{/*rf} ifelse load def
/rs  /rectstroke where {pop /rectstroke}{/*rs} ifelse load def
/rc  /rectclip where {pop /rectclip}{/*rc} ifelse load def

% Emulation of the selectfont operator.  This includes a 20% increase in
% the fontsize which is necessary to get sizes similar to the Java fonts.
/*sf {exch findfont exch
      dup type /arraytype eq {makefont}{scalefont} ifelse setfont} bind def
/sf /selectfont where {pop {1.2 mul selectfont}}{{1.2 mul *sf}} ifelse def

% Special version of stroke which allows the dash pattern to continue
% across path segments.  (This may be needed for PostScript although
% modern printers seem to do this correctly.)
/vg&stroke {
  currentdash pop length 0 eq
  {stroke}
  {
    currentdash /vg&doffset exch def pop
    flattenpath
    {m vg&resetdash}
    {2 copy
     currentpoint
     3 -1 roll sub dup mul
     3 1 roll sub dup mul
     add sqrt
     3 1 roll l
     currentdash 3 -1 roll add setdash}
     {}
     {h vg&resetdash}
     pathforall
     stroke
     vg&resetdash
  } ifelse
} def
/vg&resetdash {currentdash pop vg&doffset setdash} def

% Initialize variables for safety.
/delta 0 def
/xv 0 def  /yv 0 def  /width 0 def  /height 0 def

% Initialize to portrait INTERNATIONAL (Letter-height, A4-width) page.
/pw 595 def  /ph 791  def  /po true def /ftp false def

% Initialize margins to 20 points.
/ml 20 def  /mr 20 def  /mt 20 def  /mb 20 def

% Temporary matrices.
/smatrix 0 def  /nmatrix 0 def

% set page size (usage: <page width><page height> setpagesize)
/setpagesize {/ph exch def /pw exch def} def

% set page orientation (usage: portrait or landscape)
/portrait {/po true def} def
/landscape {/po false def} def

% force natural size for image (usage: naturalsize)
/naturalsize {/ftp false def} def

% resize image to fill page (usage: fittopage)
/fittopage {/ftp true def} def

% set margins of the page (usage: <left><bottom><top><right> setmargins)
/setmargins {/mr exch def /mt exch def /mb exch def /ml exch def} def

% set the graphic's size (usage: <width><height> setsize)
/setsize {/gh exch def /gw exch def} def

% set the graphic's origin (usage: <x0><y0> setorigin)
/setorigin {/gy exch def /gx exch def} def

% calculate image center
/imagecenter {pw ml sub mr sub 2 div ml add
              ph mt sub mb sub 2 div mb add} def

% calculate the necessary scaling
/imagescale {po {gw}{gh} ifelse pw ml sub mr sub div
             po {gh}{gw} ifelse ph mt sub mb sub div
             2 copy lt {exch} if pop
             ftp not {1 2 copy lt {exch} if pop} if
             1 exch div /sfactor exch def
             /gw gw sfactor mul def /gh gh sfactor mul def} def

% calculate image origin
/imageorigin {pw ml sub mr sub 2 div ml add
              po {gw}{gh} ifelse 2 div sub
              ph mt sub mb sub 2 div mb add
              po {gh}{gw} ifelse 2 div po {add}{sub} ifelse} def

% calculate the clipping origin
/cliporigin  {pw ml sub mr sub 2 div ml add
              po {gw}{gh} ifelse 2 div sub floor
              ph mt sub mb sub 2 div mb add
              po {gh}{gw} ifelse 2 div sub floor} def

% Set the clipping region to the bounding box.
/cliptobounds {cliporigin po {gw}{gh} ifelse 1 add
                          po {gh}{gw} ifelse 1 add rc} def

% set the base transformation matrix (usage: setbasematrix)
/setbasematrix {imageorigin translate
                po {0}{90} ifelse rotate
                sfactor sfactor neg scale
                /defaultmatrix matrix currentmatrix def} def

% The lower-right bias in drawing 1 pt. wide lines.
/bias  {q 0.5 0.5 translate} def
/unbias {Q} def

% Define the composite fonts used to print Unicode strings.
% Undefine particular values in an encoding array.
/vg&undef { {exch dup 3 -1 roll /.notdef put} forall } def
/vg&redef { {3 -1 roll dup 4 2 roll put} forall } def

% usage: key encoding basefontname vg&newbasefont font
/vg&newbasefont {
findfont dup length dict copy
  begin
    currentdict /FID undef
    /Encoding exch def
    dup /FontName exch def
    currentdict
  end
definefont
} def

% usage: key encoding basefontname vg&newskewedbasefont font
/vg&newskewedbasefont {
findfont dup length dict copy
  begin
    currentdict /FID undef
    /Encoding exch def
    dup /FontName exch def
    exch FontMatrix exch matrix concatmatrix /FontMatrix exch def
    currentdict
  end
definefont
} def

% usage: basekey suffix vg&nconcat name
/vg&nconcat {
  2 {dup length string cvs exch} repeat
  dup length 3 -1 roll dup length 3 -1 roll add string
  dup 0 4 -1 roll dup length 5 1 roll putinterval
  dup 4 -2 roll exch putinterval cvn
} def

%usage: fontname vg&skewmatrix matrix
/vg&skewmatrix {
findfont dup /FontInfo known
  {
    /FontInfo get dup /ItalicAngle known
    {
      [ 1 0 4 -1 roll /ItalicAngle get neg dup sin exch cos div 1 0 0 ]
    }
    {pop matrix} ifelse
  }
  {pop matrix} ifelse
} def

% usage: newfontname basefontname vg&newcompositefont --
/vg&newcompositefont {
/vg&fstyle exch def
/vg&bfont exch def
/vg&fname exch def
<<
/FontStyleBits vg&fstyle
/FontType 0
/FontMatrix matrix
/FontName vg&fname
/FMapType 2
/Encoding [ 0 1 255 {pop 6} for ]
          dup 16#00 0 put % Latin
          dup 16#03 1 put % Greek
          dup 16#20 2 put % Punctuation
          dup 16#21 3 put % Arrows
          dup 16#22 4 put % MathOps
          dup 16#27 5 put % Dingbats

/FDepVector [
vg&bfont /-UC-Latin vg&nconcat UCLatinEncoding
vg&bfont vg&newbasefont

vg&bfont vg&skewmatrix
vg&bfont /-UC-Greek vg&nconcat UCGreekEncoding
/Symbol vg&newskewedbasefont

vg&bfont /-UC-Punctuation vg&nconcat UCPunctuationEncoding
vg&bfont vg&newbasefont

/Arrows-UC findfont
/MathOps-UC findfont
/Dingbats-UC findfont
/Undefined-UC findfont ]
>>
vg&fname exch definefont pop
} def

% Null encoding vector (all elements set to .notdef)
/NullEncoding [ 256 {/.notdef} repeat ] def

% Unicode Latin encoding (unicode codes \u0000-\u00ff)
/UCLatinEncoding
  ISOLatin1Encoding dup length array copy
  dup 16#60 /grave put
  [ 16#90 16#91 16#92 16#93 16#94 16#95 16#96
    16#97 16#98 16#9a 16#9b 16#9d 16#9e 16#9f
  ] vg&undef
  def

% Unicode Greek encoding (unicode codes \u0370-\u03ff)
/UCGreekEncoding
  NullEncoding dup length array copy
  << 16#91 /Alpha    16#92 /Beta      16#93 /Gamma    16#94 /Delta
     16#95 /Epsilon  16#96 /Zeta      16#97 /Eta      16#98 /Theta
     16#99 /Iota     16#9a /Kappa     16#9b /Lambda   16#9c /Mu
     16#9d /Nu       16#9e /Xi        16#9f /Omicron  16#a0 /Pi
     16#a1 /Rho      16#a3 /Sigma     16#a4 /Tau      16#a5 /Upsilon
     16#a6 /Phi      16#a7 /Chi       16#a8 /Psi      16#a9 /Omega
     16#b1 /alpha    16#b2 /beta      16#b3 /gamma    16#b4 /delta
     16#b5 /epsilon  16#b6 /zeta      16#b7 /eta      16#b8 /theta
     16#b9 /iota     16#ba /kappa     16#bb /lambda   16#bc /mu
     16#bd /nu       16#be /xi        16#bf /omicron  16#c0 /pi
     16#c1 /rho      16#c2 /sigma1    16#c3 /sigma    16#c4 /tau
     16#c5 /upsilon  16#c6 /phi1      16#c7 /chi      16#c8 /psi
     16#c9 /omega    16#7e /semicolon 16#87 /dotmath  16#d1 /theta1
     16#d2 /Upsilon1 16#d5 /phi       16#d6 /omega1
  >> vg&redef
  def

% Unicode punctuation encoding (unicode codes \u2000-\u206f)
/UCPunctuationEncoding
  NullEncoding dup length array copy
  << 16#10 /hyphen          16#11 /hyphen              16#12 /endash
     16#13 /emdash          16#18 /quoteleft           16#19 /quoteright
     16#1a /quotesinglbase  16#1b /quotesingle         16#1c /quotedblleft
     16#1d /quotedblright   16#1e /quotedblbase        16#1f /quotedbl
     16#20 /dagger          16#21 /daggerdbl           16#22 /bullet
     16#24 /period          16#26 /ellipsis            16#27 /periodcentered
     16#30 /perthousand     16#44 /fraction
     16#70 /zerosuperior    16#74 /foursuperior        16#75 /fivesuperior
     16#76 /sixsuperior     16#77 /sevensuperior       16#78 /eightsuperior
     16#79 /ninesuperior    16#7b /hyphensuperior      16#7d /parenleftsuperior
     16#7e /parenrightsuperior
     16#80 /zeroinferior    16#84 /fourinferior        16#85 /fiveinferior
     16#81 /oneinferior     16#82 /twoinferior         16#83 /threeinferior
     16#86 /sixinferior     16#87 /seveninferior       16#88 /eightinferior
     16#89 /nineinferior    16#8b /hypheninferior      16#8d /parenleftinferior
     16#8e /parenrightinferior
  >> vg&redef
  def

% Unicode mathematical operators encoding (unicode codes \u2200-\u22ff)
/UCMathOpsEncoding
  NullEncoding dup length array copy
  << 16#00 /universal       16#02 /partialdiff         16#03 /existential
     16#05 /emptyset        16#06 /Delta               16#07 /gradient
     16#08 /element         16#09 /notelement          16#0b /suchthat
     16#0f /product         16#11 /summation           16#12 /minus
     16#15 /fraction        16#17 /asteriskmath        16#19 /bullet
     16#1a /radical         16#1d /proportional        16#1e /infinity
     16#20 /angle           16#23 /bar                 16#27 /logicaland
     16#28 /logicalor       16#29 /intersection        16#2a /union
     16#2b /integral        16#34 /therefore           16#36 /colon
     16#3c /similar         16#45 /congruent           16#48 /approxequal
     16#60 /notequal        16#61 /equivalence         16#64 /lessequal
     16#65 /greaterequal    16#82 /propersubset        16#83 /propersuperset
     16#86 /reflexsubset    16#87 /reflexsuperset      16#95 /circleplus
     16#97 /circlemultiply  16#a5 /perpendicular       16#03 /existential
     16#c0 /logicaland      16#c1 /logicalor           16#c2 /intersection
     16#c3 /union           16#c4 /diamond             16#c5 /dotmath
  >> vg&redef
  def

% Unicode arrows encoding (unicode codes \u2190-\u21ff)
% Also includes those "Letterlike" unicode characters
% which are available in the symbol font. (unicode codes \u2100-\u214f)
/UCArrowsEncoding
  NullEncoding dup length array copy
  << 16#11 /Ifraktur        16#1c /Rfraktur            16#22 /trademarkserif
     16#35 /aleph
     16#90 /arrowleft       16#91 /arrowup             16#92 /arrowright
     16#93 /arrowdown       16#94 /arrowboth           16#d0 /arrowdblleft
     16#d1 /arrowdblup      16#d2 /arrowdblright       16#d3 /arrowdbldown
     16#d4 /arrowdblboth
  >> vg&redef
  def

/ZapfDingbats findfont /Encoding get
dup length array copy /UCDingbatsEncoding exch def
16#20 1 16#7f {
  dup 16#20 sub exch
  UCDingbatsEncoding exch get
  UCDingbatsEncoding 3 1 roll put
} for
16#a0 1 16#ff {
  dup 16#40 sub exch
  UCDingbatsEncoding exch get
  UCDingbatsEncoding 3 1 roll put
} for
UCDingbatsEncoding [ 16#c0 1 16#ff {} for ] vg&undef
[ 16#00  16#05 16#0a 16#0b  16#28 16#4c 16#4e  16#53 16#54 16#55  16#57 16#5f
  16#60  16#68 16#69 16#6a  16#6b 16#6c 16#6d  16#6e 16#6f 16#70  16#71 16#72
  16#73  16#74 16#75 16#95  16#96 16#97 16#b0  16#bf
] vg&undef pop

% Define the base fonts which don't change.
/Undefined-UC NullEncoding       /Helvetica    vg&newbasefont pop
/MathOps-UC   UCMathOpsEncoding  /Symbol       vg&newbasefont pop
/Arrows-UC    UCArrowsEncoding   /Symbol       vg&newbasefont pop
/Dingbats-UC  UCDingbatsEncoding /ZapfDingbats vg&newbasefont pop

% Make the SansSerif composite fonts.
/SansSerif /Helvetica 16#00 vg&newcompositefont
/SansSerif-Bold /Helvetica-Bold 16#01 vg&newcompositefont
/SansSerif-Italic /Helvetica-Oblique 16#02 vg&newcompositefont
/SansSerif-BoldItalic /Helvetica-BoldOblique 16#03 vg&newcompositefont

% Make the Serif composite fonts.
/Serif /Times-Roman 16#00 vg&newcompositefont
/Serif-Bold /Times-Bold 16#01 vg&newcompositefont
/Serif-Italic /Times-Italic 16#02 vg&newcompositefont
/Serif-BoldItalic /Times-BoldItalic 16#03 vg&newcompositefont

% Make the Monospaced composite fonts.
/Monospaced /Courier 16#00 vg&newcompositefont
/Monospaced-Bold /Courier-Bold 16#01 vg&newcompositefont
/Monospaced-Italic /Courier-Oblique 16#02 vg&newcompositefont
/Monospaced-BoldItalic /Courier-BoldOblique 16#03 vg&newcompositefont

% Make the Dialog composite fonts.
/Dialog /Helvetica 16#00 vg&newcompositefont
/Dialog-Bold /Helvetica-Bold 16#01 vg&newcompositefont
/Dialog-Italic /Helvetica-Oblique 16#02 vg&newcompositefont
/Dialog-BoldItalic /Helvetica-BoldOblique 16#03 vg&newcompositefont

% Make the DialogInput composite fonts.
/DialogInput /Courier 16#00 vg&newcompositefont
/DialogInput-Bold /Courier-Bold 16#01 vg&newcompositefont
/DialogInput-Italic /Courier-Oblique 16#02 vg&newcompositefont
/DialogInput-BoldItalic /Courier-BoldOblique 16#03 vg&newcompositefont

% Make the Typewriter composite fonts (JDK 1.1 only).
/Typewriter /Courier 16#00 vg&newcompositefont
/Typewriter-Bold /Courier-Bold 16#01 vg&newcompositefont
/Typewriter-Italic /Courier-Oblique 16#02 vg&newcompositefont
/Typewriter-BoldItalic /Courier-BoldOblique 16#03 vg&newcompositefont


/cfontH {
 dup /fontsize exch def /SansSerif exch sf
 /vg&fontstyles [{cfontH} {cfontHB} {cfontHI} {cfontHBI}] def
} def
/cfontHB {
  dup /fontsize exch def /SansSerif-Bold exch sf
 /vg&fontstyles [{cfontH} {cfontHB} {cfontHI} {cfontHBI}] def
} def
/cfontHI {
 dup /fontsize exch def /SansSerif-Italic exch sf
 /vg&fontstyles [{cfontH} {cfontHB} {cfontHI} {cfontHBI}] def
} def
/cfontHBI {
 dup /fontsize exch def /SansSerif-BoldItalic exch sf
 /vg&fontstyles [{cfontH} {cfontHB} {cfontHI} {cfontHBI}] def
} def

/cfontT {
 dup /fontsize exch def /Serif exch sf
 /vg&fontstyles [{cfontT} {cfontTB} {cfontTI} {cfontTBI}] def
} def
/cfontTB {
 dup /fontsize exch def /Serif-Bold exch sf
 /vg&fontstyles [{cfontT} {cfontTB} {cfontTI} {cfontTBI}] def
} def
/cfontTI {
 dup /fontsize exch def /Serif-Italic exch sf
 /vg&fontstyles [{cfontT} {cfontTB} {cfontTI} {cfontTBI}] def
} def
/cfontTBI {
 dup /fontsize exch def /Serif-BoldItalic exch sf
 /vg&fontstyles [{cfontT} {cfontTB} {cfontTI} {cfontTBI}] def
} def

/cfontC {
 dup /fontsize exch def /Typewriter exch sf
 /vg&fontstyles [{cfontC} {cfontCB} {cfontCI} {cfontCBI}] def
} def
/cfontCB {
 dup /fontsize exch def /Typewriter-Bold exch sf
 /vg&fontstyles [{cfontC} {cfontCB} {cfontCI} {cfontCBI}] def
} def
/cfontCI {
 dup /fontsize exch def /Typewriter-Italic exch sf
 /vg&fontstyles [{cfontC} {cfontCB} {cfontCI} {cfontCBI}] def
} def
/cfontCBI {
 dup /fontsize exch def /Typewriter-BoldItalic exch sf
 /vg&fontstyles [{cfontC} {cfontCB} {cfontCI} {cfontCBI}] def
} def

% Darken or lighten the current color.
/darken {0.7 exch exp 3 copy
         q 4 -1 roll vg&C
         currentrgbcolor 3 {4 -2 roll mul} repeat
         3 array astore Q} def

/displayColorMap
<< /Cr   [1.00 0.00 0.00]       /Cg     [0.00 1.00 0.00]
   /Cb   [0.00 0.00 1.00]       /Cc     [1.00 0.00 0.00 0.00]
   /Cm   [0.00 1.00 0.00 0.00]  /Cy     [0.00 0.00 1.00 0.00]
   /Co   [1.00 0.78 0.00]       /Cp     [1.00 0.67 0.67]
   /Cw   [1   ]                 /Cgrl   [0.75]
   /Cgr  [0.50]                 /Cgrd   [0.25]
   /Ck   [0   ]
   /CGr  [1.00 0.00 0.00]       /CGg    [0.00 1.00 0.00]
   /CGb  [0.00 0.00 1.00]       /CGc    [1.00 0.00 0.00 0.00]
   /CGm  [0.00 1.00 0.00 0.00]  /CGy    [0.00 0.00 1.00 0.00]
   /CGo  [1.00 0.78 0.00]       /CGp    [1.00 0.67 0.67]
   /CGw  [1   ]                 /CGgrl  [0.75]
   /CGgr [0.50]                 /CGgrd  [0.25]
   /CGk  [0   ]
   /CIr  [1.00 0.00 0.00]       /CIg    [0.00 1.00 0.00]
   /CIb  [0.00 0.00 1.00]       /CIc    [1.00 0.00 0.00 0.00]
   /CIm  [0.00 1.00 0.00 0.00]  /CIy    [0.00 0.00 1.00 0.00]
   /CIo  [1.00 0.78 0.00]       /CIp    [1.00 0.67 0.67]
   /CIw  [1   ]                 /CIgrl  [0.75]
   /CIgr [0.50]                 /CIgrd  [0.25]
   /CIk  [0   ]
>> def

/printColorMap
<< /Cr   [1.00 0.33 0.33]       /Cg     [0.33 1.00 0.33]
   /Cb   [0.33 0.33 1.00]       /Cc     [1.00 0.00 0.00 0.00]
   /Cm   [0.00 1.00 0.00 0.00]  /Cy     [0.00 0.00 1.00 0.00]
   /Co   [1.00 0.78 0.00]       /Cp     [1.00 0.67 0.67]
   /Cw   [1   ]                 /Cgrl   [0.75]
   /Cgr  [0.50]                 /Cgrd   [0.25]
   /Ck   [0   ]
   /CGr  [1.00 0.33 0.33]       /CGg    [0.33 1.00 0.33]
   /CGb  [0.33 0.33 1.00]       /CGc    [1.00 0.00 0.00 0.00]
   /CGm  [0.00 1.00 0.00 0.00]  /CGy    [0.00 0.00 1.00 0.00]
   /CGo  [1.00 0.78 0.00]       /CGp    [1.00 0.67 0.67]
   /CGw  [1   ]                 /CGgrl  [0.75]
   /CGgr [0.50]                 /CGgrd  [0.25]
   /CGk  [0   ]
   /CIr  [1.00 0.33 0.33]       /CIg    [0.33 1.00 0.33]
   /CIb  [0.33 0.33 1.00]       /CIc    [1.00 0.00 0.00 0.00]
   /CIm  [0.00 1.00 0.00 0.00]  /CIy    [0.00 0.00 1.00 0.00]
   /CIo  [1.00 0.78 0.00]       /CIp    [1.00 0.67 0.67]
   /CIw  [1   ]                 /CIgrl  [0.75]
   /CIgr [0.50]                 /CIgrd  [0.25]
   /CIk  [0   ]
>> def

/grayColorMap
<< /Cr   [0   ]                 /Cg     [0   ]
   /Cb   [0   ]                 /Cc     [0   ]
   /Cm   [0   ]                 /Cy     [0   ]
   /Co   [0   ]                 /Cp     [0   ]
   /Cw   [0   ]                 /Cgrl   [0   ]
   /Cgr  [0   ]                 /Cgrd   [0   ]
   /Ck   [0   ]
   /CGr  [0.75]                 /CGg    [1   ]
   /CGb  [0.50]                 /CGc    [0.75]
   /CGm  [0.50]                 /CGy    [1   ]
   /CGo  [0.75]                 /CGp    [1   ]
   /CGw  [0   ]                 /CGgrl  [0.25]
   /CGgr [0.50]                 /CGgrd  [0.75]
   /CGk  [1   ]
   /CIr  [1   ]                 /CIg    [1   ]
   /CIb  [1   ]                 /CIc    [1   ]
   /CIm  [1   ]                 /CIy    [1   ]
   /CIo  [1   ]                 /CIp    [1   ]
   /CIw  [1   ]                 /CIgrl  [1   ]
   /CIgr [1   ]                 /CIgrd  [1   ]
   /CIk  [1   ]
>> def

/bwColorMap
<< /Cr   [0   ]                 /Cg     [0   ]
   /Cb   [0   ]                 /Cc     [0   ]
   /Cm   [0   ]                 /Cy     [0   ]
   /Co   [0   ]                 /Cp     [0   ]
   /Cw   [0   ]                 /Cgrl   [0   ]
   /Cgr  [0   ]                 /Cgrd   [0   ]
   /Ck   [0   ]
   /CGr  [1   ]                 /CGg    [1   ]
   /CGb  [1   ]                 /CGc    [1   ]
   /CGm  [1   ]                 /CGy    [1   ]
   /CGo  [1   ]                 /CGp    [1   ]
   /CGw  [0   ]                 /CGgrl  [1   ]
   /CGgr [1   ]                 /CGgrd  [1   ]
   /CGk  [1   ]
   /CIr  [1   ]                 /CIg    [1   ]
   /CIb  [1   ]                 /CIc    [1   ]
   /CIm  [1   ]                 /CIy    [1   ]
   /CIo  [1   ]                 /CIp    [1   ]
   /CIw  [1   ]                 /CIgrl  [1   ]
   /CIgr [1   ]                 /CIgrd  [1   ]
   /CIk  [1   ]
>> def

%
% The following routines handle the alignment of and printing of
% tagged strings.
%

% Predefine the bounding box values.
/bbllx 0 def /bblly 0 def /bburx 0 def /bbury 0 def

% This routine pops the first unicode character off of a string and returns
% the remainder of the string, the character code of first character,
% and a "true" if the string was non-zero length.
% <string>      popfirst <remaining string> <true>
% <null string> popfirst <false>
/popfirst {
  dup length 1 gt
    {dup 0 get /vg&fbyte exch def
     dup 1 get /vg&cbyte exch def
     dup length 2 sub 2 exch getinterval true}
    {pop false} ifelse
} def

% This routine shows a single unicode character given the font and
% character codes.
% <font code> <char code> unicharshow --
/unicharshow {
  2 string
  dup 0 5 -1 roll put
  dup 1 4 -1 roll put
  internalshow
} def

% This is an internal routine to alternate between determining the
% bounding box for stringsize and showing the string for recshow.
% <string> internalshow --
/internalshow {show} def

% This is an internal routine to alternate between determining the
% bounding box for stringsize and stroking various ornaments.
% <string> internalstroke --
/internalstroke {S} def

% Sets up internalshow to use the null device to determine string size.
% -- nullinternalshow --
/nullinternalshow {/internalshow {false charpath flattenpath
                                  pathbbox updatebbox} def} def

% Sets up internalstroke to use the null device to determine string size.
% -- nullinternalstroke --
/nullinternalstroke {
 /internalstroke {flattenpath pathbbox updatebbox} def} def

% This routine tests to see if the character code matches the first
% character of a string.
% <char code> <string> testchar <char code> <true or false>
/testchar {exch dup 3 -1 roll 0 get eq} def

% Raise the text baseline for superscripts.
% -- raise --
/raise {
  0 fontsize 2 div rmoveto
  /fontsize fontsize 2 mul 3 div def
  currentfont /FontName get fontsize sf
} def

% Un-raise the text baseline for superscripts.
% -- unraise --
/unraise {
  /fontsize fontsize 1.5 mul def
  0 fontsize 2 div neg rmoveto
} def

% Lower the text baseline for subscripts.
% -- lower --
/lower {
  0 fontsize 3 div neg rmoveto
  /fontsize fontsize 2 mul 3 div def
  currentfont /FontName get fontsize sf
} def

% Un-lower the text baseline for subscripts.
% -- unlower --
/unlower {
  /fontsize fontsize 1.5 mul def
  0 fontsize 3 div rmoveto
} def

% Compare the top two elements on the stack and leave only the
% larger one.
/maxval {2 copy gt {pop} {exch pop} ifelse} def

% Tokenize a string.  Do not use the usual PostScript token because
% parentheses will not be interpreted correctly because of rescanning
% of the string.
/vg&token {/vg&string exch def /vg&index -1 def /vg&level 0 def
0 2 vg&string length 2 sub {
  dup dup 1 add exch vg&string exch get 8 bitshift vg&string 3 -1 roll get or
  dup 16#f0fe eq {pop 1}{16#f0ff eq {-1}{0} ifelse} ifelse
  /vg&level exch vg&level add def
  vg&level 0 eq {/vg&index exch def exit} if pop
} for
vg&index 0 ge {
  vg&string vg&index 2 add dup vg&string length exch sub getinterval
  vg&index 2 gt {vg&string 2 vg&index 2 sub getinterval}{()} ifelse
  true}
{false} ifelse
} bind def

% Recursively show an unicode string.
% <string> recshow --
/recshow {
  popfirst
  {
    % Test to see if this is a string attribute.
    vg&fbyte 16#f0 and 16#e0 eq
    {
      q

      % Font style.
      currentfont dup /FontStyleBits known {/FontStyleBits get}{pop 0} ifelse
      vg&cbyte or vg&fontstyles exch get fontsize exch exec

      vg&token pop recshow currentpoint Q m recshow
    }
    {
      vg&fbyte 16#F8 and 16#F0 eq {

        % Superscript and/or subscript.
        vg&cbyte 16#00 eq {
          vg&token pop exch vg&token pop 3 -1 roll
          q raise recshow unraise currentpoint pop Q exch
          q lower recshow unlower currentpoint pop Q
          maxval currentpoint exch pop m recshow } if

        % Strikeout.
        vg&cbyte 16#01 eq {
          vg&token pop currentpoint 3 -1 roll recshow
          q 0 J vg&underline vg&uthick w
          currentpoint 4 -2 roll fontsize 3 div add moveto
          fontsize 3 div add lineto internalstroke Q
          recshow} if

        % Underline.
        vg&cbyte 16#02 eq {
          vg&token pop currentpoint 3 -1 roll recshow
          q 0 J vg&underline vg&uthick w
          currentpoint 4 -2 roll vg&uoffset add moveto
          vg&uoffset add lineto internalstroke Q
          recshow} if

        % Dashed underline.
        vg&cbyte 16#03 eq {
          vg&token pop currentpoint 3 -1 roll recshow
          q 0 J [ vg&uthick 5 mul vg&uthick 2 mul] 0 d
          vg&underline vg&uthick w
          currentpoint 4 -2 roll vg&uoffset add moveto
          vg&uoffset add lineto internalstroke Q
          recshow} if

        % Dotted underline.
        vg&cbyte 16#04 eq {
          vg&token pop currentpoint 3 -1 roll recshow
          q 1 J [ 0 vg&uthick 3 mul] 0 d
          vg&underline vg&uthick w
          currentpoint 4 -2 roll vg&uoffset add moveto
          vg&uoffset add lineto internalstroke Q
          recshow} if

        % Thick underline.
        vg&cbyte 16#05 eq {
          vg&token pop currentpoint 3 -1 roll recshow
          q 0 J vg&underline vg&uthick 2 mul w
          currentpoint 4 -2 roll vg&uoffset vg&uthick 2 div sub add moveto
          vg&uoffset vg&uthick 2 div sub add lineto internalstroke Q
          recshow} if

        % Gray thick underline.
        vg&cbyte 16#06 eq {
          vg&token pop currentpoint 3 -1 roll recshow
          q 0 J vg&underline vg&uthick 2 mul w 0.5 setgray
          currentpoint 4 -2 roll vg&uoffset vg&uthick 2 div sub add moveto
          vg&uoffset vg&uthick 2 div sub add lineto internalstroke Q
          recshow} if

        % Overbar.
        vg&cbyte 16#07 eq {
          vg&token pop dup stringsize relative 4 1 roll pop pop exch
          3 -1 roll recshow
          q 0 J vg&underline vg&uthick w
          vg&uoffset neg add dup currentpoint pop exch m l internalstroke Q
          recshow} if
      }
      {
        vg&fbyte vg&cbyte unicharshow recshow
      } ifelse
    } ifelse
  } if
} def

% Get the underline position and thickness from the current font.
/vg&underline {

currentfont dup /FontType get 0 eq {/FDepVector get 0 get} if
dup dup /FontInfo known {
  /FontInfo get dup
  dup /UnderlinePosition known {
    /UnderlinePosition get /vg&uoffset exch def
  }
  {
    pop /vg&uoffset 0 def
  } ifelse
  dup /UnderlineThickness known {
    /UnderlineThickness get /vg&uthick exch def
  }
  {
    pop /vg&uthick 0 def
  } ifelse
}
{
  pop /vg&uoffset 0 def /vg&uthick 0 def
} ifelse
/FontMatrix get
currentfont dup /FontType get 0 eq
{/FontMatrix get matrix concatmatrix}{pop} ifelse
dup 0 vg&uoffset 3 -1 roll transform /vg&uoffset exch def pop
0 vg&uthick 3 -1 roll transform /vg&uthick exch def pop
} def

% Make a frame with the coordinates on the stack.
% <llx> <lly> <urx> <ury> frame --
/frame {4 copy m 3 1 roll exch l 4 -2 roll l l h} def

% Resets the accumulated bounding box to a degenerate box at the
% current point.
% -- resetbbox --
/resetbbox {
  currentpoint 2 copy
  /bbury exch def
  /bburx exch def
  /bblly exch def
  /bbllx exch def
} def

% Update the accumulated bounding box.
% <llx'> <lly'> <urx'> <ury'> updatebbox --
/updatebbox {
  dup bbury gt {/bbury exch def} {pop} ifelse
  dup bburx gt {/bburx exch def} {pop} ifelse
  dup bblly lt {/bblly exch def} {pop} ifelse
  dup bbllx lt {/bbllx exch def} {pop} ifelse
} def

% Set the bounding box to the values on the stack.
% <llx'> <lly'> <urx'> <ury'> updatebbox --
/restorebbox {
  /bbury exch def /bburx exch def /bblly exch def /bbllx exch def
} def

% Push the accumulated bounding box onto the stack.
% -- pushbbox <llx> <lly> <urx> <ury>
/pushbbox {bbllx bblly bburx bbury} def

% Make the relative bounding box relative to the currentpoint.
% <llx'> <lly'> <urx'> <ury'> inflate <llx> <lly> <urx> <ury>
/inflate {
  2 {fontsize 0.2 mul add 4 1 roll} repeat
  2 {fontsize 0.2 mul sub 4 1 roll} repeat
} def

% Make the relative bounding box relative to the currentpoint.
% <llx'> <lly'> <urx'> <ury'> relative <llx> <lly> <urx> <ury>
/relative {
  currentpoint 3 -1 roll add 3 1 roll add exch 4 2 roll
  currentpoint 3 -1 roll add 3 1 roll add exch 4 2 roll
} def

% Returns the size of a string appropriate for recshow.
% <string> stringsize <llx> <lly> <urx> <ury>
/stringsize {
  pushbbox /internalshow load /internalstroke load 7 -1 roll
  q
  nulldevice 0 0 m
  nullinternalshow nullinternalstroke
  resetbbox
  recshow
  /internalstroke exch def /internalshow exch def
  pushbbox 8 -4 roll restorebbox
  Q
} def

% Calculate values for string positioning.
/calcval {4 copy
  3 -1 roll sub /widy exch def sub neg /widx exch def
  pop pop /dy exch def /dx exch def} def

% Utilities to position a string.
% First letter (U=upper, C=center, B=baseline, L=lower)
% Second letter (L=left, C=center, R=right)
/align [
{calcval dx neg widy dy add neg rmoveto} % UL
{calcval dx neg widy 2 div dy add neg rmoveto} % CL
{calcval dx neg 0 rmoveto} % BL
{calcval dx neg dy neg rmoveto} % LL
{calcval widx dx add neg widy dy add neg rmoveto} % UR
{calcval widx dx add neg widy 2 div dy add neg rmoveto} % CR
{calcval widx dx add neg 0 rmoveto} % BR
{calcval widx dx add neg dy neg rmoveto} % LR
{calcval widx 2 div dx add neg widy dy add neg rmoveto} % UC
{calcval widx 2 div dx add neg widy 2 div dy add neg rmoveto} % CC
{calcval widx 2 div dx add neg 0 rmoveto} % BC
{calcval widx 2 div dx add neg dy neg rmoveto} % LC
] def

/vg&str {m q 1 -1 scale dup stringsize 4 copy align 11 -1 roll get exec
         q inflate relative frame exch exec Q recshow Q} def

end /procDict exch def
%%EndProlog

%%BeginSetup
save
procDict begin
printColorMap begin
358 427 setpagesize
0 0 0 0 setmargins
0 0 setorigin
358 427 setsize
naturalsize
portrait
imagescale
cliptobounds
setbasematrix
/Helvetica 10 sf
defaultGraphicsState
%%EndSetup

0.00000 0.00000 0.00000 RG
[ 1.00000 0.00000 0.00000 1.00000 0.00000 0.00000 ] defaultmatrix matrix concatmatrix setmatrix
cliprestore
1.00000 1.00000 1.00000 RG
newpath
0.00000 0.00000 m
358.000 0.00000 l
358.000 427.000 l
0.00000 427.000 l
0.00000 0.00000 l
h
f
0.00000 0.00000 0.00000 RG
0.00000 0.00000 0.00000 RG
[ 1.00000 0.00000 0.00000 1.00000 0.00000 0.00000 ] defaultmatrix matrix concatmatrix setmatrix
cliprestore
1.00000 1.00000 1.00000 RG
newpath
0.00000 0.00000 m
358.000 0.00000 l
358.000 427.000 l
0.00000 427.000 l
0.00000 0.00000 l
h
f
0.00000 0.00000 0.00000 RG
0 0 358 427 rc
q
[ 1.50000 0.00000 0.00000 1.50000 0.00000 0.00000 ] concat
[ 1.00000 0.00000 0.00000 1.00000 -101.000 -480.000 ] concat
1.00000 1.00000 1.00000 RG
newpath
101.000 480.000 m
340.000 480.000 l
340.000 765.000 l
101.000 765.000 l
101.000 480.000 l
h
f
0.00000 0.00000 0.00000 RG
[ 1.50000 0.00000 0.00000 1.50000 -151.500 -720.000 ] defaultmatrix matrix concatmatrix setmatrix
[ 1.50000 0.00000 0.00000 1.50000 -151.500 -720.000 ] defaultmatrix matrix concatmatrix setmatrix
[ 1.00000 0.00000 0.00000 1.00000 0.00000 0.00000 ] defaultmatrix matrix concatmatrix setmatrix
[ 1.50000 0.00000 0.00000 1.50000 -151.500 -720.000 ] defaultmatrix matrix concatmatrix setmatrix
1.00000 1.00000 1.00000 RG
newpath
293.881 516.157 m
293.881 524.441 287.165 531.157 278.881 531.157  c
270.596 531.157 263.881 524.441 263.881 516.157  c
263.881 507.873 270.596 501.157 278.881 501.157  c
287.165 501.157 293.881 507.873 293.881 516.157  c
h
f
0 J
1.45000 M
0.00000 0.00000 0.00000 RG
newpath
293.881 516.157 m
293.881 524.441 287.165 531.157 278.881 531.157  c
270.596 531.157 263.881 524.441 263.881 516.157  c
263.881 507.873 270.596 501.157 278.881 501.157  c
287.165 501.157 293.881 507.873 293.881 516.157  c
h
S
2 J
10.0000 M
1.00000 1.00000 1.00000 RG
newpath
334.937 583.157 m
334.937 591.441 328.221 598.157 319.937 598.157  c
311.652 598.157 304.937 591.441 304.937 583.157  c
304.937 574.873 311.652 568.157 319.937 568.157  c
328.221 568.157 334.937 574.873 334.937 583.157  c
h
f
0.00000 0.00000 0.00000 RG
0 J
1.45000 M
newpath
318.892 587.039 m
318.314 587.008 316.939 587.008 316.298 587.008  c
315.673 587.008 314.283 587.008 313.720 587.039  c
313.720 586.430 l
315.533 586.430 l
315.533 579.711 l
314.751 579.961 314.048 579.961 313.829 579.961  c
313.579 579.961 l
313.579 579.352 l
313.829 579.352 l
314.111 579.352 315.454 579.352 316.454 578.618  c
316.564 578.524 316.595 578.524 316.736 578.524  c
317.079 578.524 317.079 578.649 317.079 578.946  c
317.079 586.430 l
318.892 586.430 l
h
326.812 582.899 m
326.812 584.196 326.780 587.180 323.671 587.180  c
320.530 587.180 320.515 584.180 320.515 582.899  c
320.515 581.618 320.530 578.524 323.671 578.524  c
326.796 578.524 326.812 581.633 326.812 582.899  c
h
325.155 582.743 m
325.155 581.664 325.155 580.289 324.921 579.805  c
324.687 579.243 324.155 578.993 323.671 578.993  c
323.358 578.993 322.452 579.118 322.296 580.274  c
322.187 580.961 322.187 581.805 322.187 582.743  c
322.187 583.446 322.187 584.805 322.296 585.477  c
322.468 586.430 323.202 586.711 323.671 586.711  c
324.062 586.711 324.874 586.539 325.062 585.321  c
325.155 584.649 325.155 583.461 325.155 582.743  c
h
f
2 J
10.0000 M
1.00000 1.00000 1.00000 RG
0 J
1.45000 M
0.00000 0.00000 0.00000 RG
newpath
334.937 583.157 m
334.937 591.441 328.221 598.157 319.937 598.157  c
311.652 598.157 304.937 591.441 304.937 583.157  c
304.937 574.873 311.652 568.157 319.937 568.157  c
328.221 568.157 334.937 574.873 334.937 583.157  c
h
S
2 J
10.0000 M
1.00000 1.00000 1.00000 RG
newpath
148.096 687.189 m
148.096 695.473 141.380 702.189 133.096 702.189  c
124.812 702.189 118.096 695.473 118.096 687.189  c
118.096 678.905 124.812 672.189 133.096 672.189  c
141.380 672.189 148.096 678.905 148.096 687.189  c
h
f
0.00000 0.00000 0.00000 RG
0 J
1.45000 M
newpath
136.081 688.181 m
135.675 691.071 l
130.097 691.071 l
130.097 690.837 l
130.097 690.571 130.097 690.556 130.269 690.400  c
132.878 687.728 l
133.800 686.806 134.285 685.931 134.285 685.025  c
134.285 684.056 133.691 683.165 132.581 683.165  c
132.113 683.165 131.613 683.306 131.238 683.618  c
131.425 683.681 131.972 683.884 131.972 684.556  c
131.972 685.212 131.456 685.493 131.035 685.493  c
130.722 685.493 130.097 685.306 130.097 684.540  c
130.097 683.368 131.331 682.556 132.894 682.556  c
134.738 682.556 136.081 683.525 136.081 685.009  c
136.081 686.243 135.253 686.853 133.769 687.946  c
133.191 688.384 132.503 688.946 131.894 689.446  c
133.816 689.446 l
134.019 689.446 134.988 689.446 135.128 689.368  c
135.316 689.275 135.441 688.446 135.472 688.181  c
h
f
2 J
10.0000 M
1.00000 1.00000 1.00000 RG
0 J
1.45000 M
0.00000 0.00000 0.00000 RG
newpath
148.096 687.189 m
148.096 695.473 141.380 702.189 133.096 702.189  c
124.812 702.189 118.096 695.473 118.096 687.189  c
118.096 678.905 124.812 672.189 133.096 672.189  c
141.380 672.189 148.096 678.905 148.096 687.189  c
h
S
2 J
10.0000 M
1.00000 1.00000 1.00000 RG
newpath
203.673 687.189 m
203.673 695.473 196.957 702.189 188.673 702.189  c
180.388 702.189 173.673 695.473 173.673 687.189  c
173.673 678.905 180.388 672.189 188.673 672.189  c
196.957 672.189 203.673 678.905 203.673 687.189  c
h
f
0.00000 0.00000 0.00000 RG
0 J
1.45000 M
newpath
191.986 691.071 m
191.533 691.040 190.392 691.040 189.877 691.040  c
189.314 691.040 188.142 691.040 187.642 691.071  c
187.642 690.462 l
189.096 690.462 l
189.096 689.040 l
185.361 689.040 l
185.361 688.431 l
189.892 682.759 l
190.049 682.556 190.064 682.540 190.330 682.540  c
190.705 682.540 190.721 682.603 190.721 682.962  c
190.721 688.431 l
191.986 688.431 l
191.986 689.040 l
190.721 689.040 l
190.721 690.462 l
191.986 690.462 l
h
189.236 688.431 m
189.236 684.400 l
186.033 688.431 l
h
f
2 J
10.0000 M
1.00000 1.00000 1.00000 RG
0 J
1.45000 M
0.00000 0.00000 0.00000 RG
newpath
203.673 687.189 m
203.673 695.473 196.957 702.189 188.673 702.189  c
180.388 702.189 173.673 695.473 173.673 687.189  c
173.673 678.905 180.388 672.189 188.673 672.189  c
196.957 672.189 203.673 678.905 203.673 687.189  c
h
S
2 J
10.0000 M
1.00000 1.00000 1.00000 RG
newpath
334.937 636.501 m
334.937 644.785 328.221 651.501 319.937 651.501  c
311.652 651.501 304.937 644.785 304.937 636.501  c
304.937 628.217 311.652 621.501 319.937 621.501  c
328.221 621.501 334.937 628.217 334.937 636.501  c
h
f
0.00000 0.00000 0.00000 RG
0 J
1.45000 M
newpath
323.047 636.102 m
323.047 639.430 321.000 640.524 319.313 640.524  c
317.860 640.524 317.203 639.790 317.203 638.899  c
317.203 638.415 317.516 638.071 318.016 638.071  c
318.531 638.071 318.828 638.430 318.828 638.868  c
318.828 639.462 318.344 639.649 318.188 639.680  c
318.578 639.946 319.047 639.962 319.281 639.962  c
320.188 639.962 320.735 639.383 320.969 638.868  c
321.156 638.430 321.266 637.665 321.266 636.712  c
321.266 636.430 l
320.781 637.337 320.172 637.430 319.719 637.430  c
318.110 637.430 316.828 636.462 316.828 634.665  c
316.828 632.915 318.110 631.868 319.953 631.868  c
323.047 631.868 323.047 635.243 323.047 636.102  c
h
321.266 634.821 m
321.266 634.383 321.266 633.618 321.110 633.196  c
321.047 633.071 320.750 632.368 319.985 632.368  c
318.594 632.368 318.594 633.415 318.594 634.696  c
318.594 635.993 318.594 636.962 319.828 636.962  c
320.922 636.962 321.266 635.633 321.266 634.821  c
h
f
2 J
10.0000 M
1.00000 1.00000 1.00000 RG
0 J
1.45000 M
0.00000 0.00000 0.00000 RG
newpath
334.937 636.501 m
334.937 644.785 328.221 651.501 319.937 651.501  c
311.652 651.501 304.937 644.785 304.937 636.501  c
304.937 628.217 311.652 621.501 319.937 621.501  c
328.221 621.501 334.937 628.217 334.937 636.501  c
h
S
2 J
10.0000 M
1.00000 1.00000 1.00000 RG
newpath
222.617 633.845 m
222.617 642.129 215.901 648.845 207.617 648.845  c
199.332 648.845 192.617 642.129 192.617 633.845  c
192.617 625.561 199.332 618.845 207.617 618.845  c
215.901 618.845 222.617 625.561 222.617 633.845  c
h
f
0.00000 0.00000 0.00000 RG
0 J
1.45000 M
newpath
211.133 629.352 m
211.133 629.806 211.133 629.837 211.008 629.977  c
208.993 632.321 l
208.540 632.852 208.258 633.618 208.149 634.493  c
208.055 635.102 208.024 635.727 208.024 636.352  c
208.024 636.946 l
208.024 637.806 207.399 637.868 207.196 637.868  c
207.118 637.868 206.399 637.868 206.399 636.962  c
206.399 635.040 207.321 633.274 208.571 631.821  c
208.805 631.540 209.055 631.259 209.290 630.977  c
207.102 630.977 l
206.868 630.977 205.821 630.977 205.680 631.056  c
205.618 631.087 205.461 631.259 205.321 632.243  c
204.711 632.243 l
205.165 628.946 l
205.774 628.946 l
205.805 629.071 205.821 629.181 206.086 629.243  c
206.274 629.290 208.180 629.352 208.493 629.352  c
h
f
2 J
10.0000 M
1.00000 1.00000 1.00000 RG
0 J
1.45000 M
0.00000 0.00000 0.00000 RG
newpath
222.617 633.845 m
222.617 642.129 215.901 648.845 207.617 648.845  c
199.332 648.845 192.617 642.129 192.617 633.845  c
192.617 625.561 199.332 618.845 207.617 618.845  c
215.901 618.845 222.617 625.561 222.617 633.845  c
h
S
2 J
10.0000 M
1.00000 1.00000 1.00000 RG
newpath
195.049 497.349 m
195.049 505.633 188.333 512.349 180.049 512.349  c
171.764 512.349 165.049 505.633 165.049 497.349  c
165.049 489.065 171.764 482.349 180.049 482.349  c
188.333 482.349 195.049 489.065 195.049 497.349  c
h
f
0.00000 0.00000 0.00000 RG
0 J
1.45000 M
newpath
126.666 498.728 m
126.103 502.728 l
118.384 502.728 l
118.384 502.400 l
118.384 502.040 118.384 502.009 118.619 501.790  c
122.228 498.103 l
123.494 496.822 124.181 495.603 124.181 494.353  c
124.181 493.009 123.353 491.790 121.806 491.790  c
121.150 491.790 120.462 491.978 119.947 492.415  c
120.212 492.494 120.978 492.775 120.978 493.712  c
120.978 494.603 120.244 495.009 119.681 495.009  c
119.244 495.009 118.384 494.744 118.384 493.681  c
118.384 492.056 120.072 490.931 122.244 490.931  c
124.791 490.931 126.666 492.275 126.666 494.337  c
126.666 496.056 125.509 496.900 123.462 498.415  c
122.650 499.009 121.712 499.775 120.869 500.478  c
123.509 500.478 l
123.791 500.478 125.150 500.478 125.337 500.369  c
125.603 500.244 125.759 499.087 125.806 498.728  c
h
138.510 502.728 m
135.229 502.837 l
135.229 501.947 l
134.666 502.400 133.807 502.837 132.697 502.837  c
130.041 502.837 128.385 501.119 128.385 498.744  c
128.385 496.212 130.275 494.634 132.900 494.634  c
133.494 494.634 134.432 494.744 135.322 495.431  c
135.322 491.931 l
135.322 491.228 135.197 491.228 134.088 491.228  c
134.088 490.384 l
137.275 490.244 l
137.275 501.181 l
137.275 501.884 137.400 501.884 138.510 501.884  c
h
135.229 500.869 m
135.229 496.369 l
134.822 495.853 134.104 495.275 133.072 495.275  c
132.525 495.275 131.682 495.462 131.150 496.212  c
130.682 496.915 130.682 497.884 130.682 498.744  c
130.682 500.009 130.682 502.181 132.885 502.181  c
134.244 502.181 134.994 501.197 135.229 500.869  c
h
144.894 499.603 m
139.409 499.603 l
139.409 497.853 l
144.894 497.853 l
h
164.987 502.728 m
164.331 502.681 162.643 502.681 161.909 502.681  c
161.175 502.681 159.487 502.681 158.847 502.728  c
158.847 501.884 l
160.784 501.884 l
160.784 491.228 l
160.768 491.228 l
155.753 502.290 l
155.675 502.462 155.534 502.728 155.175 502.728  c
154.972 502.728 154.753 502.634 154.597 502.275  c
149.706 491.462 l
149.690 491.462 l
149.690 501.353 l
149.690 501.759 149.706 501.775 150.222 501.822  c
150.550 501.869 150.847 501.884 151.175 501.884  c
151.628 501.884 l
151.628 502.728 l
150.893 502.681 149.956 502.681 149.190 502.681  c
148.503 502.681 147.472 502.681 146.784 502.728  c
146.784 501.884 l
147.237 501.884 l
147.737 501.884 147.768 501.884 148.206 501.822  c
148.706 501.775 148.722 501.759 148.722 501.353  c
148.722 491.228 l
146.784 491.228 l
146.784 490.384 l
150.784 490.384 l
151.175 490.384 151.378 490.384 151.581 490.837  c
155.893 500.353 l
160.206 490.837 l
160.409 490.384 160.612 490.384 161.003 490.384  c
164.987 490.384 l
164.987 491.228 l
163.034 491.228 l
163.034 501.884 l
164.987 501.884 l
h
170.833 502.728 m
168.739 502.681 l
166.536 502.728 l
166.536 501.884 l
167.786 501.884 l
167.786 496.322 l
167.786 495.619 167.661 495.619 166.599 495.619  c
166.599 494.775 l
169.724 494.634 l
169.724 501.884 l
170.833 501.884 l
h
169.974 491.806 m
169.974 492.572 169.349 493.212 168.567 493.212  c
167.802 493.212 167.161 492.572 167.161 491.806  c
167.161 491.025 167.802 490.400 168.567 490.400  c
169.349 490.400 169.974 491.025 169.974 491.806  c
h
182.494 502.728 m
180.228 502.681 l
177.963 502.728 l
177.963 501.884 l
179.213 501.884 l
179.213 497.025 l
179.213 495.650 178.822 495.275 178.213 495.275  c
177.088 495.275 175.541 496.165 175.541 498.119  c
175.541 501.884 l
176.775 501.884 l
176.775 502.728 l
174.509 502.681 l
172.244 502.728 l
172.244 501.884 l
173.478 501.884 l
173.478 496.322 l
173.478 495.619 173.353 495.619 172.244 495.619  c
172.244 494.775 l
175.338 494.634 l
175.338 496.572 l
175.806 495.650 176.759 494.634 178.494 494.634  c
180.291 494.634 181.259 495.337 181.259 497.212  c
181.259 501.884 l
182.494 501.884 l
h
188.628 499.603 m
183.143 499.603 l
183.143 497.853 l
188.628 497.853 l
h
205.284 502.728 m
204.596 502.681 202.830 502.681 202.065 502.681  c
201.284 502.681 199.518 502.681 198.830 502.728  c
198.830 501.884 l
200.784 501.884 l
200.784 496.728 l
195.002 496.728 l
195.002 501.884 l
196.940 501.884 l
196.940 502.728 l
196.268 502.681 194.502 502.681 193.721 502.681  c
192.955 502.681 191.190 502.681 190.502 502.728  c
190.502 501.884 l
192.440 501.884 l
192.440 491.228 l
190.502 491.228 l
190.502 490.384 l
191.190 490.431 192.955 490.431 193.721 490.431  c
194.502 490.431 196.268 490.431 196.940 490.384  c
196.940 491.228 l
195.002 491.228 l
195.002 495.884 l
200.784 495.884 l
200.784 491.228 l
198.830 491.228 l
198.830 490.384 l
199.518 490.431 201.284 490.431 202.065 490.431  c
202.830 490.431 204.596 490.431 205.284 490.384  c
205.284 491.228 l
203.330 491.228 l
203.330 501.884 l
205.284 501.884 l
h
214.881 500.619 m
214.881 500.931 214.115 502.837 211.272 502.837  c
208.365 502.837 206.568 501.087 206.568 498.681  c
206.568 496.431 208.131 494.572 211.006 494.572  c
212.256 494.572 213.209 494.900 213.881 495.540  c
214.772 496.447 214.881 497.759 214.881 498.322  c
214.881 498.806 214.709 498.806 214.303 498.806  c
208.865 498.806 l
208.865 499.728 208.881 502.119 211.428 502.119  c
212.600 502.119 213.615 501.540 214.006 500.681  c
214.115 500.384 214.147 500.290 214.443 500.290  c
214.537 500.290 214.881 500.290 214.881 500.619  c
h
213.178 498.212 m
213.147 497.587 213.115 495.228 211.006 495.228  c
210.490 495.228 209.772 495.431 209.303 496.165  c
208.928 496.759 208.912 497.509 208.865 498.212  c
h
225.424 502.290 m
225.424 502.728 225.206 502.728 224.846 502.728  c
223.987 502.728 l
222.112 502.728 222.112 501.900 222.112 501.337  c
221.721 502.103 220.877 502.837 219.424 502.837  c
218.190 502.837 215.956 502.509 215.956 500.790  c
215.956 498.181 220.534 498.009 221.815 497.962  c
221.815 497.353 l
221.815 495.978 221.174 495.228 219.831 495.228  c
219.612 495.228 219.034 495.244 218.534 495.353  c
218.581 495.384 218.924 495.697 218.924 496.228  c
218.924 496.994 218.346 497.369 217.799 497.369  c
217.315 497.369 216.674 497.025 216.674 496.228  c
216.674 494.650 218.877 494.572 219.893 494.572  c
222.581 494.572 223.862 495.744 223.862 497.353  c
223.862 501.212 l
223.862 501.634 223.862 501.869 224.956 501.884  c
225.190 501.884 225.424 501.884 225.424 502.290  c
h
221.815 500.228 m
221.815 498.509 l
220.909 498.572 218.065 498.822 218.065 500.759  c
218.065 501.556 218.784 502.181 219.706 502.181  c
220.159 502.181 221.815 501.947 221.815 500.228  c
h
236.324 498.712 m
236.324 501.212 234.496 502.837 231.793 502.837  c
231.059 502.837 230.262 502.650 229.481 502.025  c
229.481 505.369 l
230.731 505.369 l
230.731 506.212 l
228.465 506.165 l
226.199 506.212 l
226.199 505.369 l
227.434 505.369 l
227.434 496.306 l
227.434 495.619 227.309 495.619 226.199 495.619  c
226.199 494.775 l
229.387 494.634 l
229.387 495.509 l
229.793 495.181 230.746 494.634 232.090 494.634  c
234.684 494.634 236.324 496.322 236.324 498.712  c
h
234.028 498.712 m
234.028 496.447 233.012 495.353 231.809 495.353  c
231.418 495.353 230.481 495.462 229.762 496.197  c
229.512 496.447 229.481 496.462 229.481 496.806  c
229.481 500.619 l
229.481 500.962 229.481 500.978 229.684 501.212  c
230.496 502.181 231.340 502.181 231.590 502.181  c
232.762 502.181 234.028 501.259 234.028 498.712  c
h
241.271 496.134 m
241.271 496.915 240.646 497.540 239.865 497.540  c
239.099 497.540 238.458 496.915 238.458 496.134  c
238.458 495.369 239.099 494.744 239.865 494.744  c
240.646 494.744 241.271 495.369 241.271 496.134  c
h
241.271 501.322 m
241.271 502.103 240.646 502.728 239.865 502.728  c
239.099 502.728 238.458 502.103 238.458 501.322  c
238.458 500.556 239.099 499.915 239.865 499.915  c
240.646 499.915 241.271 500.556 241.271 501.322  c
h
f
2 J
10.0000 M
1.00000 1.00000 1.00000 RG
0.00000 0.00000 0.00000 RG
1.00000 1.00000 1.00000 RG
newpath
133.945 583.157 m
133.945 591.441 127.229 598.157 118.945 598.157  c
110.660 598.157 103.945 591.441 103.945 583.157  c
103.945 574.873 110.660 568.157 118.945 568.157  c
127.229 568.157 133.945 574.873 133.945 583.157  c
h
f
0.00000 0.00000 0.00000 RG
0 J
1.45000 M
newpath
121.633 587.039 m
121.055 587.008 119.680 587.008 119.039 587.008  c
118.414 587.008 117.024 587.008 116.461 587.039  c
116.461 586.430 l
118.274 586.430 l
118.274 579.711 l
117.493 579.961 116.789 579.961 116.571 579.961  c
116.321 579.961 l
116.321 579.352 l
116.571 579.352 l
116.852 579.352 118.196 579.352 119.196 578.618  c
119.305 578.524 119.336 578.524 119.477 578.524  c
119.821 578.524 119.821 578.649 119.821 578.946  c
119.821 586.430 l
121.633 586.430 l
h
f
2 J
10.0000 M
1.00000 1.00000 1.00000 RG
0 J
1.45000 M
0.00000 0.00000 0.00000 RG
newpath
133.945 583.157 m
133.945 591.441 127.229 598.157 118.945 598.157  c
110.660 598.157 103.945 591.441 103.945 583.157  c
103.945 574.873 110.660 568.157 118.945 568.157  c
127.229 568.157 133.945 574.873 133.945 583.157  c
h
S
2 J
10.0000 M
1.00000 1.00000 1.00000 RG
newpath
258.433 687.189 m
258.433 695.473 251.717 702.189 243.433 702.189  c
235.148 702.189 228.433 695.473 228.433 687.189  c
228.433 678.905 235.148 672.189 243.433 672.189  c
251.717 672.189 258.433 678.905 258.433 687.189  c
h
f
0.00000 0.00000 0.00000 RG
0 J
1.45000 M
newpath
246.543 688.400 m
246.543 690.150 245.293 691.212 243.481 691.212  c
242.574 691.212 241.590 690.900 240.981 689.915  c
240.434 689.025 240.324 687.978 240.324 686.946  c
240.324 683.681 242.465 682.556 244.231 682.556  c
245.621 682.556 246.168 683.368 246.168 684.181  c
246.168 684.681 245.856 685.009 245.340 685.009  c
244.840 685.009 244.543 684.650 244.543 684.212  c
244.543 683.821 244.762 683.462 245.231 683.400  c
244.934 683.103 244.496 683.056 244.262 683.056  c
243.465 683.056 242.762 683.525 242.449 684.150  c
242.371 684.337 242.090 684.900 242.090 686.384  c
242.090 686.618 l
242.637 685.634 243.371 685.634 243.652 685.634  c
245.231 685.634 246.543 686.587 246.543 688.400  c
h
244.762 688.384 m
244.762 687.087 244.762 686.103 243.527 686.103  c
242.824 686.103 242.121 686.712 242.121 688.337  c
242.121 688.571 242.121 689.525 242.324 689.946  c
242.434 690.150 242.777 690.650 243.449 690.650  c
244.762 690.650 244.762 689.696 244.762 688.384  c
h
f
2 J
10.0000 M
1.00000 1.00000 1.00000 RG
0 J
1.45000 M
0.00000 0.00000 0.00000 RG
newpath
258.433 687.189 m
258.433 695.473 251.717 702.189 243.433 702.189  c
235.148 702.189 228.433 695.473 228.433 687.189  c
228.433 678.905 235.148 672.189 243.433 672.189  c
251.717 672.189 258.433 678.905 258.433 687.189  c
h
S
2 J
10.0000 M
1.00000 1.00000 1.00000 RG
newpath
179.729 747.701 m
179.729 755.985 173.013 762.701 164.729 762.701  c
156.444 762.701 149.729 755.985 149.729 747.701  c
149.729 739.417 156.444 732.701 164.729 732.701  c
173.013 732.701 179.729 739.417 179.729 747.701  c
h
f
0.00000 0.00000 0.00000 RG
0 J
1.45000 M
newpath
167.839 749.240 m
167.839 750.427 166.886 751.724 164.558 751.724  c
162.886 751.724 161.620 750.943 161.620 749.771  c
161.620 749.115 162.073 748.755 162.620 748.755  c
163.198 748.755 163.605 749.162 163.605 749.755  c
163.605 750.287 163.277 750.615 162.855 750.724  c
163.480 751.115 164.152 751.162 164.495 751.162  c
165.839 751.162 165.839 749.849 165.839 749.224  c
165.839 748.568 165.839 747.287 164.433 747.287  c
163.855 747.287 l
163.620 747.287 163.495 747.287 163.495 747.052  c
163.495 746.974 163.511 746.849 163.652 746.833  c
163.714 746.818 163.745 746.818 164.277 746.787  c
165.620 746.708 165.636 745.005 165.636 744.833  c
165.636 744.412 165.605 743.568 164.511 743.568  c
164.120 743.568 163.542 743.677 163.089 744.037  c
163.136 744.052 163.839 744.193 163.839 744.958  c
163.839 745.427 163.511 745.849 162.933 745.849  c
162.433 745.849 162.042 745.505 162.042 744.943  c
162.042 743.896 163.042 743.068 164.589 743.068  c
166.433 743.068 167.417 743.880 167.417 744.880  c
167.417 745.990 166.464 746.740 165.573 747.005  c
167.464 747.412 167.839 748.521 167.839 749.240  c
h
f
2 J
10.0000 M
1.00000 1.00000 1.00000 RG
0 J
1.45000 M
0.00000 0.00000 0.00000 RG
newpath
179.729 747.701 m
179.729 755.985 173.013 762.701 164.729 762.701  c
156.444 762.701 149.729 755.985 149.729 747.701  c
149.729 739.417 156.444 732.701 164.729 732.701  c
173.013 732.701 179.729 739.417 179.729 747.701  c
h
S
2 J
10.0000 M
1.00000 1.00000 1.00000 RG
newpath
248.233 583.157 m
248.233 591.441 241.517 598.157 233.233 598.157  c
224.949 598.157 218.233 591.441 218.233 583.157  c
218.233 574.873 224.949 568.157 233.233 568.157  c
241.517 568.157 248.233 574.873 248.233 583.157  c
h
f
0.00000 0.00000 0.00000 RG
0 J
1.45000 M
newpath
236.344 584.602 m
236.344 586.039 235.281 587.180 233.203 587.180  c
231.531 587.180 230.125 586.524 230.125 584.946  c
230.125 583.977 230.703 583.243 231.781 582.758  c
230.781 582.196 230.547 581.368 230.547 580.805  c
230.547 579.555 231.453 578.524 233.250 578.524  c
234.734 578.524 235.922 579.102 235.922 580.430  c
235.922 581.196 235.516 581.758 234.609 582.227  c
235.250 582.586 236.344 583.211 236.344 584.602  c
h
234.953 580.446 m
234.953 579.571 234.297 579.024 233.203 579.024  c
232.687 579.024 231.516 579.118 231.516 580.039  c
231.516 580.477 231.875 580.696 232.094 580.805  c
234.031 581.899 l
234.609 581.524 234.953 581.086 234.953 580.446  c
h
235.219 585.321 m
235.219 584.696 234.734 584.430 234.172 584.102  c
232.391 583.118 l
231.937 583.368 231.234 583.930 231.234 584.946  c
231.234 585.961 231.984 586.618 233.250 586.618  c
234.000 586.618 235.219 586.414 235.219 585.321  c
h
f
2 J
10.0000 M
1.00000 1.00000 1.00000 RG
0 J
1.45000 M
0.00000 0.00000 0.00000 RG
newpath
248.233 583.157 m
248.233 591.441 241.517 598.157 233.233 598.157  c
224.949 598.157 218.233 591.441 218.233 583.157  c
218.233 574.873 224.949 568.157 233.233 568.157  c
241.517 568.157 248.233 574.873 248.233 583.157  c
h
S
2 J
10.0000 M
1.00000 1.00000 1.00000 RG
newpath
199.353 617.205 m
199.353 620.823 196.305 623.757 192.545 623.757  c
188.785 623.757 185.737 620.823 185.737 617.205  c
185.737 613.586 188.785 610.653 192.545 610.653  c
196.305 610.653 199.353 613.586 199.353 617.205  c
h
f
0.00000 0.00000 0.00000 RG
0 J
1.45000 M
newpath
195.655 618.744 m
195.655 619.931 194.702 621.228 192.374 621.228  c
190.702 621.228 189.436 620.447 189.436 619.275  c
189.436 618.619 189.889 618.259 190.436 618.259  c
191.014 618.259 191.421 618.666 191.421 619.259  c
191.421 619.791 191.093 620.119 190.671 620.228  c
191.296 620.619 191.968 620.666 192.311 620.666  c
193.655 620.666 193.655 619.353 193.655 618.728  c
193.655 618.072 193.655 616.791 192.249 616.791  c
191.671 616.791 l
191.436 616.791 191.311 616.791 191.311 616.556  c
191.311 616.478 191.327 616.353 191.468 616.337  c
191.530 616.322 191.561 616.322 192.093 616.291  c
193.436 616.212 193.452 614.509 193.452 614.337  c
193.452 613.916 193.421 613.072 192.327 613.072  c
191.936 613.072 191.358 613.181 190.905 613.541  c
190.952 613.556 191.655 613.697 191.655 614.462  c
191.655 614.931 191.327 615.353 190.749 615.353  c
190.249 615.353 189.858 615.009 189.858 614.447  c
189.858 613.400 190.858 612.572 192.405 612.572  c
194.249 612.572 195.233 613.384 195.233 614.384  c
195.233 615.494 194.280 616.244 193.389 616.509  c
195.280 616.916 195.655 618.025 195.655 618.744  c
h
f
2 J
10.0000 M
1.00000 1.00000 1.00000 RG
0.00000 0.00000 0.00000 RG
1.00000 1.00000 1.00000 RG
newpath
240.041 558.533 m
240.041 562.151 236.993 565.085 233.233 565.085  c
229.473 565.085 226.425 562.151 226.425 558.533  c
226.425 554.914 229.473 551.981 233.233 551.981  c
236.993 551.981 240.041 554.914 240.041 558.533  c
h
f
0.00000 0.00000 0.00000 RG
0 J
1.45000 M
newpath
236.219 559.525 m
235.812 562.415 l
230.234 562.415 l
230.234 562.181 l
230.234 561.915 230.234 561.900 230.406 561.744  c
233.016 559.072 l
233.937 558.150 234.422 557.275 234.422 556.369  c
234.422 555.400 233.828 554.509 232.719 554.509  c
232.250 554.509 231.750 554.650 231.375 554.962  c
231.562 555.025 232.109 555.228 232.109 555.900  c
232.109 556.556 231.594 556.837 231.172 556.837  c
230.859 556.837 230.234 556.650 230.234 555.884  c
230.234 554.712 231.469 553.900 233.031 553.900  c
234.875 553.900 236.219 554.869 236.219 556.353  c
236.219 557.587 235.391 558.197 233.906 559.290  c
233.328 559.728 232.641 560.290 232.031 560.790  c
233.953 560.790 l
234.156 560.790 235.125 560.790 235.266 560.712  c
235.453 560.619 235.578 559.790 235.609 559.525  c
h
f
2 J
10.0000 M
1.00000 1.00000 1.00000 RG
0.00000 0.00000 0.00000 RG
1.00000 1.00000 1.00000 RG
newpath
210.058 669.719 m
210.058 673.337 207.010 676.271 203.250 676.271  c
199.490 676.271 196.442 673.337 196.442 669.719  c
196.442 666.100 199.490 663.167 203.250 663.167  c
207.010 663.167 210.058 666.100 210.058 669.719  c
h
f
0.00000 0.00000 0.00000 RG
0 J
1.45000 M
newpath
206.235 670.992 m
206.235 672.570 204.970 673.742 202.876 673.742  c
201.267 673.742 200.251 672.633 200.251 671.539  c
200.251 670.742 200.938 670.617 201.126 670.617  c
201.438 670.617 202.001 670.820 202.001 671.508  c
202.001 672.039 201.626 672.351 201.157 672.383  c
201.704 673.117 202.517 673.179 202.829 673.179  c
204.392 673.179 204.392 671.883 204.392 670.929  c
204.392 669.898 204.392 668.758 203.235 668.758  c
202.704 668.758 202.001 668.883 201.485 669.476  c
201.407 669.586 201.376 669.633 201.204 669.633  c
200.923 669.633 200.923 669.461 200.923 669.226  c
200.923 665.445 l
200.923 665.226 200.923 665.086 201.110 665.086  c
201.142 665.086 201.157 665.101 201.267 665.133  c
201.610 665.258 202.298 665.508 203.282 665.508  c
203.845 665.508 204.532 665.429 205.282 665.133  c
205.423 665.086 205.438 665.086 205.470 665.086  c
205.626 665.086 205.657 665.226 205.657 665.320  c
205.657 665.648 204.454 667.117 202.563 667.117  c
202.110 667.117 201.970 667.086 201.610 667.023  c
201.610 668.742 l
202.220 668.320 202.907 668.289 203.282 668.289  c
205.204 668.289 206.235 669.492 206.235 670.992  c
h
f
2 J
10.0000 M
1.00000 1.00000 1.00000 RG
0.00000 0.00000 0.00000 RG
1.00000 1.00000 1.00000 RG
newpath
326.745 558.533 m
326.745 562.151 323.697 565.085 319.937 565.085  c
316.177 565.085 313.129 562.151 313.129 558.533  c
313.129 554.914 316.177 551.981 319.937 551.981  c
323.697 551.981 326.745 554.914 326.745 558.533  c
h
f
0.00000 0.00000 0.00000 RG
0 J
1.45000 M
newpath
323.250 562.415 m
322.797 562.384 321.656 562.384 321.141 562.384  c
320.578 562.384 319.406 562.384 318.906 562.415  c
318.906 561.806 l
320.360 561.806 l
320.360 560.384 l
316.625 560.384 l
316.625 559.775 l
321.156 554.103 l
321.313 553.900 321.328 553.884 321.594 553.884  c
321.969 553.884 321.985 553.947 321.985 554.306  c
321.985 559.775 l
323.250 559.775 l
323.250 560.384 l
321.985 560.384 l
321.985 561.806 l
323.250 561.806 l
h
320.500 559.775 m
320.500 555.744 l
317.297 559.775 l
h
f
2 J
10.0000 M
1.00000 1.00000 1.00000 RG
0.00000 0.00000 0.00000 RG
1.00000 1.00000 1.00000 RG
newpath
133.945 561.605 m
133.945 565.223 130.897 568.157 127.137 568.157  c
123.377 568.157 120.329 565.223 120.329 561.605  c
120.329 557.986 123.377 555.053 127.137 555.053  c
130.897 555.053 133.945 557.986 133.945 561.605  c
h
f
0.00000 0.00000 0.00000 RG
0 J
1.45000 M
newpath
129.825 565.487 m
129.247 565.456 127.872 565.456 127.231 565.456  c
126.606 565.456 125.216 565.456 124.653 565.487  c
124.653 564.878 l
126.466 564.878 l
126.466 558.159 l
125.685 558.409 124.981 558.409 124.763 558.409  c
124.513 558.409 l
124.513 557.800 l
124.763 557.800 l
125.044 557.800 126.388 557.800 127.388 557.066  c
127.497 556.972 127.528 556.972 127.669 556.972  c
128.013 556.972 128.013 557.097 128.013 557.394  c
128.013 564.878 l
129.825 564.878 l
h
f
2 J
10.0000 M
1.00000 1.00000 1.00000 RG
0.00000 0.00000 0.00000 RG
1.00000 1.00000 1.00000 RG
newpath
133.945 665.637 m
133.945 669.255 130.897 672.189 127.137 672.189  c
123.377 672.189 120.329 669.255 120.329 665.637  c
120.329 662.018 123.377 659.085 127.137 659.085  c
130.897 659.085 133.945 662.018 133.945 665.637  c
h
f
0.00000 0.00000 0.00000 RG
0 J
1.45000 M
newpath
130.450 669.519 m
129.997 669.488 128.856 669.488 128.341 669.488  c
127.778 669.488 126.606 669.488 126.106 669.519  c
126.106 668.910 l
127.560 668.910 l
127.560 667.488 l
123.825 667.488 l
123.825 666.879 l
128.356 661.207 l
128.513 661.004 128.528 660.988 128.794 660.988  c
129.169 660.988 129.185 661.051 129.185 661.410  c
129.185 666.879 l
130.450 666.879 l
130.450 667.488 l
129.185 667.488 l
129.185 668.910 l
130.450 668.910 l
h
127.700 666.879 m
127.700 662.848 l
124.497 666.879 l
h
f
2 J
10.0000 M
1.00000 1.00000 1.00000 RG
0.00000 0.00000 0.00000 RG
1.00000 1.00000 1.00000 RG
newpath
167.692 723.554 m
167.692 727.172 164.644 730.106 160.884 730.106  c
157.124 730.106 154.076 727.172 154.076 723.554  c
154.076 719.935 157.124 717.002 160.884 717.002  c
164.644 717.002 167.692 719.935 167.692 723.554  c
h
f
0.00000 0.00000 0.00000 RG
0 J
1.45000 M
newpath
163.995 723.155 m
163.995 726.483 161.948 727.577 160.260 727.577  c
158.807 727.577 158.151 726.843 158.151 725.952  c
158.151 725.468 158.464 725.124 158.964 725.124  c
159.479 725.124 159.776 725.483 159.776 725.921  c
159.776 726.514 159.292 726.702 159.135 726.733  c
159.526 726.999 159.995 727.014 160.229 727.014  c
161.135 727.014 161.682 726.436 161.917 725.921  c
162.104 725.483 162.214 724.718 162.214 723.764  c
162.214 723.483 l
161.729 724.389 161.120 724.483 160.667 724.483  c
159.057 724.483 157.776 723.514 157.776 721.718  c
157.776 719.968 159.057 718.921 160.901 718.921  c
163.995 718.921 163.995 722.296 163.995 723.155  c
h
162.214 721.874 m
162.214 721.436 162.214 720.671 162.057 720.249  c
161.995 720.124 161.698 719.421 160.932 719.421  c
159.542 719.421 159.542 720.468 159.542 721.749  c
159.542 723.046 159.542 724.014 160.776 724.014  c
161.870 724.014 162.214 722.686 162.214 721.874  c
h
f
2 J
10.0000 M
1.00000 1.00000 1.00000 RG
0.00000 0.00000 0.00000 RG
1.00000 1.00000 1.00000 RG
newpath
337.499 614.949 m
337.499 618.567 334.451 621.501 330.691 621.501  c
326.931 621.501 323.883 618.567 323.883 614.949  c
323.883 611.330 326.931 608.397 330.691 608.397  c
334.451 608.397 337.499 611.330 337.499 614.949  c
h
f
0.00000 0.00000 0.00000 RG
0 J
1.45000 M
newpath
333.676 616.222 m
333.676 617.800 332.411 618.972 330.317 618.972  c
328.708 618.972 327.692 617.863 327.692 616.769  c
327.692 615.972 328.380 615.847 328.567 615.847  c
328.880 615.847 329.442 616.050 329.442 616.738  c
329.442 617.269 329.067 617.581 328.598 617.613  c
329.145 618.347 329.958 618.410 330.270 618.410  c
331.833 618.410 331.833 617.113 331.833 616.160  c
331.833 615.128 331.833 613.988 330.676 613.988  c
330.145 613.988 329.442 614.113 328.926 614.706  c
328.848 614.816 328.817 614.863 328.645 614.863  c
328.364 614.863 328.364 614.691 328.364 614.456  c
328.364 610.675 l
328.364 610.456 328.364 610.316 328.551 610.316  c
328.583 610.316 328.598 610.331 328.708 610.363  c
329.051 610.488 329.739 610.738 330.723 610.738  c
331.286 610.738 331.973 610.660 332.723 610.363  c
332.864 610.316 332.880 610.316 332.911 610.316  c
333.067 610.316 333.098 610.456 333.098 610.550  c
333.098 610.878 331.895 612.347 330.005 612.347  c
329.551 612.347 329.411 612.316 329.051 612.253  c
329.051 613.972 l
329.661 613.550 330.348 613.519 330.723 613.519  c
332.645 613.519 333.676 614.722 333.676 616.222  c
h
f
2 J
10.0000 M
1.00000 1.00000 1.00000 RG
0.00000 0.00000 0.00000 RG
1.00000 1.00000 1.00000 RG
newpath
253.674 660.517 m
253.674 664.135 250.626 667.069 246.866 667.069  c
243.106 667.069 240.058 664.135 240.058 660.517  c
240.058 656.898 243.106 653.965 246.866 653.965  c
250.626 653.965 253.674 656.898 253.674 660.517  c
h
f
0.00000 0.00000 0.00000 RG
0 J
1.45000 M
newpath
250.383 656.024 m
250.383 656.478 250.383 656.509 250.258 656.649  c
248.242 658.993 l
247.789 659.524 247.508 660.290 247.398 661.165  c
247.304 661.774 247.273 662.399 247.273 663.024  c
247.273 663.618 l
247.273 664.478 246.648 664.540 246.445 664.540  c
246.367 664.540 245.648 664.540 245.648 663.634  c
245.648 661.712 246.570 659.946 247.820 658.493  c
248.054 658.212 248.304 657.931 248.539 657.649  c
246.351 657.649 l
246.117 657.649 245.070 657.649 244.929 657.728  c
244.867 657.759 244.711 657.931 244.570 658.915  c
243.961 658.915 l
244.414 655.618 l
245.023 655.618 l
245.054 655.743 245.070 655.853 245.336 655.915  c
245.523 655.962 247.429 656.024 247.742 656.024  c
h
f
2 J
10.0000 M
1.00000 1.00000 1.00000 RG
0.00000 0.00000 0.00000 RG
1.00000 1.00000 1.00000 RG
newpath
272.865 747.701 m
272.865 755.985 266.149 762.701 257.865 762.701  c
249.581 762.701 242.865 755.985 242.865 747.701  c
242.865 739.417 249.581 732.701 257.865 732.701  c
266.149 732.701 272.865 739.417 272.865 747.701  c
h
f
0.00000 0.00000 0.00000 RG
0 J
1.45000 M
newpath
260.851 748.974 m
260.851 750.552 259.585 751.724 257.491 751.724  c
255.882 751.724 254.866 750.615 254.866 749.521  c
254.866 748.724 255.554 748.599 255.741 748.599  c
256.054 748.599 256.616 748.802 256.616 749.490  c
256.616 750.021 256.241 750.333 255.773 750.365  c
256.319 751.099 257.132 751.162 257.444 751.162  c
259.007 751.162 259.007 749.865 259.007 748.912  c
259.007 747.880 259.007 746.740 257.851 746.740  c
257.319 746.740 256.616 746.865 256.101 747.458  c
256.023 747.568 255.991 747.615 255.819 747.615  c
255.538 747.615 255.538 747.443 255.538 747.208  c
255.538 743.427 l
255.538 743.208 255.538 743.068 255.726 743.068  c
255.757 743.068 255.773 743.083 255.882 743.115  c
256.226 743.240 256.913 743.490 257.898 743.490  c
258.460 743.490 259.148 743.412 259.898 743.115  c
260.038 743.068 260.054 743.068 260.085 743.068  c
260.241 743.068 260.273 743.208 260.273 743.302  c
260.273 743.630 259.069 745.099 257.179 745.099  c
256.726 745.099 256.585 745.068 256.226 745.005  c
256.226 746.724 l
256.835 746.302 257.523 746.271 257.898 746.271  c
259.819 746.271 260.851 747.474 260.851 748.974  c
h
f
2 J
10.0000 M
1.00000 1.00000 1.00000 RG
0 J
1.45000 M
0.00000 0.00000 0.00000 RG
newpath
272.865 747.701 m
272.865 755.985 266.149 762.701 257.865 762.701  c
249.581 762.701 242.865 755.985 242.865 747.701  c
242.865 739.417 249.581 732.701 257.865 732.701  c
266.149 732.701 272.865 739.417 272.865 747.701  c
h
S
2 J
10.0000 M
1.00000 1.00000 1.00000 RG
newpath
272.961 726.149 m
272.961 729.767 269.913 732.701 266.153 732.701  c
262.393 732.701 259.345 729.767 259.345 726.149  c
259.345 722.530 262.393 719.597 266.153 719.597  c
269.913 719.597 272.961 722.530 272.961 726.149  c
h
f
0.00000 0.00000 0.00000 RG
0 J
1.45000 M
newpath
265.109 730.031 m
264.530 730.000 263.155 730.000 262.515 730.000  c
261.890 730.000 260.499 730.000 259.937 730.031  c
259.937 729.422 l
261.749 729.422 l
261.749 722.703 l
260.968 722.953 260.265 722.953 260.046 722.953  c
259.796 722.953 l
259.796 722.344 l
260.046 722.344 l
260.327 722.344 261.671 722.344 262.671 721.610  c
262.780 721.516 262.812 721.516 262.952 721.516  c
263.296 721.516 263.296 721.641 263.296 721.938  c
263.296 729.422 l
265.109 729.422 l
h
273.028 725.891 m
273.028 727.188 272.997 730.172 269.888 730.172  c
266.747 730.172 266.731 727.172 266.731 725.891  c
266.731 724.610 266.747 721.516 269.888 721.516  c
273.013 721.516 273.028 724.625 273.028 725.891  c
h
271.372 725.735 m
271.372 724.656 271.372 723.281 271.138 722.797  c
270.903 722.235 270.372 721.985 269.888 721.985  c
269.575 721.985 268.669 722.110 268.513 723.266  c
268.403 723.953 268.403 724.797 268.403 725.735  c
268.403 726.438 268.403 727.797 268.513 728.469  c
268.684 729.422 269.419 729.703 269.888 729.703  c
270.278 729.703 271.091 729.531 271.278 728.313  c
271.372 727.641 271.372 726.453 271.372 725.735  c
h
f
2 J
10.0000 M
1.00000 1.00000 1.00000 RG
0.00000 0.00000 0.00000 RG
2.00000 w
0 J
1.45000 M
newpath
289.069 532.784 m
312.099 570.367 l
S
newpath
286.718 528.947 m
285.665 540.147 l
289.657 533.743 l
297.176 533.094 l
h
f
1.00000 w
2 J
10.0000 M
2.00000 w
0 J
1.45000 M
newpath
319.937 602.657 m
319.937 621.501 l
S
newpath
319.937 598.157 m
313.187 607.157 l
319.937 603.782 l
326.687 607.157 l
h
f
1.00000 w
2 J
10.0000 M
2.00000 w
0 J
1.45000 M
newpath
201.091 652.221 m
193.692 673.054 l
S
newpath
202.597 647.980 m
193.224 654.202 l
200.714 653.281 l
205.946 658.720 l
h
f
1.00000 w
2 J
10.0000 M
2.00000 w
0 J
1.45000 M
newpath
191.760 645.195 m
145.293 678.458 l
S
newpath
195.419 642.576 m
184.172 642.326 l
190.846 645.850 l
192.030 653.303 l
h
f
1.00000 w
2 J
10.0000 M
2.00000 w
0 J
1.45000 M
newpath
132.780 577.361 m
260.895 523.691 l
S
newpath
265.046 521.953 m
254.136 519.204 l
259.857 524.126 l
259.353 531.656 l
h
f
1.00000 w
2 J
10.0000 M
2.00000 w
0 J
1.45000 M
newpath
218.486 650.034 m
235.071 674.735 l
S
newpath
215.978 646.298 m
215.391 657.533 l
219.114 650.968 l
226.599 650.008 l
h
f
1.00000 w
2 J
10.0000 M
2.00000 w
0 J
1.45000 M
newpath
170.248 733.753 m
181.498 705.321 l
S
newpath
183.154 701.137 m
173.566 707.022 l
181.084 706.367 l
186.119 711.989 l
h
f
1.00000 w
2 J
10.0000 M
2.00000 w
0 J
1.45000 M
newpath
224.438 600.561 m
214.382 620.457 l
S
newpath
226.467 596.544 m
216.384 601.532 l
223.930 601.565 l
228.432 607.621 l
h
f
1.00000 w
2 J
10.0000 M
2.00000 w
0 J
1.45000 M
newpath
241.679 570.760 m
267.901 532.272 l
S
newpath
270.435 528.553 m
259.789 532.190 l
267.268 533.202 l
270.946 539.792 l
h
f
1.00000 w
2 J
10.0000 M
2.00000 w
0 J
1.45000 M
newpath
254.385 733.110 m
249.001 710.534 l
S
newpath
246.913 701.780 m
244.573 716.216 l
249.262 711.628 l
255.516 713.606 l
h
f
1.00000 w
2 J
10.0000 M
Q
[ 1.00000 0.00000 0.00000 1.00000 0.00000 0.00000 ] defaultmatrix matrix concatmatrix setmatrix
cliprestore

%%Trailer
%%EOF
