%!PS-Adobe-3.0 EPSF-3.0
%%BoundingBox: 0 0 825 432
%%Creator: yExport 1.5
%%Producer: org.freehep.graphicsio.ps.EPSGraphics2D Revision: 12753 
%%For: 
%%Title: 
%%CreationDate: Monday, August 1, 2016 6:08:53 PM EEST
%%LanguageLevel: 3
%%EndComments
%%BeginProlog
100 dict dup begin

%
% File: org/freehep/graphicsio.ps/PSProlog.txt
% Author: Charles Loomis
%

% Redefinitions which save some space in the output file.  These are also
% the same as the PDF operators.
/q {gsave} def
/Q {grestore} def

/n {newpath} def
/m {moveto} def
/l {lineto} def
/c {curveto} def
/h {closepath} def

/re {4 -2 roll moveto
     dup 0 exch rlineto exch 0 rlineto
     neg 0 exch rlineto closepath} def

/f {fill} def
/f* {eofill} def
/F {gsave vg&FC fill grestore} def
/F* {gsave vg&FC eofill grestore} def

/s {closepath stroke} def
/S {stroke} def

/b {closepath gsave vg&FC fill grestore
    gsave stroke grestore newpath} def
/B {gsave vg&FC fill grestore gsave stroke grestore newpath} def
/b* {closepath gsave vg&FC eofill grestore
    gsave stroke grestore newpath} def
/B* {gsave vg&FC eofill grestore gsave stroke grestore newpath} def

/g {1 array astore /vg&fcolor exch def} def
/G {setgray} def
/k {4 array astore /vg&fcolor exch def} def
/K {setcmykcolor} def
/rg {3 array astore /vg&fcolor exch def} def
/RG {setrgbcolor} def

% Initialize the fill color.
0 0 0 rg

/vg&FC {mark vg&fcolor aload pop
        counttomark 1 eq {G} if
        counttomark 3 eq {RG} if
        counttomark 4 eq {K} if
        cleartomark } def

/vg&DFC {/vg&fcolor exch def} def

/vg&C {mark exch aload pop
       counttomark 1 eq {G} if
       counttomark 3 eq {RG} if
       counttomark 4 eq {K} if
       cleartomark } def

/w {setlinewidth} def
/j {setlinejoin} def
/J {setlinecap} def
/M {setmiterlimit} def
/d {setdash} def
/i {setflat} def

/W {clip} def
/W* {eoclip} def

% Setup the default graphics state.
% (black; 1 pt. linewidth; miter join; butt-ends; solid)
/defaultGraphicsState {0 g 1 w 0 j 0 J [] 0 d} def

% Emulation of the rectangle operators for PostScript implementations
% which do not implement all Level 2 features.  This is an INCOMPLETE
% emulation; only the "x y width height rect..." form is emulated.
/*rf {gsave newpath re fill grestore} def
/*rs {gsave newpath re stroke grestore} def
/*rc {newpath re clip} def
/rf  /rectfill where {pop /rectfill}{/*rf} ifelse load def
/rs  /rectstroke where {pop /rectstroke}{/*rs} ifelse load def
/rc  /rectclip where {pop /rectclip}{/*rc} ifelse load def

% Emulation of the selectfont operator.  This includes a 20% increase in
% the fontsize which is necessary to get sizes similar to the Java fonts.
/*sf {exch findfont exch
      dup type /arraytype eq {makefont}{scalefont} ifelse setfont} bind def
/sf /selectfont where {pop {1.2 mul selectfont}}{{1.2 mul *sf}} ifelse def

% Special version of stroke which allows the dash pattern to continue
% across path segments.  (This may be needed for PostScript although
% modern printers seem to do this correctly.)
/vg&stroke {
  currentdash pop length 0 eq
  {stroke}
  {
    currentdash /vg&doffset exch def pop
    flattenpath
    {m vg&resetdash}
    {2 copy
     currentpoint
     3 -1 roll sub dup mul
     3 1 roll sub dup mul
     add sqrt
     3 1 roll l
     currentdash 3 -1 roll add setdash}
     {}
     {h vg&resetdash}
     pathforall
     stroke
     vg&resetdash
  } ifelse
} def
/vg&resetdash {currentdash pop vg&doffset setdash} def

% Initialize variables for safety.
/delta 0 def
/xv 0 def  /yv 0 def  /width 0 def  /height 0 def

% Initialize to portrait INTERNATIONAL (Letter-height, A4-width) page.
/pw 595 def  /ph 791  def  /po true def /ftp false def

% Initialize margins to 20 points.
/ml 20 def  /mr 20 def  /mt 20 def  /mb 20 def

% Temporary matrices.
/smatrix 0 def  /nmatrix 0 def

% set page size (usage: <page width><page height> setpagesize)
/setpagesize {/ph exch def /pw exch def} def

% set page orientation (usage: portrait or landscape)
/portrait {/po true def} def
/landscape {/po false def} def

% force natural size for image (usage: naturalsize)
/naturalsize {/ftp false def} def

% resize image to fill page (usage: fittopage)
/fittopage {/ftp true def} def

% set margins of the page (usage: <left><bottom><top><right> setmargins)
/setmargins {/mr exch def /mt exch def /mb exch def /ml exch def} def

% set the graphic's size (usage: <width><height> setsize)
/setsize {/gh exch def /gw exch def} def

% set the graphic's origin (usage: <x0><y0> setorigin)
/setorigin {/gy exch def /gx exch def} def

% calculate image center
/imagecenter {pw ml sub mr sub 2 div ml add
              ph mt sub mb sub 2 div mb add} def

% calculate the necessary scaling
/imagescale {po {gw}{gh} ifelse pw ml sub mr sub div
             po {gh}{gw} ifelse ph mt sub mb sub div
             2 copy lt {exch} if pop
             ftp not {1 2 copy lt {exch} if pop} if
             1 exch div /sfactor exch def
             /gw gw sfactor mul def /gh gh sfactor mul def} def

% calculate image origin
/imageorigin {pw ml sub mr sub 2 div ml add
              po {gw}{gh} ifelse 2 div sub
              ph mt sub mb sub 2 div mb add
              po {gh}{gw} ifelse 2 div po {add}{sub} ifelse} def

% calculate the clipping origin
/cliporigin  {pw ml sub mr sub 2 div ml add
              po {gw}{gh} ifelse 2 div sub floor
              ph mt sub mb sub 2 div mb add
              po {gh}{gw} ifelse 2 div sub floor} def

% Set the clipping region to the bounding box.
/cliptobounds {cliporigin po {gw}{gh} ifelse 1 add
                          po {gh}{gw} ifelse 1 add rc} def

% set the base transformation matrix (usage: setbasematrix)
/setbasematrix {imageorigin translate
                po {0}{90} ifelse rotate
                sfactor sfactor neg scale
                /defaultmatrix matrix currentmatrix def} def

% The lower-right bias in drawing 1 pt. wide lines.
/bias  {q 0.5 0.5 translate} def
/unbias {Q} def

% Define the composite fonts used to print Unicode strings.
% Undefine particular values in an encoding array.
/vg&undef { {exch dup 3 -1 roll /.notdef put} forall } def
/vg&redef { {3 -1 roll dup 4 2 roll put} forall } def

% usage: key encoding basefontname vg&newbasefont font
/vg&newbasefont {
findfont dup length dict copy
  begin
    currentdict /FID undef
    /Encoding exch def
    dup /FontName exch def
    currentdict
  end
definefont
} def

% usage: key encoding basefontname vg&newskewedbasefont font
/vg&newskewedbasefont {
findfont dup length dict copy
  begin
    currentdict /FID undef
    /Encoding exch def
    dup /FontName exch def
    exch FontMatrix exch matrix concatmatrix /FontMatrix exch def
    currentdict
  end
definefont
} def

% usage: basekey suffix vg&nconcat name
/vg&nconcat {
  2 {dup length string cvs exch} repeat
  dup length 3 -1 roll dup length 3 -1 roll add string
  dup 0 4 -1 roll dup length 5 1 roll putinterval
  dup 4 -2 roll exch putinterval cvn
} def

%usage: fontname vg&skewmatrix matrix
/vg&skewmatrix {
findfont dup /FontInfo known
  {
    /FontInfo get dup /ItalicAngle known
    {
      [ 1 0 4 -1 roll /ItalicAngle get neg dup sin exch cos div 1 0 0 ]
    }
    {pop matrix} ifelse
  }
  {pop matrix} ifelse
} def

% usage: newfontname basefontname vg&newcompositefont --
/vg&newcompositefont {
/vg&fstyle exch def
/vg&bfont exch def
/vg&fname exch def
<<
/FontStyleBits vg&fstyle
/FontType 0
/FontMatrix matrix
/FontName vg&fname
/FMapType 2
/Encoding [ 0 1 255 {pop 6} for ]
          dup 16#00 0 put % Latin
          dup 16#03 1 put % Greek
          dup 16#20 2 put % Punctuation
          dup 16#21 3 put % Arrows
          dup 16#22 4 put % MathOps
          dup 16#27 5 put % Dingbats

/FDepVector [
vg&bfont /-UC-Latin vg&nconcat UCLatinEncoding
vg&bfont vg&newbasefont

vg&bfont vg&skewmatrix
vg&bfont /-UC-Greek vg&nconcat UCGreekEncoding
/Symbol vg&newskewedbasefont

vg&bfont /-UC-Punctuation vg&nconcat UCPunctuationEncoding
vg&bfont vg&newbasefont

/Arrows-UC findfont
/MathOps-UC findfont
/Dingbats-UC findfont
/Undefined-UC findfont ]
>>
vg&fname exch definefont pop
} def

% Null encoding vector (all elements set to .notdef)
/NullEncoding [ 256 {/.notdef} repeat ] def

% Unicode Latin encoding (unicode codes \u0000-\u00ff)
/UCLatinEncoding
  ISOLatin1Encoding dup length array copy
  dup 16#60 /grave put
  [ 16#90 16#91 16#92 16#93 16#94 16#95 16#96
    16#97 16#98 16#9a 16#9b 16#9d 16#9e 16#9f
  ] vg&undef
  def

% Unicode Greek encoding (unicode codes \u0370-\u03ff)
/UCGreekEncoding
  NullEncoding dup length array copy
  << 16#91 /Alpha    16#92 /Beta      16#93 /Gamma    16#94 /Delta
     16#95 /Epsilon  16#96 /Zeta      16#97 /Eta      16#98 /Theta
     16#99 /Iota     16#9a /Kappa     16#9b /Lambda   16#9c /Mu
     16#9d /Nu       16#9e /Xi        16#9f /Omicron  16#a0 /Pi
     16#a1 /Rho      16#a3 /Sigma     16#a4 /Tau      16#a5 /Upsilon
     16#a6 /Phi      16#a7 /Chi       16#a8 /Psi      16#a9 /Omega
     16#b1 /alpha    16#b2 /beta      16#b3 /gamma    16#b4 /delta
     16#b5 /epsilon  16#b6 /zeta      16#b7 /eta      16#b8 /theta
     16#b9 /iota     16#ba /kappa     16#bb /lambda   16#bc /mu
     16#bd /nu       16#be /xi        16#bf /omicron  16#c0 /pi
     16#c1 /rho      16#c2 /sigma1    16#c3 /sigma    16#c4 /tau
     16#c5 /upsilon  16#c6 /phi1      16#c7 /chi      16#c8 /psi
     16#c9 /omega    16#7e /semicolon 16#87 /dotmath  16#d1 /theta1
     16#d2 /Upsilon1 16#d5 /phi       16#d6 /omega1
  >> vg&redef
  def

% Unicode punctuation encoding (unicode codes \u2000-\u206f)
/UCPunctuationEncoding
  NullEncoding dup length array copy
  << 16#10 /hyphen          16#11 /hyphen              16#12 /endash
     16#13 /emdash          16#18 /quoteleft           16#19 /quoteright
     16#1a /quotesinglbase  16#1b /quotesingle         16#1c /quotedblleft
     16#1d /quotedblright   16#1e /quotedblbase        16#1f /quotedbl
     16#20 /dagger          16#21 /daggerdbl           16#22 /bullet
     16#24 /period          16#26 /ellipsis            16#27 /periodcentered
     16#30 /perthousand     16#44 /fraction
     16#70 /zerosuperior    16#74 /foursuperior        16#75 /fivesuperior
     16#76 /sixsuperior     16#77 /sevensuperior       16#78 /eightsuperior
     16#79 /ninesuperior    16#7b /hyphensuperior      16#7d /parenleftsuperior
     16#7e /parenrightsuperior
     16#80 /zeroinferior    16#84 /fourinferior        16#85 /fiveinferior
     16#81 /oneinferior     16#82 /twoinferior         16#83 /threeinferior
     16#86 /sixinferior     16#87 /seveninferior       16#88 /eightinferior
     16#89 /nineinferior    16#8b /hypheninferior      16#8d /parenleftinferior
     16#8e /parenrightinferior
  >> vg&redef
  def

% Unicode mathematical operators encoding (unicode codes \u2200-\u22ff)
/UCMathOpsEncoding
  NullEncoding dup length array copy
  << 16#00 /universal       16#02 /partialdiff         16#03 /existential
     16#05 /emptyset        16#06 /Delta               16#07 /gradient
     16#08 /element         16#09 /notelement          16#0b /suchthat
     16#0f /product         16#11 /summation           16#12 /minus
     16#15 /fraction        16#17 /asteriskmath        16#19 /bullet
     16#1a /radical         16#1d /proportional        16#1e /infinity
     16#20 /angle           16#23 /bar                 16#27 /logicaland
     16#28 /logicalor       16#29 /intersection        16#2a /union
     16#2b /integral        16#34 /therefore           16#36 /colon
     16#3c /similar         16#45 /congruent           16#48 /approxequal
     16#60 /notequal        16#61 /equivalence         16#64 /lessequal
     16#65 /greaterequal    16#82 /propersubset        16#83 /propersuperset
     16#86 /reflexsubset    16#87 /reflexsuperset      16#95 /circleplus
     16#97 /circlemultiply  16#a5 /perpendicular       16#03 /existential
     16#c0 /logicaland      16#c1 /logicalor           16#c2 /intersection
     16#c3 /union           16#c4 /diamond             16#c5 /dotmath
  >> vg&redef
  def

% Unicode arrows encoding (unicode codes \u2190-\u21ff)
% Also includes those "Letterlike" unicode characters
% which are available in the symbol font. (unicode codes \u2100-\u214f)
/UCArrowsEncoding
  NullEncoding dup length array copy
  << 16#11 /Ifraktur        16#1c /Rfraktur            16#22 /trademarkserif
     16#35 /aleph
     16#90 /arrowleft       16#91 /arrowup             16#92 /arrowright
     16#93 /arrowdown       16#94 /arrowboth           16#d0 /arrowdblleft
     16#d1 /arrowdblup      16#d2 /arrowdblright       16#d3 /arrowdbldown
     16#d4 /arrowdblboth
  >> vg&redef
  def

/ZapfDingbats findfont /Encoding get
dup length array copy /UCDingbatsEncoding exch def
16#20 1 16#7f {
  dup 16#20 sub exch
  UCDingbatsEncoding exch get
  UCDingbatsEncoding 3 1 roll put
} for
16#a0 1 16#ff {
  dup 16#40 sub exch
  UCDingbatsEncoding exch get
  UCDingbatsEncoding 3 1 roll put
} for
UCDingbatsEncoding [ 16#c0 1 16#ff {} for ] vg&undef
[ 16#00  16#05 16#0a 16#0b  16#28 16#4c 16#4e  16#53 16#54 16#55  16#57 16#5f
  16#60  16#68 16#69 16#6a  16#6b 16#6c 16#6d  16#6e 16#6f 16#70  16#71 16#72
  16#73  16#74 16#75 16#95  16#96 16#97 16#b0  16#bf
] vg&undef pop

% Define the base fonts which don't change.
/Undefined-UC NullEncoding       /Helvetica    vg&newbasefont pop
/MathOps-UC   UCMathOpsEncoding  /Symbol       vg&newbasefont pop
/Arrows-UC    UCArrowsEncoding   /Symbol       vg&newbasefont pop
/Dingbats-UC  UCDingbatsEncoding /ZapfDingbats vg&newbasefont pop

% Make the SansSerif composite fonts.
/SansSerif /Helvetica 16#00 vg&newcompositefont
/SansSerif-Bold /Helvetica-Bold 16#01 vg&newcompositefont
/SansSerif-Italic /Helvetica-Oblique 16#02 vg&newcompositefont
/SansSerif-BoldItalic /Helvetica-BoldOblique 16#03 vg&newcompositefont

% Make the Serif composite fonts.
/Serif /Times-Roman 16#00 vg&newcompositefont
/Serif-Bold /Times-Bold 16#01 vg&newcompositefont
/Serif-Italic /Times-Italic 16#02 vg&newcompositefont
/Serif-BoldItalic /Times-BoldItalic 16#03 vg&newcompositefont

% Make the Monospaced composite fonts.
/Monospaced /Courier 16#00 vg&newcompositefont
/Monospaced-Bold /Courier-Bold 16#01 vg&newcompositefont
/Monospaced-Italic /Courier-Oblique 16#02 vg&newcompositefont
/Monospaced-BoldItalic /Courier-BoldOblique 16#03 vg&newcompositefont

% Make the Dialog composite fonts.
/Dialog /Helvetica 16#00 vg&newcompositefont
/Dialog-Bold /Helvetica-Bold 16#01 vg&newcompositefont
/Dialog-Italic /Helvetica-Oblique 16#02 vg&newcompositefont
/Dialog-BoldItalic /Helvetica-BoldOblique 16#03 vg&newcompositefont

% Make the DialogInput composite fonts.
/DialogInput /Courier 16#00 vg&newcompositefont
/DialogInput-Bold /Courier-Bold 16#01 vg&newcompositefont
/DialogInput-Italic /Courier-Oblique 16#02 vg&newcompositefont
/DialogInput-BoldItalic /Courier-BoldOblique 16#03 vg&newcompositefont

% Make the Typewriter composite fonts (JDK 1.1 only).
/Typewriter /Courier 16#00 vg&newcompositefont
/Typewriter-Bold /Courier-Bold 16#01 vg&newcompositefont
/Typewriter-Italic /Courier-Oblique 16#02 vg&newcompositefont
/Typewriter-BoldItalic /Courier-BoldOblique 16#03 vg&newcompositefont


/cfontH {
 dup /fontsize exch def /SansSerif exch sf
 /vg&fontstyles [{cfontH} {cfontHB} {cfontHI} {cfontHBI}] def
} def
/cfontHB {
  dup /fontsize exch def /SansSerif-Bold exch sf
 /vg&fontstyles [{cfontH} {cfontHB} {cfontHI} {cfontHBI}] def
} def
/cfontHI {
 dup /fontsize exch def /SansSerif-Italic exch sf
 /vg&fontstyles [{cfontH} {cfontHB} {cfontHI} {cfontHBI}] def
} def
/cfontHBI {
 dup /fontsize exch def /SansSerif-BoldItalic exch sf
 /vg&fontstyles [{cfontH} {cfontHB} {cfontHI} {cfontHBI}] def
} def

/cfontT {
 dup /fontsize exch def /Serif exch sf
 /vg&fontstyles [{cfontT} {cfontTB} {cfontTI} {cfontTBI}] def
} def
/cfontTB {
 dup /fontsize exch def /Serif-Bold exch sf
 /vg&fontstyles [{cfontT} {cfontTB} {cfontTI} {cfontTBI}] def
} def
/cfontTI {
 dup /fontsize exch def /Serif-Italic exch sf
 /vg&fontstyles [{cfontT} {cfontTB} {cfontTI} {cfontTBI}] def
} def
/cfontTBI {
 dup /fontsize exch def /Serif-BoldItalic exch sf
 /vg&fontstyles [{cfontT} {cfontTB} {cfontTI} {cfontTBI}] def
} def

/cfontC {
 dup /fontsize exch def /Typewriter exch sf
 /vg&fontstyles [{cfontC} {cfontCB} {cfontCI} {cfontCBI}] def
} def
/cfontCB {
 dup /fontsize exch def /Typewriter-Bold exch sf
 /vg&fontstyles [{cfontC} {cfontCB} {cfontCI} {cfontCBI}] def
} def
/cfontCI {
 dup /fontsize exch def /Typewriter-Italic exch sf
 /vg&fontstyles [{cfontC} {cfontCB} {cfontCI} {cfontCBI}] def
} def
/cfontCBI {
 dup /fontsize exch def /Typewriter-BoldItalic exch sf
 /vg&fontstyles [{cfontC} {cfontCB} {cfontCI} {cfontCBI}] def
} def

% Darken or lighten the current color.
/darken {0.7 exch exp 3 copy
         q 4 -1 roll vg&C
         currentrgbcolor 3 {4 -2 roll mul} repeat
         3 array astore Q} def

/displayColorMap
<< /Cr   [1.00 0.00 0.00]       /Cg     [0.00 1.00 0.00]
   /Cb   [0.00 0.00 1.00]       /Cc     [1.00 0.00 0.00 0.00]
   /Cm   [0.00 1.00 0.00 0.00]  /Cy     [0.00 0.00 1.00 0.00]
   /Co   [1.00 0.78 0.00]       /Cp     [1.00 0.67 0.67]
   /Cw   [1   ]                 /Cgrl   [0.75]
   /Cgr  [0.50]                 /Cgrd   [0.25]
   /Ck   [0   ]
   /CGr  [1.00 0.00 0.00]       /CGg    [0.00 1.00 0.00]
   /CGb  [0.00 0.00 1.00]       /CGc    [1.00 0.00 0.00 0.00]
   /CGm  [0.00 1.00 0.00 0.00]  /CGy    [0.00 0.00 1.00 0.00]
   /CGo  [1.00 0.78 0.00]       /CGp    [1.00 0.67 0.67]
   /CGw  [1   ]                 /CGgrl  [0.75]
   /CGgr [0.50]                 /CGgrd  [0.25]
   /CGk  [0   ]
   /CIr  [1.00 0.00 0.00]       /CIg    [0.00 1.00 0.00]
   /CIb  [0.00 0.00 1.00]       /CIc    [1.00 0.00 0.00 0.00]
   /CIm  [0.00 1.00 0.00 0.00]  /CIy    [0.00 0.00 1.00 0.00]
   /CIo  [1.00 0.78 0.00]       /CIp    [1.00 0.67 0.67]
   /CIw  [1   ]                 /CIgrl  [0.75]
   /CIgr [0.50]                 /CIgrd  [0.25]
   /CIk  [0   ]
>> def

/printColorMap
<< /Cr   [1.00 0.33 0.33]       /Cg     [0.33 1.00 0.33]
   /Cb   [0.33 0.33 1.00]       /Cc     [1.00 0.00 0.00 0.00]
   /Cm   [0.00 1.00 0.00 0.00]  /Cy     [0.00 0.00 1.00 0.00]
   /Co   [1.00 0.78 0.00]       /Cp     [1.00 0.67 0.67]
   /Cw   [1   ]                 /Cgrl   [0.75]
   /Cgr  [0.50]                 /Cgrd   [0.25]
   /Ck   [0   ]
   /CGr  [1.00 0.33 0.33]       /CGg    [0.33 1.00 0.33]
   /CGb  [0.33 0.33 1.00]       /CGc    [1.00 0.00 0.00 0.00]
   /CGm  [0.00 1.00 0.00 0.00]  /CGy    [0.00 0.00 1.00 0.00]
   /CGo  [1.00 0.78 0.00]       /CGp    [1.00 0.67 0.67]
   /CGw  [1   ]                 /CGgrl  [0.75]
   /CGgr [0.50]                 /CGgrd  [0.25]
   /CGk  [0   ]
   /CIr  [1.00 0.33 0.33]       /CIg    [0.33 1.00 0.33]
   /CIb  [0.33 0.33 1.00]       /CIc    [1.00 0.00 0.00 0.00]
   /CIm  [0.00 1.00 0.00 0.00]  /CIy    [0.00 0.00 1.00 0.00]
   /CIo  [1.00 0.78 0.00]       /CIp    [1.00 0.67 0.67]
   /CIw  [1   ]                 /CIgrl  [0.75]
   /CIgr [0.50]                 /CIgrd  [0.25]
   /CIk  [0   ]
>> def

/grayColorMap
<< /Cr   [0   ]                 /Cg     [0   ]
   /Cb   [0   ]                 /Cc     [0   ]
   /Cm   [0   ]                 /Cy     [0   ]
   /Co   [0   ]                 /Cp     [0   ]
   /Cw   [0   ]                 /Cgrl   [0   ]
   /Cgr  [0   ]                 /Cgrd   [0   ]
   /Ck   [0   ]
   /CGr  [0.75]                 /CGg    [1   ]
   /CGb  [0.50]                 /CGc    [0.75]
   /CGm  [0.50]                 /CGy    [1   ]
   /CGo  [0.75]                 /CGp    [1   ]
   /CGw  [0   ]                 /CGgrl  [0.25]
   /CGgr [0.50]                 /CGgrd  [0.75]
   /CGk  [1   ]
   /CIr  [1   ]                 /CIg    [1   ]
   /CIb  [1   ]                 /CIc    [1   ]
   /CIm  [1   ]                 /CIy    [1   ]
   /CIo  [1   ]                 /CIp    [1   ]
   /CIw  [1   ]                 /CIgrl  [1   ]
   /CIgr [1   ]                 /CIgrd  [1   ]
   /CIk  [1   ]
>> def

/bwColorMap
<< /Cr   [0   ]                 /Cg     [0   ]
   /Cb   [0   ]                 /Cc     [0   ]
   /Cm   [0   ]                 /Cy     [0   ]
   /Co   [0   ]                 /Cp     [0   ]
   /Cw   [0   ]                 /Cgrl   [0   ]
   /Cgr  [0   ]                 /Cgrd   [0   ]
   /Ck   [0   ]
   /CGr  [1   ]                 /CGg    [1   ]
   /CGb  [1   ]                 /CGc    [1   ]
   /CGm  [1   ]                 /CGy    [1   ]
   /CGo  [1   ]                 /CGp    [1   ]
   /CGw  [0   ]                 /CGgrl  [1   ]
   /CGgr [1   ]                 /CGgrd  [1   ]
   /CGk  [1   ]
   /CIr  [1   ]                 /CIg    [1   ]
   /CIb  [1   ]                 /CIc    [1   ]
   /CIm  [1   ]                 /CIy    [1   ]
   /CIo  [1   ]                 /CIp    [1   ]
   /CIw  [1   ]                 /CIgrl  [1   ]
   /CIgr [1   ]                 /CIgrd  [1   ]
   /CIk  [1   ]
>> def

%
% The following routines handle the alignment of and printing of
% tagged strings.
%

% Predefine the bounding box values.
/bbllx 0 def /bblly 0 def /bburx 0 def /bbury 0 def

% This routine pops the first unicode character off of a string and returns
% the remainder of the string, the character code of first character,
% and a "true" if the string was non-zero length.
% <string>      popfirst <remaining string> <true>
% <null string> popfirst <false>
/popfirst {
  dup length 1 gt
    {dup 0 get /vg&fbyte exch def
     dup 1 get /vg&cbyte exch def
     dup length 2 sub 2 exch getinterval true}
    {pop false} ifelse
} def

% This routine shows a single unicode character given the font and
% character codes.
% <font code> <char code> unicharshow --
/unicharshow {
  2 string
  dup 0 5 -1 roll put
  dup 1 4 -1 roll put
  internalshow
} def

% This is an internal routine to alternate between determining the
% bounding box for stringsize and showing the string for recshow.
% <string> internalshow --
/internalshow {show} def

% This is an internal routine to alternate between determining the
% bounding box for stringsize and stroking various ornaments.
% <string> internalstroke --
/internalstroke {S} def

% Sets up internalshow to use the null device to determine string size.
% -- nullinternalshow --
/nullinternalshow {/internalshow {false charpath flattenpath
                                  pathbbox updatebbox} def} def

% Sets up internalstroke to use the null device to determine string size.
% -- nullinternalstroke --
/nullinternalstroke {
 /internalstroke {flattenpath pathbbox updatebbox} def} def

% This routine tests to see if the character code matches the first
% character of a string.
% <char code> <string> testchar <char code> <true or false>
/testchar {exch dup 3 -1 roll 0 get eq} def

% Raise the text baseline for superscripts.
% -- raise --
/raise {
  0 fontsize 2 div rmoveto
  /fontsize fontsize 2 mul 3 div def
  currentfont /FontName get fontsize sf
} def

% Un-raise the text baseline for superscripts.
% -- unraise --
/unraise {
  /fontsize fontsize 1.5 mul def
  0 fontsize 2 div neg rmoveto
} def

% Lower the text baseline for subscripts.
% -- lower --
/lower {
  0 fontsize 3 div neg rmoveto
  /fontsize fontsize 2 mul 3 div def
  currentfont /FontName get fontsize sf
} def

% Un-lower the text baseline for subscripts.
% -- unlower --
/unlower {
  /fontsize fontsize 1.5 mul def
  0 fontsize 3 div rmoveto
} def

% Compare the top two elements on the stack and leave only the
% larger one.
/maxval {2 copy gt {pop} {exch pop} ifelse} def

% Tokenize a string.  Do not use the usual PostScript token because
% parentheses will not be interpreted correctly because of rescanning
% of the string.
/vg&token {/vg&string exch def /vg&index -1 def /vg&level 0 def
0 2 vg&string length 2 sub {
  dup dup 1 add exch vg&string exch get 8 bitshift vg&string 3 -1 roll get or
  dup 16#f0fe eq {pop 1}{16#f0ff eq {-1}{0} ifelse} ifelse
  /vg&level exch vg&level add def
  vg&level 0 eq {/vg&index exch def exit} if pop
} for
vg&index 0 ge {
  vg&string vg&index 2 add dup vg&string length exch sub getinterval
  vg&index 2 gt {vg&string 2 vg&index 2 sub getinterval}{()} ifelse
  true}
{false} ifelse
} bind def

% Recursively show an unicode string.
% <string> recshow --
/recshow {
  popfirst
  {
    % Test to see if this is a string attribute.
    vg&fbyte 16#f0 and 16#e0 eq
    {
      q

      % Font style.
      currentfont dup /FontStyleBits known {/FontStyleBits get}{pop 0} ifelse
      vg&cbyte or vg&fontstyles exch get fontsize exch exec

      vg&token pop recshow currentpoint Q m recshow
    }
    {
      vg&fbyte 16#F8 and 16#F0 eq {

        % Superscript and/or subscript.
        vg&cbyte 16#00 eq {
          vg&token pop exch vg&token pop 3 -1 roll
          q raise recshow unraise currentpoint pop Q exch
          q lower recshow unlower currentpoint pop Q
          maxval currentpoint exch pop m recshow } if

        % Strikeout.
        vg&cbyte 16#01 eq {
          vg&token pop currentpoint 3 -1 roll recshow
          q 0 J vg&underline vg&uthick w
          currentpoint 4 -2 roll fontsize 3 div add moveto
          fontsize 3 div add lineto internalstroke Q
          recshow} if

        % Underline.
        vg&cbyte 16#02 eq {
          vg&token pop currentpoint 3 -1 roll recshow
          q 0 J vg&underline vg&uthick w
          currentpoint 4 -2 roll vg&uoffset add moveto
          vg&uoffset add lineto internalstroke Q
          recshow} if

        % Dashed underline.
        vg&cbyte 16#03 eq {
          vg&token pop currentpoint 3 -1 roll recshow
          q 0 J [ vg&uthick 5 mul vg&uthick 2 mul] 0 d
          vg&underline vg&uthick w
          currentpoint 4 -2 roll vg&uoffset add moveto
          vg&uoffset add lineto internalstroke Q
          recshow} if

        % Dotted underline.
        vg&cbyte 16#04 eq {
          vg&token pop currentpoint 3 -1 roll recshow
          q 1 J [ 0 vg&uthick 3 mul] 0 d
          vg&underline vg&uthick w
          currentpoint 4 -2 roll vg&uoffset add moveto
          vg&uoffset add lineto internalstroke Q
          recshow} if

        % Thick underline.
        vg&cbyte 16#05 eq {
          vg&token pop currentpoint 3 -1 roll recshow
          q 0 J vg&underline vg&uthick 2 mul w
          currentpoint 4 -2 roll vg&uoffset vg&uthick 2 div sub add moveto
          vg&uoffset vg&uthick 2 div sub add lineto internalstroke Q
          recshow} if

        % Gray thick underline.
        vg&cbyte 16#06 eq {
          vg&token pop currentpoint 3 -1 roll recshow
          q 0 J vg&underline vg&uthick 2 mul w 0.5 setgray
          currentpoint 4 -2 roll vg&uoffset vg&uthick 2 div sub add moveto
          vg&uoffset vg&uthick 2 div sub add lineto internalstroke Q
          recshow} if

        % Overbar.
        vg&cbyte 16#07 eq {
          vg&token pop dup stringsize relative 4 1 roll pop pop exch
          3 -1 roll recshow
          q 0 J vg&underline vg&uthick w
          vg&uoffset neg add dup currentpoint pop exch m l internalstroke Q
          recshow} if
      }
      {
        vg&fbyte vg&cbyte unicharshow recshow
      } ifelse
    } ifelse
  } if
} def

% Get the underline position and thickness from the current font.
/vg&underline {

currentfont dup /FontType get 0 eq {/FDepVector get 0 get} if
dup dup /FontInfo known {
  /FontInfo get dup
  dup /UnderlinePosition known {
    /UnderlinePosition get /vg&uoffset exch def
  }
  {
    pop /vg&uoffset 0 def
  } ifelse
  dup /UnderlineThickness known {
    /UnderlineThickness get /vg&uthick exch def
  }
  {
    pop /vg&uthick 0 def
  } ifelse
}
{
  pop /vg&uoffset 0 def /vg&uthick 0 def
} ifelse
/FontMatrix get
currentfont dup /FontType get 0 eq
{/FontMatrix get matrix concatmatrix}{pop} ifelse
dup 0 vg&uoffset 3 -1 roll transform /vg&uoffset exch def pop
0 vg&uthick 3 -1 roll transform /vg&uthick exch def pop
} def

% Make a frame with the coordinates on the stack.
% <llx> <lly> <urx> <ury> frame --
/frame {4 copy m 3 1 roll exch l 4 -2 roll l l h} def

% Resets the accumulated bounding box to a degenerate box at the
% current point.
% -- resetbbox --
/resetbbox {
  currentpoint 2 copy
  /bbury exch def
  /bburx exch def
  /bblly exch def
  /bbllx exch def
} def

% Update the accumulated bounding box.
% <llx'> <lly'> <urx'> <ury'> updatebbox --
/updatebbox {
  dup bbury gt {/bbury exch def} {pop} ifelse
  dup bburx gt {/bburx exch def} {pop} ifelse
  dup bblly lt {/bblly exch def} {pop} ifelse
  dup bbllx lt {/bbllx exch def} {pop} ifelse
} def

% Set the bounding box to the values on the stack.
% <llx'> <lly'> <urx'> <ury'> updatebbox --
/restorebbox {
  /bbury exch def /bburx exch def /bblly exch def /bbllx exch def
} def

% Push the accumulated bounding box onto the stack.
% -- pushbbox <llx> <lly> <urx> <ury>
/pushbbox {bbllx bblly bburx bbury} def

% Make the relative bounding box relative to the currentpoint.
% <llx'> <lly'> <urx'> <ury'> inflate <llx> <lly> <urx> <ury>
/inflate {
  2 {fontsize 0.2 mul add 4 1 roll} repeat
  2 {fontsize 0.2 mul sub 4 1 roll} repeat
} def

% Make the relative bounding box relative to the currentpoint.
% <llx'> <lly'> <urx'> <ury'> relative <llx> <lly> <urx> <ury>
/relative {
  currentpoint 3 -1 roll add 3 1 roll add exch 4 2 roll
  currentpoint 3 -1 roll add 3 1 roll add exch 4 2 roll
} def

% Returns the size of a string appropriate for recshow.
% <string> stringsize <llx> <lly> <urx> <ury>
/stringsize {
  pushbbox /internalshow load /internalstroke load 7 -1 roll
  q
  nulldevice 0 0 m
  nullinternalshow nullinternalstroke
  resetbbox
  recshow
  /internalstroke exch def /internalshow exch def
  pushbbox 8 -4 roll restorebbox
  Q
} def

% Calculate values for string positioning.
/calcval {4 copy
  3 -1 roll sub /widy exch def sub neg /widx exch def
  pop pop /dy exch def /dx exch def} def

% Utilities to position a string.
% First letter (U=upper, C=center, B=baseline, L=lower)
% Second letter (L=left, C=center, R=right)
/align [
{calcval dx neg widy dy add neg rmoveto} % UL
{calcval dx neg widy 2 div dy add neg rmoveto} % CL
{calcval dx neg 0 rmoveto} % BL
{calcval dx neg dy neg rmoveto} % LL
{calcval widx dx add neg widy dy add neg rmoveto} % UR
{calcval widx dx add neg widy 2 div dy add neg rmoveto} % CR
{calcval widx dx add neg 0 rmoveto} % BR
{calcval widx dx add neg dy neg rmoveto} % LR
{calcval widx 2 div dx add neg widy dy add neg rmoveto} % UC
{calcval widx 2 div dx add neg widy 2 div dy add neg rmoveto} % CC
{calcval widx 2 div dx add neg 0 rmoveto} % BC
{calcval widx 2 div dx add neg dy neg rmoveto} % LC
] def

/vg&str {m q 1 -1 scale dup stringsize 4 copy align 11 -1 roll get exec
         q inflate relative frame exch exec Q recshow Q} def

end /procDict exch def
%%EndProlog

%%BeginSetup
save
procDict begin
printColorMap begin
825 432 setpagesize
0 0 0 0 setmargins
0 0 setorigin
825 432 setsize
naturalsize
portrait
imagescale
cliptobounds
setbasematrix
/Helvetica 10 sf
defaultGraphicsState
%%EndSetup

0.00000 0.00000 0.00000 RG
[ 1.00000 0.00000 0.00000 1.00000 0.00000 0.00000 ] defaultmatrix matrix concatmatrix setmatrix
cliprestore
1.00000 1.00000 1.00000 RG
newpath
0.00000 0.00000 m
825.000 0.00000 l
825.000 432.000 l
0.00000 432.000 l
0.00000 0.00000 l
h
f
0.00000 0.00000 0.00000 RG
0.00000 0.00000 0.00000 RG
[ 1.00000 0.00000 0.00000 1.00000 0.00000 0.00000 ] defaultmatrix matrix concatmatrix setmatrix
cliprestore
1.00000 1.00000 1.00000 RG
newpath
0.00000 0.00000 m
825.000 0.00000 l
825.000 432.000 l
0.00000 432.000 l
0.00000 0.00000 l
h
f
0.00000 0.00000 0.00000 RG
0 0 825 432 rc
q
[ 1.50000 0.00000 0.00000 1.50000 0.00000 0.00000 ] concat
[ 1.00000 0.00000 0.00000 1.00000 -53.0000 -1238.00 ] concat
1.00000 1.00000 1.00000 RG
newpath
53.0000 1238.00 m
603.000 1238.00 l
603.000 1526.00 l
53.0000 1526.00 l
53.0000 1238.00 l
h
f
0.00000 0.00000 0.00000 RG
[ 1.50000 0.00000 0.00000 1.50000 -79.5000 -1857.00 ] defaultmatrix matrix concatmatrix setmatrix
[ 1.50000 0.00000 0.00000 1.50000 -79.5000 -1857.00 ] defaultmatrix matrix concatmatrix setmatrix
[ 1.00000 0.00000 0.00000 1.00000 0.00000 0.00000 ] defaultmatrix matrix concatmatrix setmatrix
[ 1.50000 0.00000 0.00000 1.50000 -79.5000 -1857.00 ] defaultmatrix matrix concatmatrix setmatrix
1.00000 1.00000 1.00000 RG
newpath
571.809 1290.54 m
571.809 1298.82 565.093 1305.54 556.809 1305.54  c
548.525 1305.54 541.809 1298.82 541.809 1290.54  c
541.809 1282.25 548.525 1275.54 556.809 1275.54  c
565.093 1275.54 571.809 1282.25 571.809 1290.54  c
h
f
0.00000 0.00000 0.00000 RG
0 J
1.45000 M
newpath
550.997 1292.16 m
547.028 1292.16 l
547.028 1290.91 l
550.997 1290.91 l
h
558.314 1291.95 m
557.704 1291.23 l
557.032 1290.45 556.267 1289.66 555.236 1289.66  c
554.189 1289.66 553.314 1290.48 553.314 1291.53  c
553.314 1292.72 554.142 1293.75 555.282 1293.75  c
556.532 1293.75 557.564 1292.97 558.314 1291.95  c
h
565.298 1291.53 m
565.298 1290.36 564.470 1289.33 563.314 1289.33  c
562.079 1289.33 561.048 1290.11 560.298 1291.12  c
560.907 1291.83 l
561.579 1292.61 562.345 1293.42 563.376 1293.42  c
564.423 1293.42 565.298 1292.59 565.298 1291.53  c
h
566.126 1291.53 m
566.126 1293.31 564.704 1294.77 562.939 1294.77  c
561.564 1294.77 560.251 1294.19 559.376 1293.16  c
559.111 1292.86 l
558.220 1293.94 557.032 1294.72 555.642 1294.72  c
553.876 1294.72 552.486 1293.30 552.486 1291.53  c
552.486 1289.75 553.907 1288.31 555.673 1288.31  c
557.048 1288.31 558.361 1288.89 559.236 1289.91  c
559.501 1290.20 l
560.376 1289.12 561.579 1288.34 562.970 1288.34  c
564.720 1288.34 566.126 1289.78 566.126 1291.53  c
h
f
2 J
10.0000 M
1.00000 1.00000 1.00000 RG
0 J
1.45000 M
0.00000 0.00000 0.00000 RG
newpath
571.809 1290.54 m
571.809 1298.82 565.093 1305.54 556.809 1305.54  c
548.525 1305.54 541.809 1298.82 541.809 1290.54  c
541.809 1282.25 548.525 1275.54 556.809 1275.54  c
565.093 1275.54 571.809 1282.25 571.809 1290.54  c
h
S
2 J
10.0000 M
1.00000 1.00000 1.00000 RG
newpath
526.737 1371.08 m
526.737 1379.36 520.021 1386.08 511.737 1386.08  c
503.453 1386.08 496.737 1379.36 496.737 1371.08  c
496.737 1362.80 503.453 1356.08 511.737 1356.08  c
520.021 1356.08 526.737 1362.80 526.737 1371.08  c
h
f
0.00000 0.00000 0.00000 RG
0 J
1.45000 M
newpath
515.051 1374.96 m
514.598 1374.93 513.457 1374.93 512.941 1374.93  c
512.379 1374.93 511.207 1374.93 510.707 1374.96  c
510.707 1374.35 l
512.160 1374.35 l
512.160 1372.93 l
508.426 1372.93 l
508.426 1372.32 l
512.957 1366.65 l
513.113 1366.45 513.129 1366.43 513.395 1366.43  c
513.770 1366.43 513.785 1366.49 513.785 1366.85  c
513.785 1372.32 l
515.051 1372.32 l
515.051 1372.93 l
513.785 1372.93 l
513.785 1374.35 l
515.051 1374.35 l
h
512.301 1372.32 m
512.301 1368.29 l
509.098 1372.32 l
h
f
2 J
10.0000 M
1.00000 1.00000 1.00000 RG
0 J
1.45000 M
0.00000 0.00000 0.00000 RG
newpath
526.737 1371.08 m
526.737 1379.36 520.021 1386.08 511.737 1386.08  c
503.453 1386.08 496.737 1379.36 496.737 1371.08  c
496.737 1362.80 503.453 1356.08 511.737 1356.08  c
520.021 1356.08 526.737 1362.80 526.737 1371.08  c
h
S
2 J
10.0000 M
1.00000 1.00000 1.00000 RG
newpath
166.161 1401.08 m
166.161 1409.36 159.445 1416.08 151.161 1416.08  c
142.877 1416.08 136.161 1409.36 136.161 1401.08  c
136.161 1392.80 142.877 1386.08 151.161 1386.08  c
159.445 1386.08 166.161 1392.80 166.161 1401.08  c
h
f
0.00000 0.00000 0.00000 RG
0 J
1.45000 M
newpath
154.475 1404.96 m
154.022 1404.93 152.881 1404.93 152.365 1404.93  c
151.803 1404.93 150.631 1404.93 150.131 1404.96  c
150.131 1404.35 l
151.584 1404.35 l
151.584 1402.93 l
147.850 1402.93 l
147.850 1402.32 l
152.381 1396.65 l
152.537 1396.45 152.553 1396.43 152.819 1396.43  c
153.194 1396.43 153.209 1396.49 153.209 1396.85  c
153.209 1402.32 l
154.475 1402.32 l
154.475 1402.93 l
153.209 1402.93 l
153.209 1404.35 l
154.475 1404.35 l
h
151.725 1402.32 m
151.725 1398.29 l
148.522 1402.32 l
h
f
2 J
10.0000 M
1.00000 1.00000 1.00000 RG
0 J
1.45000 M
0.00000 0.00000 0.00000 RG
newpath
166.161 1401.08 m
166.161 1409.36 159.445 1416.08 151.161 1416.08  c
142.877 1416.08 136.161 1409.36 136.161 1401.08  c
136.161 1392.80 142.877 1386.08 151.161 1386.08  c
159.445 1386.08 166.161 1392.80 166.161 1401.08  c
h
S
2 J
10.0000 M
1.00000 1.00000 1.00000 RG
newpath
256.305 1427.00 m
256.305 1435.28 249.589 1442.00 241.305 1442.00  c
233.021 1442.00 226.305 1435.28 226.305 1427.00  c
226.305 1418.71 233.021 1412.00 241.305 1412.00  c
249.589 1412.00 256.305 1418.71 256.305 1427.00  c
h
f
0.00000 0.00000 0.00000 RG
0 J
1.45000 M
newpath
244.291 1428.27 m
244.291 1429.85 243.025 1431.02 240.931 1431.02  c
239.322 1431.02 238.306 1429.91 238.306 1428.82  c
238.306 1428.02 238.994 1427.90 239.181 1427.90  c
239.494 1427.90 240.056 1428.10 240.056 1428.79  c
240.056 1429.32 239.681 1429.63 239.213 1429.66  c
239.759 1430.40 240.572 1430.46 240.884 1430.46  c
242.447 1430.46 242.447 1429.16 242.447 1428.21  c
242.447 1427.18 242.447 1426.04 241.291 1426.04  c
240.759 1426.04 240.056 1426.16 239.541 1426.76  c
239.463 1426.87 239.431 1426.91 239.259 1426.91  c
238.978 1426.91 238.978 1426.74 238.978 1426.51  c
238.978 1422.72 l
238.978 1422.51 238.978 1422.37 239.166 1422.37  c
239.197 1422.37 239.213 1422.38 239.322 1422.41  c
239.666 1422.54 240.353 1422.79 241.338 1422.79  c
241.900 1422.79 242.588 1422.71 243.338 1422.41  c
243.478 1422.37 243.494 1422.37 243.525 1422.37  c
243.681 1422.37 243.713 1422.51 243.713 1422.60  c
243.713 1422.93 242.509 1424.40 240.619 1424.40  c
240.166 1424.40 240.025 1424.37 239.666 1424.30  c
239.666 1426.02 l
240.275 1425.60 240.963 1425.57 241.338 1425.57  c
243.259 1425.57 244.291 1426.77 244.291 1428.27  c
h
f
2 J
10.0000 M
1.00000 1.00000 1.00000 RG
0 J
1.45000 M
0.00000 0.00000 0.00000 RG
newpath
256.305 1427.00 m
256.305 1435.28 249.589 1442.00 241.305 1442.00  c
233.021 1442.00 226.305 1435.28 226.305 1427.00  c
226.305 1418.71 233.021 1412.00 241.305 1412.00  c
249.589 1412.00 256.305 1418.71 256.305 1427.00  c
h
S
2 J
10.0000 M
1.00000 1.00000 1.00000 RG
newpath
481.665 1401.08 m
481.665 1409.36 474.949 1416.08 466.665 1416.08  c
458.381 1416.08 451.665 1409.36 451.665 1401.08  c
451.665 1392.80 458.381 1386.08 466.665 1386.08  c
474.949 1386.08 481.665 1392.80 481.665 1401.08  c
h
f
0.00000 0.00000 0.00000 RG
0 J
1.45000 M
newpath
469.651 1402.35 m
469.651 1403.93 468.385 1405.10 466.291 1405.10  c
464.682 1405.10 463.666 1403.99 463.666 1402.90  c
463.666 1402.10 464.354 1401.98 464.541 1401.98  c
464.854 1401.98 465.416 1402.18 465.416 1402.87  c
465.416 1403.40 465.041 1403.71 464.573 1403.74  c
465.119 1404.48 465.932 1404.54 466.244 1404.54  c
467.807 1404.54 467.807 1403.24 467.807 1402.29  c
467.807 1401.26 467.807 1400.12 466.651 1400.12  c
466.119 1400.12 465.416 1400.24 464.901 1400.84  c
464.823 1400.95 464.791 1400.99 464.619 1400.99  c
464.338 1400.99 464.338 1400.82 464.338 1400.59  c
464.338 1396.81 l
464.338 1396.59 464.338 1396.45 464.526 1396.45  c
464.557 1396.45 464.573 1396.46 464.682 1396.49  c
465.026 1396.62 465.713 1396.87 466.698 1396.87  c
467.260 1396.87 467.948 1396.79 468.698 1396.49  c
468.838 1396.45 468.854 1396.45 468.885 1396.45  c
469.041 1396.45 469.073 1396.59 469.073 1396.68  c
469.073 1397.01 467.869 1398.48 465.979 1398.48  c
465.526 1398.48 465.385 1398.45 465.026 1398.38  c
465.026 1400.10 l
465.635 1399.68 466.323 1399.65 466.698 1399.65  c
468.619 1399.65 469.651 1400.85 469.651 1402.35  c
h
f
2 J
10.0000 M
1.00000 1.00000 1.00000 RG
0 J
1.45000 M
0.00000 0.00000 0.00000 RG
newpath
481.665 1401.08 m
481.665 1409.36 474.949 1416.08 466.665 1416.08  c
458.381 1416.08 451.665 1409.36 451.665 1401.08  c
451.665 1392.80 458.381 1386.08 466.665 1386.08  c
474.949 1386.08 481.665 1392.80 481.665 1401.08  c
h
S
2 J
10.0000 M
1.00000 1.00000 1.00000 RG
newpath
391.521 1371.08 m
391.521 1379.36 384.805 1386.08 376.521 1386.08  c
368.237 1386.08 361.521 1379.36 361.521 1371.08  c
361.521 1362.80 368.237 1356.08 376.521 1356.08  c
384.805 1356.08 391.521 1362.80 391.521 1371.08  c
h
f
0.00000 0.00000 0.00000 RG
0 J
1.45000 M
newpath
379.632 1372.62 m
379.632 1373.81 378.679 1375.10 376.350 1375.10  c
374.679 1375.10 373.413 1374.32 373.413 1373.15  c
373.413 1372.49 373.866 1372.13 374.413 1372.13  c
374.991 1372.13 375.397 1372.54 375.397 1373.13  c
375.397 1373.67 375.069 1373.99 374.647 1374.10  c
375.272 1374.49 375.944 1374.54 376.288 1374.54  c
377.632 1374.54 377.632 1373.23 377.632 1372.60  c
377.632 1371.95 377.632 1370.67 376.225 1370.67  c
375.647 1370.67 l
375.413 1370.67 375.288 1370.67 375.288 1370.43  c
375.288 1370.35 375.304 1370.23 375.444 1370.21  c
375.507 1370.20 375.538 1370.20 376.069 1370.17  c
377.413 1370.09 377.429 1368.38 377.429 1368.21  c
377.429 1367.79 377.397 1366.95 376.304 1366.95  c
375.913 1366.95 375.335 1367.06 374.882 1367.42  c
374.929 1367.43 375.632 1367.57 375.632 1368.34  c
375.632 1368.81 375.304 1369.23 374.725 1369.23  c
374.225 1369.23 373.835 1368.88 373.835 1368.32  c
373.835 1367.28 374.835 1366.45 376.382 1366.45  c
378.225 1366.45 379.210 1367.26 379.210 1368.26  c
379.210 1369.37 378.257 1370.12 377.366 1370.38  c
379.257 1370.79 379.632 1371.90 379.632 1372.62  c
h
f
2 J
10.0000 M
1.00000 1.00000 1.00000 RG
0 J
1.45000 M
0.00000 0.00000 0.00000 RG
newpath
391.521 1371.08 m
391.521 1379.36 384.805 1386.08 376.521 1386.08  c
368.237 1386.08 361.521 1379.36 361.521 1371.08  c
361.521 1362.80 368.237 1356.08 376.521 1356.08  c
384.805 1356.08 391.521 1362.80 391.521 1371.08  c
h
S
2 J
10.0000 M
1.00000 1.00000 1.00000 RG
newpath
229.802 1255.81 m
229.802 1264.09 191.925 1270.81 145.202 1270.81  c
98.4785 1270.81 60.6018 1264.09 60.6018 1255.81  c
60.6018 1247.53 98.4785 1240.81 145.202 1240.81  c
191.925 1240.81 229.802 1247.53 229.802 1255.81  c
h
f
0.00000 0.00000 0.00000 RG
0 J
1.45000 M
newpath
91.6910 1257.09 m
91.6910 1259.17 89.6598 1261.39 86.3004 1261.39  c
81.8160 1261.39 79.0660 1258.70 79.0660 1255.02  c
79.0660 1251.33 81.8160 1248.64 86.3004 1248.64  c
87.5191 1248.64 88.7223 1248.97 89.8473 1249.86  c
91.0348 1248.80 l
91.1754 1248.67 91.2066 1248.64 91.3785 1248.64  c
91.6910 1248.64 91.6910 1248.80 91.6910 1249.14  c
91.6910 1253.02 l
91.6910 1253.49 91.6754 1253.52 91.2066 1253.52  c
90.8004 1253.52 90.7848 1253.49 90.7223 1253.14  c
90.3316 1250.86 88.6129 1249.49 86.6754 1249.49  c
85.7379 1249.49 84.1754 1249.69 83.0035 1250.88  c
81.8629 1252.06 81.8160 1254.00 81.8160 1255.02  c
81.8160 1256.64 82.0348 1257.99 82.8785 1259.02  c
83.8160 1260.11 85.3316 1260.55 86.7223 1260.55  c
88.5504 1260.55 90.7223 1259.44 90.8473 1257.03  c
90.8629 1256.72 91.0348 1256.72 91.2691 1256.72  c
91.5660 1256.72 91.6910 1256.74 91.6910 1257.09  c
h
102.795 1260.75 m
102.795 1261.19 102.576 1261.19 102.217 1261.19  c
101.357 1261.19 l
99.4822 1261.19 99.4822 1260.36 99.4822 1259.80  c
99.0916 1260.56 98.2478 1261.30 96.7947 1261.30  c
95.5603 1261.30 93.3259 1260.97 93.3259 1259.25  c
93.3259 1256.64 97.9041 1256.47 99.1853 1256.42  c
99.1853 1255.81 l
99.1853 1254.44 98.5447 1253.69 97.2009 1253.69  c
96.9822 1253.69 96.4041 1253.70 95.9041 1253.81  c
95.9509 1253.84 96.2947 1254.16 96.2947 1254.69  c
96.2947 1255.45 95.7166 1255.83 95.1697 1255.83  c
94.6853 1255.83 94.0447 1255.49 94.0447 1254.69  c
94.0447 1253.11 96.2478 1253.03 97.2634 1253.03  c
99.9509 1253.03 101.232 1254.20 101.232 1255.81  c
101.232 1259.67 l
101.232 1260.09 101.232 1260.33 102.326 1260.34  c
102.560 1260.34 102.795 1260.34 102.795 1260.75  c
h
99.1853 1258.69 m
99.1853 1256.97 l
98.2791 1257.03 95.4353 1257.28 95.4353 1259.22  c
95.4353 1260.02 96.1541 1260.64 97.0759 1260.64  c
97.5291 1260.64 99.1853 1260.41 99.1853 1258.69  c
h
110.851 1254.56 m
110.851 1255.28 110.273 1255.66 109.757 1255.66  c
109.242 1255.66 108.664 1255.30 108.664 1254.56  c
108.664 1254.05 109.007 1253.74 109.007 1253.74  c
107.195 1253.74 106.757 1255.94 106.757 1257.19  c
106.757 1260.34 l
108.320 1260.34 l
108.320 1261.19 l
107.664 1261.14 106.523 1261.14 105.836 1261.14  c
103.570 1261.19 l
103.570 1260.34 l
104.804 1260.34 l
104.804 1254.78 l
104.804 1254.08 104.679 1254.08 103.570 1254.08  c
103.570 1253.24 l
106.554 1253.09 l
106.554 1255.13 l
106.961 1253.99 107.679 1253.09 108.945 1253.09  c
109.882 1253.09 110.851 1253.61 110.851 1254.56  c
h
118.282 1258.95 m
118.282 1260.27 117.470 1261.30 116.110 1261.30  c
114.829 1261.30 113.267 1260.91 113.267 1258.97  c
113.267 1254.05 l
111.782 1254.05 l
111.782 1253.39 l
113.564 1253.34 114.454 1251.56 114.470 1249.75  c
115.314 1249.75 l
115.314 1253.20 l
117.939 1253.20 l
117.939 1254.05 l
115.314 1254.05 l
115.314 1259.02 l
115.314 1259.42 115.314 1260.58 116.360 1260.58  c
116.860 1260.58 117.439 1260.14 117.439 1258.92  c
117.439 1258.00 l
118.282 1258.00 l
h
128.340 1259.08 m
128.340 1259.39 127.574 1261.30 124.730 1261.30  c
121.824 1261.30 120.027 1259.55 120.027 1257.14  c
120.027 1254.89 121.590 1253.03 124.465 1253.03  c
125.715 1253.03 126.668 1253.36 127.340 1254.00  c
128.230 1254.91 128.340 1256.22 128.340 1256.78  c
128.340 1257.27 128.168 1257.27 127.761 1257.27  c
122.324 1257.27 l
122.324 1258.19 122.340 1260.58 124.886 1260.58  c
126.058 1260.58 127.074 1260.00 127.465 1259.14  c
127.574 1258.84 127.605 1258.75 127.902 1258.75  c
127.996 1258.75 128.340 1258.75 128.340 1259.08  c
h
126.636 1256.67 m
126.605 1256.05 126.574 1253.69 124.465 1253.69  c
123.949 1253.69 123.230 1253.89 122.761 1254.63  c
122.386 1255.22 122.371 1255.97 122.324 1256.67  c
h
136.398 1258.67 m
136.398 1261.30 133.633 1261.30 133.070 1261.30  c
132.711 1261.30 131.773 1261.30 130.945 1260.72  c
130.477 1261.03 l
130.102 1261.30 130.070 1261.30 129.945 1261.30  c
129.617 1261.30 129.617 1261.14 129.617 1260.80  c
129.617 1258.83 l
129.617 1258.42 129.617 1258.31 130.039 1258.31  c
130.305 1258.31 130.383 1258.31 130.477 1258.56  c
130.695 1259.33 131.164 1260.64 133.070 1260.64  c
133.461 1260.64 135.117 1260.64 135.117 1259.30  c
135.117 1258.24 133.773 1258.00 133.117 1257.89  c
131.742 1257.64 131.055 1257.53 130.336 1256.91  c
129.977 1256.59 129.617 1256.11 129.617 1255.39  c
129.617 1253.03 132.383 1253.03 132.930 1253.03  c
133.648 1253.03 134.273 1253.14 134.742 1253.38  c
135.445 1253.03 135.477 1253.03 135.555 1253.03  c
135.883 1253.03 135.883 1253.20 135.883 1253.53  c
135.883 1254.99 l
135.883 1255.39 135.883 1255.49 135.445 1255.49  c
135.070 1255.49 135.055 1255.39 135.039 1255.13  c
134.945 1254.13 134.258 1253.61 132.914 1253.61  c
132.570 1253.61 130.898 1253.61 130.898 1254.72  c
130.898 1255.58 132.055 1255.77 132.727 1255.89  c
134.133 1256.13 134.711 1256.24 135.414 1256.77  c
136.039 1257.27 136.398 1257.89 136.398 1258.67  c
h
142.220 1261.19 m
140.126 1261.14 l
137.923 1261.19 l
137.923 1260.34 l
139.173 1260.34 l
139.173 1254.78 l
139.173 1254.08 139.048 1254.08 137.986 1254.08  c
137.986 1253.24 l
141.111 1253.09 l
141.111 1260.34 l
142.220 1260.34 l
h
141.361 1250.27 m
141.361 1251.03 140.736 1251.67 139.954 1251.67  c
139.189 1251.67 138.548 1251.03 138.548 1250.27  c
138.548 1249.49 139.189 1248.86 139.954 1248.86  c
140.736 1248.86 141.361 1249.49 141.361 1250.27  c
h
152.771 1260.75 m
152.771 1261.19 152.552 1261.19 152.193 1261.19  c
151.334 1261.19 l
149.459 1261.19 149.459 1260.36 149.459 1259.80  c
149.068 1260.56 148.224 1261.30 146.771 1261.30  c
145.537 1261.30 143.302 1260.97 143.302 1259.25  c
143.302 1256.64 147.881 1256.47 149.162 1256.42  c
149.162 1255.81 l
149.162 1254.44 148.521 1253.69 147.177 1253.69  c
146.959 1253.69 146.381 1253.70 145.881 1253.81  c
145.927 1253.84 146.271 1254.16 146.271 1254.69  c
146.271 1255.45 145.693 1255.83 145.146 1255.83  c
144.662 1255.83 144.021 1255.49 144.021 1254.69  c
144.021 1253.11 146.224 1253.03 147.240 1253.03  c
149.927 1253.03 151.209 1254.20 151.209 1255.81  c
151.209 1259.67 l
151.209 1260.09 151.209 1260.33 152.302 1260.34  c
152.537 1260.34 152.771 1260.34 152.771 1260.75  c
h
149.162 1258.69 m
149.162 1256.97 l
148.256 1257.03 145.412 1257.28 145.412 1259.22  c
145.412 1260.02 146.131 1260.64 147.052 1260.64  c
147.506 1260.64 149.162 1260.41 149.162 1258.69  c
h
163.937 1261.19 m
161.671 1261.14 l
159.406 1261.19 l
159.406 1260.34 l
160.656 1260.34 l
160.656 1255.49 l
160.656 1254.11 160.265 1253.74 159.656 1253.74  c
158.531 1253.74 156.984 1254.63 156.984 1256.58  c
156.984 1260.34 l
158.218 1260.34 l
158.218 1261.19 l
155.953 1261.14 l
153.687 1261.19 l
153.687 1260.34 l
154.921 1260.34 l
154.921 1254.78 l
154.921 1254.08 154.796 1254.08 153.687 1254.08  c
153.687 1253.24 l
156.781 1253.09 l
156.781 1255.03 l
157.250 1254.11 158.203 1253.09 159.937 1253.09  c
161.734 1253.09 162.703 1253.80 162.703 1255.67  c
162.703 1260.34 l
163.937 1260.34 l
h
178.117 1258.95 m
178.117 1260.27 177.305 1261.30 175.946 1261.30  c
174.664 1261.30 173.102 1260.91 173.102 1258.97  c
173.102 1254.05 l
171.617 1254.05 l
171.617 1253.39 l
173.399 1253.34 174.289 1251.56 174.305 1249.75  c
175.149 1249.75 l
175.149 1253.20 l
177.774 1253.20 l
177.774 1254.05 l
175.149 1254.05 l
175.149 1259.02 l
175.149 1259.42 175.149 1260.58 176.196 1260.58  c
176.696 1260.58 177.274 1260.14 177.274 1258.92  c
177.274 1258.00 l
178.117 1258.00 l
h
187.237 1254.56 m
187.237 1255.28 186.659 1255.66 186.143 1255.66  c
185.628 1255.66 185.050 1255.30 185.050 1254.56  c
185.050 1254.05 185.393 1253.74 185.393 1253.74  c
183.581 1253.74 183.143 1255.94 183.143 1257.19  c
183.143 1260.34 l
184.706 1260.34 l
184.706 1261.19 l
184.050 1261.14 182.909 1261.14 182.222 1261.14  c
179.956 1261.19 l
179.956 1260.34 l
181.190 1260.34 l
181.190 1254.78 l
181.190 1254.08 181.065 1254.08 179.956 1254.08  c
179.956 1253.24 l
182.940 1253.09 l
182.940 1255.13 l
183.347 1253.99 184.065 1253.09 185.331 1253.09  c
186.268 1253.09 187.237 1253.61 187.237 1254.56  c
h
196.684 1259.08 m
196.684 1259.39 195.918 1261.30 193.075 1261.30  c
190.168 1261.30 188.371 1259.55 188.371 1257.14  c
188.371 1254.89 189.934 1253.03 192.809 1253.03  c
194.059 1253.03 195.012 1253.36 195.684 1254.00  c
196.575 1254.91 196.684 1256.22 196.684 1256.78  c
196.684 1257.27 196.512 1257.27 196.106 1257.27  c
190.668 1257.27 l
190.668 1258.19 190.684 1260.58 193.231 1260.58  c
194.403 1260.58 195.418 1260.00 195.809 1259.14  c
195.918 1258.84 195.950 1258.75 196.246 1258.75  c
196.340 1258.75 196.684 1258.75 196.684 1259.08  c
h
194.981 1256.67 m
194.950 1256.05 194.918 1253.69 192.809 1253.69  c
192.293 1253.69 191.575 1253.89 191.106 1254.63  c
190.731 1255.22 190.715 1255.97 190.668 1256.67  c
h
206.165 1259.08 m
206.165 1259.39 205.399 1261.30 202.555 1261.30  c
199.649 1261.30 197.852 1259.55 197.852 1257.14  c
197.852 1254.89 199.415 1253.03 202.290 1253.03  c
203.540 1253.03 204.493 1253.36 205.165 1254.00  c
206.055 1254.91 206.165 1256.22 206.165 1256.78  c
206.165 1257.27 205.993 1257.27 205.587 1257.27  c
200.149 1257.27 l
200.149 1258.19 200.165 1260.58 202.712 1260.58  c
203.884 1260.58 204.899 1260.00 205.290 1259.14  c
205.399 1258.84 205.430 1258.75 205.727 1258.75  c
205.821 1258.75 206.165 1258.75 206.165 1259.08  c
h
204.462 1256.67 m
204.430 1256.05 204.399 1253.69 202.290 1253.69  c
201.774 1253.69 201.055 1253.89 200.587 1254.63  c
200.212 1255.22 200.196 1255.97 200.149 1256.67  c
h
211.021 1254.59 m
211.021 1255.38 210.396 1256.00 209.614 1256.00  c
208.849 1256.00 208.208 1255.38 208.208 1254.59  c
208.208 1253.83 208.849 1253.20 209.614 1253.20  c
210.396 1253.20 211.021 1253.83 211.021 1254.59  c
h
211.021 1259.78 m
211.021 1260.56 210.396 1261.19 209.614 1261.19  c
208.849 1261.19 208.208 1260.56 208.208 1259.78  c
208.208 1259.02 208.849 1258.38 209.614 1258.38  c
210.396 1258.38 211.021 1259.02 211.021 1259.78  c
h
f
2 J
10.0000 M
1.00000 1.00000 1.00000 RG
0.00000 0.00000 0.00000 RG
1.00000 1.00000 1.00000 RG
newpath
121.089 1315.81 m
121.089 1324.09 114.373 1330.81 106.089 1330.81  c
97.8049 1330.81 91.0892 1324.09 91.0892 1315.81  c
91.0892 1307.53 97.8049 1300.81 106.089 1300.81  c
114.373 1300.81 121.089 1307.53 121.089 1315.81  c
h
f
0.00000 0.00000 0.00000 RG
0 J
1.45000 M
newpath
108.778 1319.69 m
108.200 1319.66 106.825 1319.66 106.184 1319.66  c
105.559 1319.66 104.168 1319.66 103.606 1319.69  c
103.606 1319.08 l
105.418 1319.08 l
105.418 1312.36 l
104.637 1312.61 103.934 1312.61 103.715 1312.61  c
103.465 1312.61 l
103.465 1312.00 l
103.715 1312.00 l
103.997 1312.00 105.340 1312.00 106.340 1311.27  c
106.450 1311.18 106.481 1311.18 106.622 1311.18  c
106.965 1311.18 106.965 1311.30 106.965 1311.60  c
106.965 1319.08 l
108.778 1319.08 l
h
f
2 J
10.0000 M
1.00000 1.00000 1.00000 RG
0 J
1.45000 M
0.00000 0.00000 0.00000 RG
newpath
121.089 1315.81 m
121.089 1324.09 114.373 1330.81 106.089 1330.81  c
97.8049 1330.81 91.0892 1324.09 91.0892 1315.81  c
91.0892 1307.53 97.8049 1300.81 106.089 1300.81  c
114.373 1300.81 121.089 1307.53 121.089 1315.81  c
h
S
2 J
10.0000 M
1.00000 1.00000 1.00000 RG
newpath
346.449 1457.00 m
346.449 1465.28 339.733 1472.00 331.449 1472.00  c
323.165 1472.00 316.449 1465.28 316.449 1457.00  c
316.449 1448.71 323.165 1442.00 331.449 1442.00  c
339.733 1442.00 346.449 1448.71 346.449 1457.00  c
h
f
0.00000 0.00000 0.00000 RG
0 J
1.45000 M
newpath
334.966 1452.51 m
334.966 1452.96 334.966 1452.99 334.841 1453.13  c
332.825 1455.47 l
332.372 1456.01 332.091 1456.77 331.982 1457.65  c
331.888 1458.26 331.857 1458.88 331.857 1459.51  c
331.857 1460.10 l
331.857 1460.96 331.232 1461.02 331.028 1461.02  c
330.950 1461.02 330.232 1461.02 330.232 1460.12  c
330.232 1458.19 331.153 1456.43 332.403 1454.97  c
332.638 1454.69 332.888 1454.41 333.122 1454.13  c
330.935 1454.13 l
330.700 1454.13 329.653 1454.13 329.513 1454.21  c
329.450 1454.24 329.294 1454.41 329.153 1455.40  c
328.544 1455.40 l
328.997 1452.10 l
329.607 1452.10 l
329.638 1452.22 329.653 1452.33 329.919 1452.40  c
330.107 1452.44 332.013 1452.51 332.325 1452.51  c
h
f
2 J
10.0000 M
1.00000 1.00000 1.00000 RG
0 J
1.45000 M
0.00000 0.00000 0.00000 RG
newpath
346.449 1457.00 m
346.449 1465.28 339.733 1472.00 331.449 1472.00  c
323.165 1472.00 316.449 1465.28 316.449 1457.00  c
316.449 1448.71 323.165 1442.00 331.449 1442.00  c
339.733 1442.00 346.449 1448.71 346.449 1457.00  c
h
S
2 J
10.0000 M
1.00000 1.00000 1.00000 RG
newpath
211.233 1457.00 m
211.233 1465.28 204.517 1472.00 196.233 1472.00  c
187.949 1472.00 181.233 1465.28 181.233 1457.00  c
181.233 1448.71 187.949 1442.00 196.233 1442.00  c
204.517 1442.00 211.233 1448.71 211.233 1457.00  c
h
f
0.00000 0.00000 0.00000 RG
0 J
1.45000 M
newpath
199.344 1456.60 m
199.344 1459.93 197.297 1461.02 195.609 1461.02  c
194.156 1461.02 193.500 1460.29 193.500 1459.40  c
193.500 1458.91 193.812 1458.57 194.312 1458.57  c
194.828 1458.57 195.125 1458.93 195.125 1459.37  c
195.125 1459.96 194.641 1460.15 194.484 1460.18  c
194.875 1460.44 195.344 1460.46 195.578 1460.46  c
196.484 1460.46 197.031 1459.88 197.266 1459.37  c
197.453 1458.93 197.562 1458.16 197.562 1457.21  c
197.562 1456.93 l
197.078 1457.83 196.469 1457.93 196.016 1457.93  c
194.406 1457.93 193.125 1456.96 193.125 1455.16  c
193.125 1453.41 194.406 1452.37 196.250 1452.37  c
199.344 1452.37 199.344 1455.74 199.344 1456.60  c
h
197.562 1455.32 m
197.562 1454.88 197.562 1454.12 197.406 1453.69  c
197.344 1453.57 197.047 1452.87 196.281 1452.87  c
194.891 1452.87 194.891 1453.91 194.891 1455.19  c
194.891 1456.49 194.891 1457.46 196.125 1457.46  c
197.219 1457.46 197.562 1456.13 197.562 1455.32  c
h
f
2 J
10.0000 M
1.00000 1.00000 1.00000 RG
0 J
1.45000 M
0.00000 0.00000 0.00000 RG
newpath
211.233 1457.00 m
211.233 1465.28 204.517 1472.00 196.233 1472.00  c
187.949 1472.00 181.233 1465.28 181.233 1457.00  c
181.233 1448.71 187.949 1442.00 196.233 1442.00  c
204.517 1442.00 211.233 1448.71 211.233 1457.00  c
h
S
2 J
10.0000 M
1.00000 1.00000 1.00000 RG
newpath
436.593 1339.89 m
436.593 1348.17 429.877 1354.89 421.593 1354.89  c
413.309 1354.89 406.593 1348.17 406.593 1339.89  c
406.593 1331.60 413.309 1324.89 421.593 1324.89  c
429.877 1324.89 436.593 1331.60 436.593 1339.89  c
h
f
0.00000 0.00000 0.00000 RG
0 J
1.45000 M
newpath
424.579 1340.88 m
424.172 1343.77 l
418.594 1343.77 l
418.594 1343.54 l
418.594 1343.27 418.594 1343.26 418.766 1343.10  c
421.376 1340.43 l
422.297 1339.51 422.782 1338.63 422.782 1337.72  c
422.782 1336.76 422.188 1335.86 421.079 1335.86  c
420.610 1335.86 420.110 1336.01 419.735 1336.32  c
419.922 1336.38 420.469 1336.58 420.469 1337.26  c
420.469 1337.91 419.954 1338.19 419.532 1338.19  c
419.219 1338.19 418.594 1338.01 418.594 1337.24  c
418.594 1336.07 419.829 1335.26 421.391 1335.26  c
423.235 1335.26 424.579 1336.22 424.579 1337.71  c
424.579 1338.94 423.751 1339.55 422.266 1340.65  c
421.688 1341.08 421.001 1341.65 420.391 1342.15  c
422.313 1342.15 l
422.516 1342.15 423.485 1342.15 423.626 1342.07  c
423.813 1341.97 423.938 1341.15 423.969 1340.88  c
h
f
2 J
10.0000 M
1.00000 1.00000 1.00000 RG
0 J
1.45000 M
0.00000 0.00000 0.00000 RG
newpath
436.593 1339.89 m
436.593 1348.17 429.877 1354.89 421.593 1354.89  c
413.309 1354.89 406.593 1348.17 406.593 1339.89  c
406.593 1331.60 413.309 1324.89 421.593 1324.89  c
429.877 1324.89 436.593 1331.60 436.593 1339.89  c
h
S
2 J
10.0000 M
1.00000 1.00000 1.00000 RG
newpath
368.257 1354.44 m
368.257 1358.06 365.209 1360.99 361.449 1360.99  c
357.689 1360.99 354.641 1358.06 354.641 1354.44  c
354.641 1350.82 357.689 1347.89 361.449 1347.89  c
365.209 1347.89 368.257 1350.82 368.257 1354.44  c
h
f
0.00000 0.00000 0.00000 RG
0 J
1.45000 M
newpath
364.966 1349.95 m
364.966 1350.40 364.966 1350.43 364.841 1350.57  c
362.825 1352.92 l
362.372 1353.45 362.091 1354.21 361.982 1355.09  c
361.888 1355.70 361.857 1356.32 361.857 1356.95  c
361.857 1357.54 l
361.857 1358.40 361.232 1358.46 361.028 1358.46  c
360.950 1358.46 360.232 1358.46 360.232 1357.56  c
360.232 1355.64 361.153 1353.87 362.403 1352.42  c
362.638 1352.14 362.888 1351.85 363.122 1351.57  c
360.935 1351.57 l
360.700 1351.57 359.653 1351.57 359.513 1351.65  c
359.450 1351.68 359.294 1351.85 359.153 1352.84  c
358.544 1352.84 l
358.997 1349.54 l
359.607 1349.54 l
359.638 1349.67 359.653 1349.78 359.919 1349.84  c
360.107 1349.89 362.013 1349.95 362.325 1349.95  c
h
f
2 J
10.0000 M
1.00000 1.00000 1.00000 RG
0.00000 0.00000 0.00000 RG
1.00000 1.00000 1.00000 RG
newpath
428.401 1315.26 m
428.401 1318.88 425.353 1321.82 421.593 1321.82  c
417.833 1321.82 414.785 1318.88 414.785 1315.26  c
414.785 1311.65 417.833 1308.71 421.593 1308.71  c
425.353 1308.71 428.401 1311.65 428.401 1315.26  c
h
f
0.00000 0.00000 0.00000 RG
0 J
1.45000 M
newpath
424.704 1316.71 m
424.704 1318.15 423.641 1319.29 421.563 1319.29  c
419.891 1319.29 418.485 1318.63 418.485 1317.05  c
418.485 1316.08 419.063 1315.35 420.141 1314.87  c
419.141 1314.30 418.907 1313.47 418.907 1312.91  c
418.907 1311.66 419.813 1310.63 421.610 1310.63  c
423.094 1310.63 424.282 1311.21 424.282 1312.54  c
424.282 1313.30 423.876 1313.87 422.969 1314.33  c
423.610 1314.69 424.704 1315.32 424.704 1316.71  c
h
423.313 1312.55 m
423.313 1311.68 422.657 1311.13 421.563 1311.13  c
421.047 1311.13 419.876 1311.22 419.876 1312.15  c
419.876 1312.58 420.235 1312.80 420.454 1312.91  c
422.391 1314.01 l
422.969 1313.63 423.313 1313.19 423.313 1312.55  c
h
423.579 1317.43 m
423.579 1316.80 423.094 1316.54 422.532 1316.21  c
420.751 1315.22 l
420.297 1315.47 419.594 1316.04 419.594 1317.05  c
419.594 1318.07 420.344 1318.72 421.610 1318.72  c
422.360 1318.72 423.579 1318.52 423.579 1317.43  c
h
f
2 J
10.0000 M
1.00000 1.00000 1.00000 RG
0.00000 0.00000 0.00000 RG
1.00000 1.00000 1.00000 RG
newpath
262.690 1409.53 m
262.690 1413.15 259.642 1416.08 255.882 1416.08  c
252.122 1416.08 249.074 1413.15 249.074 1409.53  c
249.074 1405.91 252.122 1402.98 255.882 1402.98  c
259.642 1402.98 262.690 1405.91 262.690 1409.53  c
h
f
0.00000 0.00000 0.00000 RG
0 J
1.45000 M
newpath
259.196 1413.41 m
258.743 1413.38 257.602 1413.38 257.087 1413.38  c
256.524 1413.38 255.352 1413.38 254.852 1413.41  c
254.852 1412.80 l
256.305 1412.80 l
256.305 1411.38 l
252.571 1411.38 l
252.571 1410.77 l
257.102 1405.10 l
257.258 1404.90 257.274 1404.88 257.540 1404.88  c
257.915 1404.88 257.930 1404.94 257.930 1405.30  c
257.930 1410.77 l
259.196 1410.77 l
259.196 1411.38 l
257.930 1411.38 l
257.930 1412.80 l
259.196 1412.80 l
h
256.446 1410.77 m
256.446 1406.74 l
253.243 1410.77 l
h
f
2 J
10.0000 M
1.00000 1.00000 1.00000 RG
0.00000 0.00000 0.00000 RG
1.00000 1.00000 1.00000 RG
newpath
518.545 1346.46 m
518.545 1350.07 515.497 1353.01 511.737 1353.01  c
507.977 1353.01 504.929 1350.07 504.929 1346.46  c
504.929 1342.84 507.977 1339.90 511.737 1339.90  c
515.497 1339.90 518.545 1342.84 518.545 1346.46  c
h
f
0.00000 0.00000 0.00000 RG
0 J
1.45000 M
newpath
510.693 1350.34 m
510.114 1350.31 508.739 1350.31 508.099 1350.31  c
507.474 1350.31 506.083 1350.31 505.521 1350.34  c
505.521 1349.73 l
507.333 1349.73 l
507.333 1343.01 l
506.552 1343.26 505.849 1343.26 505.630 1343.26  c
505.380 1343.26 l
505.380 1342.65 l
505.630 1342.65 l
505.911 1342.65 507.255 1342.65 508.255 1341.92  c
508.364 1341.82 508.396 1341.82 508.536 1341.82  c
508.880 1341.82 508.880 1341.95 508.880 1342.25  c
508.880 1349.73 l
510.693 1349.73 l
h
518.612 1346.20 m
518.612 1347.50 518.581 1350.48 515.472 1350.48  c
512.331 1350.48 512.315 1347.48 512.315 1346.20  c
512.315 1344.92 512.331 1341.82 515.472 1341.82  c
518.597 1341.82 518.612 1344.93 518.612 1346.20  c
h
516.956 1346.04 m
516.956 1344.96 516.956 1343.59 516.722 1343.10  c
516.487 1342.54 515.956 1342.29 515.472 1342.29  c
515.159 1342.29 514.253 1342.42 514.097 1343.57  c
513.987 1344.26 513.987 1345.10 513.987 1346.04  c
513.987 1346.75 513.987 1348.10 514.097 1348.78  c
514.268 1349.73 515.003 1350.01 515.472 1350.01  c
515.862 1350.01 516.675 1349.84 516.862 1348.62  c
516.956 1347.95 516.956 1346.76 516.956 1346.04  c
h
f
2 J
10.0000 M
1.00000 1.00000 1.00000 RG
0.00000 0.00000 0.00000 RG
1.00000 1.00000 1.00000 RG
newpath
98.6252 1299.06 m
98.6252 1302.68 95.5771 1305.61 91.8172 1305.61  c
88.0572 1305.61 85.0092 1302.68 85.0092 1299.06  c
85.0092 1295.44 88.0572 1292.51 91.8172 1292.51  c
95.5771 1292.51 98.6252 1295.44 98.6252 1299.06  c
h
f
0.00000 0.00000 0.00000 RG
0 J
1.45000 M
newpath
94.5058 1302.94 m
93.9277 1302.91 92.5527 1302.91 91.9121 1302.91  c
91.2871 1302.91 89.8964 1302.91 89.3339 1302.94  c
89.3339 1302.33 l
91.1464 1302.33 l
91.1464 1295.61 l
90.3652 1295.86 89.6621 1295.86 89.4433 1295.86  c
89.1933 1295.86 l
89.1933 1295.25 l
89.4433 1295.25 l
89.7246 1295.25 91.0683 1295.25 92.0683 1294.52  c
92.1777 1294.42 92.2089 1294.42 92.3496 1294.42  c
92.6933 1294.42 92.6933 1294.55 92.6933 1294.85  c
92.6933 1302.33 l
94.5058 1302.33 l
h
f
2 J
10.0000 M
1.00000 1.00000 1.00000 RG
0.00000 0.00000 0.00000 RG
1.00000 1.00000 1.00000 RG
newpath
152.010 1379.53 m
152.010 1383.15 148.962 1386.08 145.202 1386.08  c
141.442 1386.08 138.394 1383.15 138.394 1379.53  c
138.394 1375.91 141.442 1372.98 145.202 1372.98  c
148.962 1372.98 152.010 1375.91 152.010 1379.53  c
h
f
0.00000 0.00000 0.00000 RG
0 J
1.45000 M
newpath
148.187 1380.52 m
147.781 1383.41 l
142.203 1383.41 l
142.203 1383.18 l
142.203 1382.91 142.203 1382.90 142.375 1382.74  c
144.984 1380.07 l
145.906 1379.15 146.390 1378.27 146.390 1377.36  c
146.390 1376.40 145.797 1375.50 144.687 1375.50  c
144.219 1375.50 143.719 1375.65 143.344 1375.96  c
143.531 1376.02 144.078 1376.22 144.078 1376.90  c
144.078 1377.55 143.562 1377.83 143.140 1377.83  c
142.828 1377.83 142.203 1377.65 142.203 1376.88  c
142.203 1375.71 143.437 1374.90 145.000 1374.90  c
146.844 1374.90 148.187 1375.86 148.187 1377.35  c
148.187 1378.58 147.359 1379.19 145.875 1380.29  c
145.297 1380.72 144.609 1381.29 144.000 1381.79  c
145.922 1381.79 l
146.125 1381.79 147.094 1381.79 147.234 1381.71  c
147.422 1381.61 147.547 1380.79 147.578 1380.52  c
h
f
2 J
10.0000 M
1.00000 1.00000 1.00000 RG
0.00000 0.00000 0.00000 RG
1.00000 1.00000 1.00000 RG
newpath
199.197 1432.85 m
199.197 1436.47 196.149 1439.40 192.389 1439.40  c
188.629 1439.40 185.581 1436.47 185.581 1432.85  c
185.581 1429.23 188.629 1426.30 192.389 1426.30  c
196.149 1426.30 199.197 1429.23 199.197 1432.85  c
h
f
0.00000 0.00000 0.00000 RG
0 J
1.45000 M
newpath
195.499 1434.39 m
195.499 1435.58 194.546 1436.87 192.218 1436.87  c
190.546 1436.87 189.281 1436.09 189.281 1434.92  c
189.281 1434.27 189.734 1433.91 190.281 1433.91  c
190.859 1433.91 191.265 1434.31 191.265 1434.91  c
191.265 1435.44 190.937 1435.77 190.515 1435.87  c
191.140 1436.27 191.812 1436.31 192.156 1436.31  c
193.499 1436.31 193.499 1435.00 193.499 1434.37  c
193.499 1433.72 193.499 1432.44 192.093 1432.44  c
191.515 1432.44 l
191.281 1432.44 191.156 1432.44 191.156 1432.20  c
191.156 1432.12 191.171 1432.00 191.312 1431.98  c
191.374 1431.97 191.406 1431.97 191.937 1431.94  c
193.281 1431.86 193.296 1430.16 193.296 1429.98  c
193.296 1429.56 193.265 1428.72 192.171 1428.72  c
191.781 1428.72 191.203 1428.83 190.749 1429.19  c
190.796 1429.20 191.499 1429.34 191.499 1430.11  c
191.499 1430.58 191.171 1431.00 190.593 1431.00  c
190.093 1431.00 189.703 1430.66 189.703 1430.09  c
189.703 1429.05 190.703 1428.22 192.249 1428.22  c
194.093 1428.22 195.078 1429.03 195.078 1430.03  c
195.078 1431.14 194.124 1431.89 193.234 1432.16  c
195.124 1432.56 195.499 1433.67 195.499 1434.39  c
h
f
2 J
10.0000 M
1.00000 1.00000 1.00000 RG
0.00000 0.00000 0.00000 RG
1.00000 1.00000 1.00000 RG
newpath
484.228 1379.53 m
484.228 1383.15 481.180 1386.08 477.420 1386.08  c
473.660 1386.08 470.612 1383.15 470.612 1379.53  c
470.612 1375.91 473.660 1372.98 477.420 1372.98  c
481.180 1372.98 484.228 1375.91 484.228 1379.53  c
h
f
0.00000 0.00000 0.00000 RG
0 J
1.45000 M
newpath
480.530 1379.13 m
480.530 1382.46 478.483 1383.55 476.796 1383.55  c
475.343 1383.55 474.686 1382.82 474.686 1381.93  c
474.686 1381.44 474.999 1381.10 475.499 1381.10  c
476.014 1381.10 476.311 1381.46 476.311 1381.90  c
476.311 1382.49 475.827 1382.68 475.671 1382.71  c
476.061 1382.97 476.530 1382.99 476.764 1382.99  c
477.671 1382.99 478.218 1382.41 478.452 1381.90  c
478.639 1381.46 478.749 1380.69 478.749 1379.74  c
478.749 1379.46 l
478.264 1380.36 477.655 1380.46 477.202 1380.46  c
475.593 1380.46 474.311 1379.49 474.311 1377.69  c
474.311 1375.94 475.593 1374.90 477.436 1374.90  c
480.530 1374.90 480.530 1378.27 480.530 1379.13  c
h
478.749 1377.85 m
478.749 1377.41 478.749 1376.65 478.593 1376.22  c
478.530 1376.10 478.233 1375.40 477.468 1375.40  c
476.077 1375.40 476.077 1376.44 476.077 1377.72  c
476.077 1379.02 476.077 1379.99 477.311 1379.99  c
478.405 1379.99 478.749 1378.66 478.749 1377.85  c
h
f
2 J
10.0000 M
1.00000 1.00000 1.00000 RG
0.00000 0.00000 0.00000 RG
1.00000 1.00000 1.00000 RG
newpath
341.690 1430.33 m
341.690 1433.95 338.642 1436.88 334.882 1436.88  c
331.122 1436.88 328.074 1433.95 328.074 1430.33  c
328.074 1426.71 331.122 1423.77 334.882 1423.77  c
338.642 1423.77 341.690 1426.71 341.690 1430.33  c
h
f
0.00000 0.00000 0.00000 RG
0 J
1.45000 M
newpath
337.993 1431.54 m
337.993 1433.29 336.743 1434.35 334.930 1434.35  c
334.024 1434.35 333.040 1434.04 332.430 1433.05  c
331.883 1432.16 331.774 1431.12 331.774 1430.08  c
331.774 1426.82 333.915 1425.69 335.680 1425.69  c
337.071 1425.69 337.618 1426.51 337.618 1427.32  c
337.618 1427.82 337.305 1428.15 336.790 1428.15  c
336.290 1428.15 335.993 1427.79 335.993 1427.35  c
335.993 1426.96 336.212 1426.60 336.680 1426.54  c
336.383 1426.24 335.946 1426.19 335.712 1426.19  c
334.915 1426.19 334.212 1426.66 333.899 1427.29  c
333.821 1427.47 333.540 1428.04 333.540 1429.52  c
333.540 1429.76 l
334.087 1428.77 334.821 1428.77 335.102 1428.77  c
336.680 1428.77 337.993 1429.72 337.993 1431.54  c
h
336.212 1431.52 m
336.212 1430.22 336.212 1429.24 334.977 1429.24  c
334.274 1429.24 333.571 1429.85 333.571 1431.47  c
333.571 1431.71 333.571 1432.66 333.774 1433.08  c
333.883 1433.29 334.227 1433.79 334.899 1433.79  c
336.212 1433.79 336.212 1432.83 336.212 1431.52  c
h
f
2 J
10.0000 M
1.00000 1.00000 1.00000 RG
0.00000 0.00000 0.00000 RG
1.00000 1.00000 1.00000 RG
newpath
297.978 1487.00 m
297.978 1495.28 291.263 1502.00 282.978 1502.00  c
274.694 1502.00 267.978 1495.28 267.978 1487.00  c
267.978 1478.71 274.694 1472.00 282.978 1472.00  c
291.263 1472.00 297.978 1478.71 297.978 1487.00  c
h
f
0.00000 0.00000 0.00000 RG
0 J
1.45000 M
newpath
281.934 1490.88 m
281.356 1490.85 279.981 1490.85 279.340 1490.85  c
278.715 1490.85 277.324 1490.85 276.762 1490.88  c
276.762 1490.27 l
278.574 1490.27 l
278.574 1483.55 l
277.793 1483.80 277.090 1483.80 276.871 1483.80  c
276.621 1483.80 l
276.621 1483.19 l
276.871 1483.19 l
277.152 1483.19 278.496 1483.19 279.496 1482.46  c
279.606 1482.37 279.637 1482.37 279.777 1482.37  c
280.121 1482.37 280.121 1482.49 280.121 1482.79  c
280.121 1490.27 l
281.934 1490.27 l
h
289.853 1486.74 m
289.853 1488.04 289.822 1491.02 286.713 1491.02  c
283.572 1491.02 283.557 1488.02 283.557 1486.74  c
283.557 1485.46 283.572 1482.37 286.713 1482.37  c
289.838 1482.37 289.853 1485.47 289.853 1486.74  c
h
288.197 1486.58 m
288.197 1485.51 288.197 1484.13 287.963 1483.65  c
287.728 1483.08 287.197 1482.83 286.713 1482.83  c
286.400 1482.83 285.494 1482.96 285.338 1484.12  c
285.228 1484.80 285.228 1485.65 285.228 1486.58  c
285.228 1487.29 285.228 1488.65 285.338 1489.32  c
285.510 1490.27 286.244 1490.55 286.713 1490.55  c
287.103 1490.55 287.916 1490.38 288.103 1489.16  c
288.197 1488.49 288.197 1487.30 288.197 1486.58  c
h
f
2 J
10.0000 M
1.00000 1.00000 1.00000 RG
0 J
1.45000 M
0.00000 0.00000 0.00000 RG
newpath
297.978 1487.00 m
297.978 1495.28 291.263 1502.00 282.978 1502.00  c
274.694 1502.00 267.978 1495.28 267.978 1487.00  c
267.978 1478.71 274.694 1472.00 282.978 1472.00  c
291.263 1472.00 297.978 1478.71 297.978 1487.00  c
h
S
2 J
10.0000 M
1.00000 1.00000 1.00000 RG
newpath
298.074 1465.45 m
298.074 1469.07 295.026 1472.00 291.266 1472.00  c
287.506 1472.00 284.458 1469.07 284.458 1465.45  c
284.458 1461.83 287.506 1458.89 291.266 1458.89  c
295.026 1458.89 298.074 1461.83 298.074 1465.45  c
h
f
0.00000 0.00000 0.00000 RG
0 J
1.45000 M
newpath
294.252 1466.72 m
294.252 1468.30 292.986 1469.47 290.892 1469.47  c
289.283 1469.47 288.267 1468.36 288.267 1467.27  c
288.267 1466.47 288.955 1466.34 289.142 1466.34  c
289.455 1466.34 290.017 1466.55 290.017 1467.24  c
290.017 1467.77 289.642 1468.08 289.174 1468.11  c
289.721 1468.84 290.533 1468.91 290.846 1468.91  c
292.408 1468.91 292.408 1467.61 292.408 1466.66  c
292.408 1465.63 292.408 1464.49 291.252 1464.49  c
290.721 1464.49 290.017 1464.61 289.502 1465.20  c
289.424 1465.31 289.392 1465.36 289.221 1465.36  c
288.939 1465.36 288.939 1465.19 288.939 1464.95  c
288.939 1461.17 l
288.939 1460.95 288.939 1460.81 289.127 1460.81  c
289.158 1460.81 289.174 1460.83 289.283 1460.86  c
289.627 1460.99 290.314 1461.24 291.299 1461.24  c
291.861 1461.24 292.549 1461.16 293.299 1460.86  c
293.439 1460.81 293.455 1460.81 293.486 1460.81  c
293.642 1460.81 293.674 1460.95 293.674 1461.05  c
293.674 1461.38 292.471 1462.84 290.580 1462.84  c
290.127 1462.84 289.986 1462.81 289.627 1462.75  c
289.627 1464.47 l
290.236 1464.05 290.924 1464.02 291.299 1464.02  c
293.221 1464.02 294.252 1465.22 294.252 1466.72  c
h
f
2 J
10.0000 M
1.00000 1.00000 1.00000 RG
0.00000 0.00000 0.00000 RG
0 J
1.45000 M
newpath
586.881 1308.71 m
600.497 1308.71 l
600.497 1321.82 l
586.881 1321.82 l
586.881 1308.71 l
h
S
2 J
10.0000 M
0 J
1.45000 M
newpath
354.641 1480.45 m
368.257 1480.45 l
368.257 1493.55 l
354.641 1493.55 l
354.641 1480.45 l
h
S
2 J
10.0000 M
0 J
1.45000 M
newpath
94.7778 1421.78 m
108.394 1421.78 l
108.394 1434.88 l
94.7778 1434.88 l
94.7778 1421.78 l
h
S
2 J
10.0000 M
0 J
1.45000 M
newpath
539.247 1394.53 m
552.863 1394.53 l
552.863 1407.63 l
539.247 1407.63 l
539.247 1394.53 l
h
S
2 J
10.0000 M
0 J
1.45000 M
newpath
426.996 1427.59 m
440.612 1427.59 l
440.612 1440.70 l
426.996 1440.70 l
426.996 1427.59 l
h
S
2 J
10.0000 M
0 J
1.45000 M
newpath
495.631 1427.59 m
509.247 1427.59 l
509.247 1440.70 l
495.631 1440.70 l
495.631 1427.59 l
h
S
2 J
10.0000 M
0 J
1.45000 M
newpath
402.238 1394.85 m
415.854 1394.85 l
415.854 1407.96 l
402.238 1407.96 l
402.238 1394.85 l
h
S
2 J
10.0000 M
0 J
1.45000 M
newpath
55.5316 1330.81 m
69.1476 1330.81 l
69.1476 1343.91 l
55.5316 1343.91 l
55.5316 1330.81 l
h
S
2 J
10.0000 M
0 J
1.45000 M
newpath
242.390 1510.45 m
256.006 1510.45 l
256.006 1523.55 l
242.390 1523.55 l
242.390 1510.45 l
h
S
2 J
10.0000 M
0 J
1.45000 M
newpath
311.025 1510.45 m
324.641 1510.45 l
324.641 1523.55 l
311.025 1523.55 l
311.025 1510.45 l
h
S
2 J
10.0000 M
0 J
1.45000 M
newpath
155.727 1480.45 m
169.343 1480.45 l
169.343 1493.55 l
155.727 1493.55 l
155.727 1480.45 l
h
S
2 J
10.0000 M
0 J
1.45000 M
newpath
224.362 1480.45 m
237.978 1480.45 l
237.978 1493.55 l
224.362 1493.55 l
224.362 1480.45 l
h
S
2 J
10.0000 M
2.00000 w
0 J
1.45000 M
newpath
165.577 1405.23 m
226.889 1422.85 l
S
1.00000 w
2 J
10.0000 M
2.00000 w
0 J
1.45000 M
newpath
479.152 1392.77 m
499.250 1379.39 l
S
1.00000 w
2 J
10.0000 M
2.00000 w
0 J
1.45000 M
newpath
166.030 1399.10 m
361.652 1373.06 l
S
1.00000 w
2 J
10.0000 M
2.00000 w
0 J
1.45000 M
newpath
121.066 1314.97 m
541.833 1291.38 l
S
1.00000 w
2 J
10.0000 M
2.00000 w
0 J
1.45000 M
newpath
317.217 1452.26 m
255.538 1431.74 l
S
1.00000 w
2 J
10.0000 M
2.00000 w
0 J
1.45000 M
newpath
208.720 1448.69 m
228.818 1435.31 l
S
1.00000 w
2 J
10.0000 M
2.00000 w
0 J
1.45000 M
newpath
121.046 1316.95 m
406.637 1338.75 l
S
1.00000 w
2 J
10.0000 M
2.00000 w
0 J
1.45000 M
newpath
497.562 1366.18 m
435.769 1344.79 l
S
1.00000 w
2 J
10.0000 M
2.00000 w
0 J
1.45000 M
newpath
388.856 1362.54 m
409.259 1348.42 l
S
1.00000 w
2 J
10.0000 M
2.00000 w
0 J
1.45000 M
newpath
295.733 1479.10 m
318.695 1464.89 l
S
1.00000 w
2 J
10.0000 M
0 J
1.45000 M
newpath
569.268 1298.89 m
586.881 1310.70 l
S
2 J
10.0000 M
0 J
1.45000 M
newpath
342.056 1467.61 m
354.897 1480.45 l
S
2 J
10.0000 M
0 J
1.45000 M
newpath
108.394 1424.59 m
138.016 1408.31 l
S
2 J
10.0000 M
0 J
1.45000 M
newpath
523.030 1380.95 m
539.247 1395.13 l
S
2 J
10.0000 M
0 J
1.45000 M
newpath
456.091 1411.72 m
440.315 1427.59 l
S
2 J
10.0000 M
0 J
1.45000 M
newpath
477.681 1411.26 m
495.631 1427.85 l
S
2 J
10.0000 M
0 J
1.45000 M
newpath
387.493 1381.31 m
402.238 1395.06 l
S
2 J
10.0000 M
0 J
1.45000 M
newpath
69.1476 1334.01 m
92.6333 1322.44 l
S
2 J
10.0000 M
0 J
1.45000 M
newpath
256.006 1510.95 m
271.763 1496.96 l
S
2 J
10.0000 M
0 J
1.45000 M
newpath
294.347 1496.78 m
311.025 1511.14 l
S
2 J
10.0000 M
0 J
1.45000 M
newpath
169.343 1480.94 m
185.030 1466.97 l
S
2 J
10.0000 M
0 J
1.45000 M
newpath
207.613 1466.77 m
224.362 1481.15 l
S
2 J
10.0000 M
Q
[ 1.00000 0.00000 0.00000 1.00000 0.00000 0.00000 ] defaultmatrix matrix concatmatrix setmatrix
cliprestore

%%Trailer
%%EOF
