%!PS-Adobe-3.0 EPSF-3.0
%%DocumentNeededResources: font Times-Roman
%%+ font Times-Bold
%%+ font Times-Italic
%%+ font Times-BoldItalic
%%+ font Symbol
%%Title: R Graphics Output
%%Creator: R Software
%%Pages: (atend)
%%BoundingBox: 18 144 594 648
%%EndComments
%%BeginProlog
/bp  { gs sRGB gs } def
% begin .ps.prolog
/gs  { gsave } bind def
/gr  { grestore } bind def
/ep  { showpage gr gr } bind def
/m   { moveto } bind def
/l  { rlineto } bind def
/np  { newpath } bind def
/cp  { closepath } bind def
/f   { fill } bind def
/o   { stroke } bind def
/c   { newpath 0 360 arc } bind def
/r   { 4 2 roll moveto 1 copy 3 -1 roll exch 0 exch rlineto 0 rlineto -1 mul 0 exch rlineto closepath } bind def
/p1  { stroke } bind def
/p2  { gsave bg fill grestore newpath } bind def
/p3  { gsave bg fill grestore stroke } bind def
/p6  { gsave bg eofill grestore newpath } bind def
/p7  { gsave bg eofill grestore stroke } bind def
/t   { 5 -2 roll moveto gsave rotate
       1 index stringwidth pop
       mul neg 0 rmoveto show grestore } bind def
/ta  { 4 -2 roll moveto gsave rotate show } bind def
/tb  { 2 -1 roll 0 rmoveto show } bind def
/cl  { grestore gsave newpath 3 index 3 index moveto 1 index
       4 -1 roll lineto  exch 1 index lineto lineto
       closepath clip newpath } bind def
/rgb { setrgbcolor } bind def
/s   { scalefont setfont } bind def
% end   .ps.prolog
/sRGB { [ /CIEBasedABC
          << /DecodeLMN
               [ { dup 0.03928 le
                        {12.92321 div}
                        {0.055 add 1.055 div 2.4 exp }
                     ifelse
                 } bind dup dup
               ]
             /MatrixLMN [0.412457 0.212673 0.019334
                         0.357576 0.715152 0.119192
                         0.180437 0.072175 0.950301]
             /WhitePoint [0.9505 1.0 1.0890]
           >>
         ] setcolorspace } bind def
/srgb { setcolor } bind def
%%IncludeResource: font Times-Roman
/Times-Roman findfont
dup length dict begin
  {1 index /FID ne {def} {pop pop} ifelse} forall
  /Encoding ISOLatin1Encoding def
  currentdict
  end
/Font1 exch definefont pop
%%IncludeResource: font Times-Bold
/Times-Bold findfont
dup length dict begin
  {1 index /FID ne {def} {pop pop} ifelse} forall
  /Encoding ISOLatin1Encoding def
  currentdict
  end
/Font2 exch definefont pop
%%IncludeResource: font Times-Italic
/Times-Italic findfont
dup length dict begin
  {1 index /FID ne {def} {pop pop} ifelse} forall
  /Encoding ISOLatin1Encoding def
  currentdict
  end
/Font3 exch definefont pop
%%IncludeResource: font Times-BoldItalic
/Times-BoldItalic findfont
dup length dict begin
  {1 index /FID ne {def} {pop pop} ifelse} forall
  /Encoding ISOLatin1Encoding def
  currentdict
  end
/Font4 exch definefont pop
%%IncludeResource: font Symbol
/Symbol findfont
dup length dict begin
  {1 index /FID ne {def} {pop pop} ifelse} forall
  currentdict
  end
/Font5 exch definefont pop
%%EndProlog
%%Page: 1 1
bp
18.00 144.00 594.00 648.00 cl
/bg { 0.3020 0.3020 0.3020 srgb } def
0 0 0 srgb
0.75 setlinewidth
[] 0 setdash
1 setlinecap
1 setlinejoin
10.00 setmiterlimit
97.57 205.95 25.12 35.91 r p3
/bg { 0.6824 0.6824 0.6824 srgb } def
122.70 205.95 25.12 16.65 r p3
/bg { 0.9020 0.9020 0.9020 srgb } def
147.82 205.95 25.12 37.41 r p3
/bg { 0.3020 0.3020 0.3020 srgb } def
198.06 205.95 25.12 57.98 r p3
/bg { 0.6824 0.6824 0.6824 srgb } def
223.19 205.95 25.12 22.63 r p3
/bg { 0.9020 0.9020 0.9020 srgb } def
248.31 205.95 25.12 50.87 r p3
/bg { 0.3020 0.3020 0.3020 srgb } def
298.56 205.95 25.12 108.11 r p3
/bg { 0.6824 0.6824 0.6824 srgb } def
323.68 205.95 25.12 39.28 r p3
/bg { 0.9020 0.9020 0.9020 srgb } def
348.80 205.95 25.12 88.47 r p3
/bg { 0.3020 0.3020 0.3020 srgb } def
399.05 205.95 25.12 149.63 r p3
/bg { 0.6824 0.6824 0.6824 srgb } def
424.17 205.95 25.12 71.63 r p3
/bg { 0.9020 0.9020 0.9020 srgb } def
449.29 205.95 25.12 142.89 r p3
/bg { 0.3020 0.3020 0.3020 srgb } def
499.54 205.95 25.12 434.85 r p3
/bg { 0.6824 0.6824 0.6824 srgb } def
524.66 205.95 25.12 159.16 r p3
/bg { 0.9020 0.9020 0.9020 srgb } def
549.78 205.95 25.12 362.28 r p3
18.00 144.00 594.00 648.00 cl
/Font1 findfont 16 s
0 0 0 srgb
135.26 175.68 (wiki) .5 0 t
235.75 175.68 (prot) .5 0 t
336.24 175.68 (dna) .5 0 t
436.73 175.68 (ctree) .5 0 t
537.22 175.68 (osm) .5 0 t
18.00 144.00 594.00 648.00 cl
/Font1 findfont 16 s
0 0 0 srgb
336.24 146.88 (Datasets) .5 0 t
32.40 421.20 (Peak\(MB\)) .5 90 t
78.48 201.60 594.00 640.80 cl
0 0 0 srgb
0.75 setlinewidth
[] 0 setdash
1 setlinecap
1 setlinejoin
10.00 setmiterlimit
97.57 598.72 102.42 -92.16 r p1
/bg { 0.3020 0.3020 0.3020 srgb } def
114.85 581.44 13.82 -11.52 r p3
/bg { 0.6824 0.6824 0.6824 srgb } def
114.85 558.40 13.82 -11.52 r p3
/bg { 0.9020 0.9020 0.9020 srgb } def
114.85 535.36 13.82 -11.52 r p3
/Font1 findfont 19 s
145.96 569.39 (psta) 0 0 t
145.96 546.35 (libcds) 0 0 t
145.96 523.31 (sdsl) 0 0 t
18.00 144.00 594.00 648.00 cl
0 0 0 srgb
0.75 setlinewidth
[] 0 setdash
1 setlinecap
1 setlinejoin
10.00 setmiterlimit
np
78.48 205.95 m
0 411.47 l
o
np
78.48 205.95 m
-7.20 0 l
o
np
78.48 243.36 m
-7.20 0 l
o
np
78.48 280.76 m
-7.20 0 l
o
np
78.48 318.17 m
-7.20 0 l
o
np
78.48 355.57 m
-7.20 0 l
o
np
78.48 392.98 m
-7.20 0 l
o
np
78.48 430.39 m
-7.20 0 l
o
np
78.48 467.79 m
-7.20 0 l
o
np
78.48 505.20 m
-7.20 0 l
o
np
78.48 542.61 m
-7.20 0 l
o
np
78.48 580.01 m
-7.20 0 l
o
np
78.48 617.42 m
-7.20 0 l
o
/Font1 findfont 19 s
61.20 205.95 (0) .5 90 t
61.20 243.36 (20) .5 90 t
61.20 280.76 (40) .5 90 t
61.20 318.17 (60) .5 90 t
61.20 355.57 (80) .5 90 t
61.20 430.39 (120) .5 90 t
61.20 505.20 (160) .5 90 t
61.20 580.01 (200) .5 90 t
ep
%%Trailer
%%Pages: 1
%%EOF
