%!PS-Adobe-3.0 EPSF-3.0
%%DocumentNeededResources: font Times-Roman
%%+ font Times-Bold
%%+ font Times-Italic
%%+ font Times-BoldItalic
%%+ font Symbol
%%Title: R Graphics Output
%%Creator: R Software
%%Pages: (atend)
%%BoundingBox: 18 216 594 576
%%EndComments
%%BeginProlog
/bp  { gs sRGB gs } def
% begin .ps.prolog
/gs  { gsave } bind def
/gr  { grestore } bind def
/ep  { showpage gr gr } bind def
/m   { moveto } bind def
/l  { rlineto } bind def
/np  { newpath } bind def
/cp  { closepath } bind def
/f   { fill } bind def
/o   { stroke } bind def
/c   { newpath 0 360 arc } bind def
/r   { 4 2 roll moveto 1 copy 3 -1 roll exch 0 exch rlineto 0 rlineto -1 mul 0 exch rlineto closepath } bind def
/p1  { stroke } bind def
/p2  { gsave bg fill grestore newpath } bind def
/p3  { gsave bg fill grestore stroke } bind def
/p6  { gsave bg eofill grestore newpath } bind def
/p7  { gsave bg eofill grestore stroke } bind def
/t   { 5 -2 roll moveto gsave rotate
       1 index stringwidth pop
       mul neg 0 rmoveto show grestore } bind def
/ta  { 4 -2 roll moveto gsave rotate show } bind def
/tb  { 2 -1 roll 0 rmoveto show } bind def
/cl  { grestore gsave newpath 3 index 3 index moveto 1 index
       4 -1 roll lineto  exch 1 index lineto lineto
       closepath clip newpath } bind def
/rgb { setrgbcolor } bind def
/s   { scalefont setfont } bind def
% end   .ps.prolog
/sRGB { [ /CIEBasedABC
          << /DecodeLMN
               [ { dup 0.03928 le
                        {12.92321 div}
                        {0.055 add 1.055 div 2.4 exp }
                     ifelse
                 } bind dup dup
               ]
             /MatrixLMN [0.412457 0.212673 0.019334
                         0.357576 0.715152 0.119192
                         0.180437 0.072175 0.950301]
             /WhitePoint [0.9505 1.0 1.0890]
           >>
         ] setcolorspace } bind def
/srgb { setcolor } bind def
%%IncludeResource: font Times-Roman
/Times-Roman findfont
dup length dict begin
  {1 index /FID ne {def} {pop pop} ifelse} forall
  /Encoding ISOLatin1Encoding def
  currentdict
  end
/Font1 exch definefont pop
%%IncludeResource: font Times-Bold
/Times-Bold findfont
dup length dict begin
  {1 index /FID ne {def} {pop pop} ifelse} forall
  /Encoding ISOLatin1Encoding def
  currentdict
  end
/Font2 exch definefont pop
%%IncludeResource: font Times-Italic
/Times-Italic findfont
dup length dict begin
  {1 index /FID ne {def} {pop pop} ifelse} forall
  /Encoding ISOLatin1Encoding def
  currentdict
  end
/Font3 exch definefont pop
%%IncludeResource: font Times-BoldItalic
/Times-BoldItalic findfont
dup length dict begin
  {1 index /FID ne {def} {pop pop} ifelse} forall
  /Encoding ISOLatin1Encoding def
  currentdict
  end
/Font4 exch definefont pop
%%IncludeResource: font Symbol
/Symbol findfont
dup length dict begin
  {1 index /FID ne {def} {pop pop} ifelse} forall
  currentdict
  end
/Font5 exch definefont pop
%%EndProlog
%%Page: 1 1
bp
18.00 216.00 594.00 576.00 cl
0 0 0 srgb
0.75 setlinewidth
[] 0 setdash
1 setlinecap
1 setlinejoin
10.00 setmiterlimit
np
82.80 568.80 m
0 -295.20 l
508.32 0 l
o
18.00 216.00 594.00 576.00 cl
/Font1 findfont 24 s
0 0 0 srgb
336.96 218.88 (Number of threads) .5 0 t
36.72 421.20 (Speedup) .5 90 t
18.00 216.00 594.00 576.00 cl
0 0 0 srgb
0.75 setlinewidth
[] 0 setdash
1 setlinecap
1 setlinejoin
10.00 setmiterlimit
np
101.63 273.60 m
470.66 0 l
o
np
101.63 273.60 m
0 -7.20 l
o
np
124.04 273.60 m
0 -7.20 l
o
np
153.92 273.60 m
0 -7.20 l
o
np
183.81 273.60 m
0 -7.20 l
o
np
213.69 273.60 m
0 -7.20 l
o
np
243.57 273.60 m
0 -7.20 l
o
np
273.46 273.60 m
0 -7.20 l
o
np
303.34 273.60 m
0 -7.20 l
o
np
333.22 273.60 m
0 -7.20 l
o
np
363.11 273.60 m
0 -7.20 l
o
np
392.99 273.60 m
0 -7.20 l
o
np
422.88 273.60 m
0 -7.20 l
o
np
452.76 273.60 m
0 -7.20 l
o
np
482.64 273.60 m
0 -7.20 l
o
np
512.53 273.60 m
0 -7.20 l
o
np
542.41 273.60 m
0 -7.20 l
o
np
572.29 273.60 m
0 -7.20 l
o
/Font1 findfont 16 s
101.63 247.68 (1) .5 0 t
124.04 247.68 (4) .5 0 t
153.92 247.68 (8) .5 0 t
183.81 247.68 (12) .5 0 t
213.69 247.68 (16) .5 0 t
243.57 247.68 (20) .5 0 t
273.46 247.68 (24) .5 0 t
303.34 247.68 (28) .5 0 t
333.22 247.68 (32) .5 0 t
363.11 247.68 (36) .5 0 t
392.99 247.68 (40) .5 0 t
422.88 247.68 (44) .5 0 t
452.76 247.68 (48) .5 0 t
482.64 247.68 (52) .5 0 t
512.53 247.68 (56) .5 0 t
542.41 247.68 (60) .5 0 t
572.29 247.68 (64) .5 0 t
np
82.80 284.53 m
0 257.26 l
o
np
82.80 284.53 m
5.90 0 l
o
np
82.80 316.69 m
5.90 0 l
o
np
82.80 348.85 m
5.90 0 l
o
np
82.80 381.00 m
5.90 0 l
o
np
82.80 413.16 m
5.90 0 l
o
np
82.80 445.32 m
5.90 0 l
o
np
82.80 477.47 m
5.90 0 l
o
np
82.80 509.63 m
5.90 0 l
o
np
82.80 541.79 m
5.90 0 l
o
18.00 216.00 594.00 576.00 cl
/Font1 findfont 19 s
0 0 0 srgb
75.60 280.34 (0) 1 0 t
75.60 312.50 (4) 1 0 t
75.60 344.65 (8) 1 0 t
75.60 376.81 (12) 1 0 t
75.60 408.97 (16) 1 0 t
75.60 441.13 (20) 1 0 t
75.60 473.28 (24) 1 0 t
75.60 505.44 (28) 1 0 t
75.60 537.60 (32) 1 0 t
82.80 273.60 591.12 568.80 cl
0 0 0 srgb
0.75 setlinewidth
[] 0 setdash
1 setlinecap
1 setlinejoin
10.00 setmiterlimit
np
428.06 368.15 m
34.56 0 l
o
np
428.06 345.11 m
34.56 0 l
o
np
428.06 322.07 m
34.56 0 l
o
np
441.02 363.83 m
8.64 8.64 l
o
np
441.02 372.47 m
8.64 -8.64 l
o
np
439.23 368.15 m
12.22 0 l
o
np
445.34 362.04 m
0 12.22 l
o
/bg { 0 0 0 srgb } def
np
 445.34 351.83 m
5.82 -10.08 l
-11.64 0 l
cp p2
np
445.34 328.79 m
5.82 -10.08 l
-11.64 0 l
5.82 10.08 l
o
/Font1 findfont 19 s
479.90 361.86 (ctree25) 0 0 t
479.90 338.82 (dna) 0 0 t
479.90 315.78 (prot) 0 0 t
np
101.63 292.58 m
22.41 23.08 l
29.88 29.23 l
29.89 27.79 l
29.88 24.92 l
29.88 24.82 l
29.89 21.89 l
29.88 19.47 l
29.88 12.82 l
29.89 3.10 l
29.88 9.80 l
29.89 11.66 l
29.88 13.98 l
29.88 10.41 l
29.89 6.64 l
29.88 9.10 l
29.88 -10.43 l
o
np
97.04 287.99 m
9.18 9.18 l
o
np
97.04 297.17 m
9.18 -9.18 l
o
np
95.14 292.58 m
12.98 0 l
o
np
101.63 286.09 m
0 12.98 l
o
np
119.45 311.07 m
9.18 9.18 l
o
np
119.45 320.25 m
9.18 -9.18 l
o
np
117.55 315.66 m
12.98 0 l
o
np
124.04 309.16 m
0 12.99 l
o
np
149.33 340.30 m
9.18 9.18 l
o
np
149.33 349.48 m
9.18 -9.18 l
o
np
147.43 344.89 m
12.98 0 l
o
np
153.92 338.39 m
0 12.99 l
o
np
179.22 368.09 m
9.18 9.18 l
o
np
179.22 377.27 m
9.18 -9.18 l
o
np
177.32 372.68 m
12.98 0 l
o
np
183.81 366.19 m
0 12.99 l
o
np
209.10 393.01 m
9.18 9.18 l
o
np
209.10 402.19 m
9.18 -9.18 l
o
np
207.20 397.60 m
12.98 0 l
o
np
213.69 391.11 m
0 12.98 l
o
np
238.98 417.83 m
9.18 9.18 l
o
np
238.98 427.01 m
9.18 -9.18 l
o
np
237.08 422.42 m
12.98 0 l
o
np
243.57 415.93 m
0 12.98 l
o
np
268.87 439.72 m
9.18 9.18 l
o
np
268.87 448.90 m
9.18 -9.18 l
o
np
266.97 444.31 m
12.98 0 l
o
np
273.46 437.82 m
0 12.98 l
o
np
298.75 459.19 m
9.18 9.18 l
o
np
298.75 468.37 m
9.18 -9.18 l
o
np
296.85 463.78 m
12.98 0 l
o
np
303.34 457.29 m
0 12.98 l
o
np
328.63 472.01 m
9.18 9.18 l
o
np
328.63 481.19 m
9.18 -9.18 l
o
np
326.73 476.60 m
12.99 0 l
o
np
333.22 470.11 m
0 12.99 l
o
np
358.52 475.11 m
9.18 9.18 l
o
np
358.52 484.29 m
9.18 -9.18 l
o
np
356.62 479.70 m
12.98 0 l
o
np
363.11 473.21 m
0 12.98 l
o
np
388.40 484.91 m
9.18 9.18 l
o
np
388.40 494.09 m
9.18 -9.18 l
o
np
386.50 489.50 m
12.98 0 l
o
np
392.99 483.01 m
0 12.99 l
o
np
418.29 496.57 m
9.18 9.18 l
o
np
418.29 505.75 m
9.18 -9.18 l
o
np
416.38 501.16 m
12.99 0 l
o
np
422.88 494.67 m
0 12.99 l
o
np
448.17 510.55 m
9.18 9.18 l
o
np
448.17 519.73 m
9.18 -9.18 l
o
np
446.27 515.14 m
12.98 0 l
o
np
452.76 508.64 m
0 12.99 l
o
np
478.05 520.96 m
9.18 9.18 l
o
np
478.05 530.14 m
9.18 -9.18 l
o
np
476.15 525.55 m
12.98 0 l
o
np
482.64 519.06 m
0 12.98 l
o
np
507.94 527.60 m
9.18 9.18 l
o
np
507.94 536.78 m
9.18 -9.18 l
o
np
506.03 532.19 m
12.99 0 l
o
np
512.53 525.70 m
0 12.98 l
o
np
537.82 536.70 m
9.18 9.18 l
o
np
537.82 545.88 m
9.18 -9.18 l
o
np
535.92 541.29 m
12.98 0 l
o
np
542.41 534.80 m
0 12.98 l
o
np
567.70 526.27 m
9.18 9.18 l
o
np
567.70 535.45 m
9.18 -9.18 l
o
np
565.80 530.86 m
12.98 0 l
o
np
572.29 524.37 m
0 12.98 l
o
np
101.63 292.57 m
22.41 23.21 l
29.88 29.43 l
29.89 27.45 l
29.88 25.60 l
29.88 24.25 l
29.89 20.58 l
29.88 20.87 l
29.88 16.03 l
29.89 -4.49 l
29.88 12.20 l
29.89 12.12 l
29.88 11.61 l
29.88 11.10 l
29.89 12.94 l
29.88 7.33 l
29.88 -6.47 l
o
np
 101.63 299.71 m
6.18 -10.71 l
-12.37 0 l
cp p2
np
 124.04 322.92 m
6.18 -10.71 l
-12.36 0 l
cp p2
np
 153.92 352.35 m
6.18 -10.71 l
-12.36 0 l
cp p2
np
 183.81 379.79 m
6.18 -10.70 l
-12.37 0 l
cp p2
np
 213.69 405.40 m
6.18 -10.71 l
-12.36 0 l
cp p2
np
 243.57 429.65 m
6.19 -10.71 l
-12.37 0 l
cp p2
np
 273.46 450.23 m
6.18 -10.71 l
-12.36 0 l
cp p2
np
 303.34 471.10 m
6.18 -10.71 l
-12.36 0 l
cp p2
np
 333.22 487.13 m
6.19 -10.71 l
-12.37 0 l
cp p2
np
 363.11 482.64 m
6.18 -10.71 l
-12.36 0 l
cp p2
np
 392.99 494.84 m
6.18 -10.70 l
-12.36 0 l
cp p2
np
 422.88 506.95 m
6.18 -10.70 l
-12.37 0 l
cp p2
np
 452.76 518.57 m
6.18 -10.70 l
-12.36 0 l
cp p2
np
 482.64 529.67 m
6.18 -10.71 l
-12.36 0 l
cp p2
np
 512.53 542.61 m
6.18 -10.71 l
-12.37 0 l
cp p2
np
 542.41 549.94 m
6.18 -10.71 l
-12.36 0 l
cp p2
np
 572.29 543.47 m
6.19 -10.71 l
-12.37 0 l
cp p2
np
101.63 292.57 m
22.41 23.18 l
29.88 29.55 l
29.89 27.05 l
29.88 25.05 l
29.88 24.79 l
29.89 21.34 l
29.88 19.34 l
29.88 -1.74 l
29.89 13.93 l
29.88 12.14 l
29.89 14.16 l
29.88 11.90 l
29.88 10.87 l
29.89 10.74 l
29.88 11.05 l
29.88 5.26 l
o
np
101.63 299.71 m
6.18 -10.71 l
-12.37 0 l
6.19 10.71 l
o
np
124.04 322.88 m
6.18 -10.70 l
-12.36 0 l
6.18 10.70 l
o
np
153.92 352.44 m
6.18 -10.71 l
-12.36 0 l
6.18 10.71 l
o
np
183.81 379.49 m
6.18 -10.71 l
-12.37 0 l
6.19 10.71 l
o
np
213.69 404.54 m
6.18 -10.71 l
-12.36 0 l
6.18 10.71 l
o
np
243.57 429.33 m
6.19 -10.71 l
-12.37 0 l
6.18 10.71 l
o
np
273.46 450.67 m
6.18 -10.70 l
-12.36 0 l
6.18 10.70 l
o
np
303.34 470.01 m
6.18 -10.71 l
-12.36 0 l
6.18 10.71 l
o
np
333.22 468.27 m
6.19 -10.71 l
-12.37 0 l
6.18 10.71 l
o
np
363.11 482.20 m
6.18 -10.71 l
-12.36 0 l
6.18 10.71 l
o
np
392.99 494.34 m
6.18 -10.71 l
-12.36 0 l
6.18 10.71 l
o
np
422.88 508.50 m
6.18 -10.71 l
-12.37 0 l
6.19 10.71 l
o
np
452.76 520.40 m
6.18 -10.70 l
-12.36 0 l
6.18 10.70 l
o
np
482.64 531.27 m
6.18 -10.71 l
-12.36 0 l
6.18 10.71 l
o
np
512.53 542.00 m
6.18 -10.70 l
-12.37 0 l
6.19 10.70 l
o
np
542.41 553.06 m
6.18 -10.71 l
-12.36 0 l
6.18 10.71 l
o
np
572.29 558.32 m
6.19 -10.71 l
-12.37 0 l
6.18 10.71 l
o
ep
%%Trailer
%%Pages: 1
%%EOF
