%!PS-Adobe-3.0 EPSF-3.0
%%DocumentNeededResources: font Times-Roman
%%+ font Times-Bold
%%+ font Times-Italic
%%+ font Times-BoldItalic
%%+ font Symbol
%%Title: R Graphics Output
%%Creator: R Software
%%Pages: (atend)
%%BoundingBox: 18 216 594 576
%%EndComments
%%BeginProlog
/bp  { gs sRGB gs } def
% begin .ps.prolog
/gs  { gsave } bind def
/gr  { grestore } bind def
/ep  { showpage gr gr } bind def
/m   { moveto } bind def
/l  { rlineto } bind def
/np  { newpath } bind def
/cp  { closepath } bind def
/f   { fill } bind def
/o   { stroke } bind def
/c   { newpath 0 360 arc } bind def
/r   { 4 2 roll moveto 1 copy 3 -1 roll exch 0 exch rlineto 0 rlineto -1 mul 0 exch rlineto closepath } bind def
/p1  { stroke } bind def
/p2  { gsave bg fill grestore newpath } bind def
/p3  { gsave bg fill grestore stroke } bind def
/p6  { gsave bg eofill grestore newpath } bind def
/p7  { gsave bg eofill grestore stroke } bind def
/t   { 5 -2 roll moveto gsave rotate
       1 index stringwidth pop
       mul neg 0 rmoveto show grestore } bind def
/ta  { 4 -2 roll moveto gsave rotate show } bind def
/tb  { 2 -1 roll 0 rmoveto show } bind def
/cl  { grestore gsave newpath 3 index 3 index moveto 1 index
       4 -1 roll lineto  exch 1 index lineto lineto
       closepath clip newpath } bind def
/rgb { setrgbcolor } bind def
/s   { scalefont setfont } bind def
% end   .ps.prolog
/sRGB { [ /CIEBasedABC
          << /DecodeLMN
               [ { dup 0.03928 le
                        {12.92321 div}
                        {0.055 add 1.055 div 2.4 exp }
                     ifelse
                 } bind dup dup
               ]
             /MatrixLMN [0.412457 0.212673 0.019334
                         0.357576 0.715152 0.119192
                         0.180437 0.072175 0.950301]
             /WhitePoint [0.9505 1.0 1.0890]
           >>
         ] setcolorspace } bind def
/srgb { setcolor } bind def
%%IncludeResource: font Times-Roman
/Times-Roman findfont
dup length dict begin
  {1 index /FID ne {def} {pop pop} ifelse} forall
  /Encoding ISOLatin1Encoding def
  currentdict
  end
/Font1 exch definefont pop
%%IncludeResource: font Times-Bold
/Times-Bold findfont
dup length dict begin
  {1 index /FID ne {def} {pop pop} ifelse} forall
  /Encoding ISOLatin1Encoding def
  currentdict
  end
/Font2 exch definefont pop
%%IncludeResource: font Times-Italic
/Times-Italic findfont
dup length dict begin
  {1 index /FID ne {def} {pop pop} ifelse} forall
  /Encoding ISOLatin1Encoding def
  currentdict
  end
/Font3 exch definefont pop
%%IncludeResource: font Times-BoldItalic
/Times-BoldItalic findfont
dup length dict begin
  {1 index /FID ne {def} {pop pop} ifelse} forall
  /Encoding ISOLatin1Encoding def
  currentdict
  end
/Font4 exch definefont pop
%%IncludeResource: font Symbol
/Symbol findfont
dup length dict begin
  {1 index /FID ne {def} {pop pop} ifelse} forall
  currentdict
  end
/Font5 exch definefont pop
%%EndProlog
%%Page: 1 1
bp
18.00 216.00 594.00 576.00 cl
0 0 0 srgb
0.75 setlinewidth
[] 0 setdash
1 setlinecap
1 setlinejoin
10.00 setmiterlimit
np
82.80 568.80 m
0 -295.20 l
508.32 0 l
o
18.00 216.00 594.00 576.00 cl
/Font1 findfont 24 s
0 0 0 srgb
336.96 218.88 (Number of threads) .5 0 t
36.72 421.20 (Speedup) .5 90 t
18.00 216.00 594.00 576.00 cl
0 0 0 srgb
0.75 setlinewidth
[] 0 setdash
1 setlinecap
1 setlinejoin
10.00 setmiterlimit
np
101.63 273.60 m
470.66 0 l
o
np
101.63 273.60 m
0 5.90 l
o
np
124.04 273.60 m
0 5.90 l
o
np
153.92 273.60 m
0 5.90 l
o
np
183.81 273.60 m
0 5.90 l
o
np
213.69 273.60 m
0 5.90 l
o
np
243.57 273.60 m
0 5.90 l
o
np
273.46 273.60 m
0 5.90 l
o
np
303.34 273.60 m
0 5.90 l
o
np
333.22 273.60 m
0 5.90 l
o
np
363.11 273.60 m
0 5.90 l
o
np
392.99 273.60 m
0 5.90 l
o
np
422.88 273.60 m
0 5.90 l
o
np
452.76 273.60 m
0 5.90 l
o
np
482.64 273.60 m
0 5.90 l
o
np
512.53 273.60 m
0 5.90 l
o
np
542.41 273.60 m
0 5.90 l
o
np
572.29 273.60 m
0 5.90 l
o
18.00 216.00 594.00 576.00 cl
/Font1 findfont 19 s
0 0 0 srgb
101.63 247.07 (1) .5 0 t
124.04 247.07 (4) .5 0 t
153.92 247.07 (8) .5 0 t
183.81 247.07 (12) .5 0 t
213.69 247.07 (16) .5 0 t
243.57 247.07 (20) .5 0 t
273.46 247.07 (24) .5 0 t
303.34 247.07 (28) .5 0 t
333.22 247.07 (32) .5 0 t
363.11 247.07 (36) .5 0 t
392.99 247.07 (40) .5 0 t
422.88 247.07 (44) .5 0 t
452.76 247.07 (48) .5 0 t
482.64 247.07 (52) .5 0 t
512.53 247.07 (56) .5 0 t
542.41 247.07 (60) .5 0 t
572.29 247.07 (64) .5 0 t
18.00 216.00 594.00 576.00 cl
0 0 0 srgb
0.75 setlinewidth
[] 0 setdash
1 setlinecap
1 setlinejoin
10.00 setmiterlimit
np
82.80 284.53 m
0 273.34 l
o
np
82.80 284.53 m
5.90 0 l
o
np
82.80 323.58 m
5.90 0 l
o
np
82.80 362.63 m
5.90 0 l
o
np
82.80 401.68 m
5.90 0 l
o
np
82.80 440.72 m
5.90 0 l
o
np
82.80 479.77 m
5.90 0 l
o
np
82.80 518.82 m
5.90 0 l
o
np
82.80 557.87 m
5.90 0 l
o
18.00 216.00 594.00 576.00 cl
/Font1 findfont 19 s
0 0 0 srgb
75.60 280.34 (0) 1 0 t
75.60 319.39 (3) 1 0 t
75.60 358.44 (6) 1 0 t
75.60 397.48 (9) 1 0 t
75.60 436.53 (12) 1 0 t
75.60 475.58 (15) 1 0 t
75.60 514.63 (18) 1 0 t
75.60 553.67 (21) 1 0 t
82.80 273.60 591.12 568.80 cl
0 0 0 srgb
0.75 setlinewidth
[] 0 setdash
1 setlinecap
1 setlinejoin
10.00 setmiterlimit
np
114.93 545.82 m
38.88 0 l
o
np
114.93 519.90 m
38.88 0 l
o
np
114.93 493.98 m
38.88 0 l
o
np
114.93 468.06 m
38.88 0 l
o
np
114.93 442.14 m
38.88 0 l
o
/bg { 0 0 0 srgb } def
134.37 545.82 4.86 c p2
np
134.37 527.46 m
6.54 -11.34 l
-13.09 0 l
6.55 11.34 l
o
np
 134.37 501.54 m
6.54 -11.34 l
-13.09 0 l
cp p2
np
129.51 463.20 m
9.72 9.72 l
o
np
129.51 472.92 m
9.72 -9.72 l
o
np
127.50 468.06 m
13.74 0 l
o
np
134.37 461.19 m
0 13.74 l
o
134.37 442.14 4.86 c p1
/Font1 findfont 22 s
173.25 538.54 (wiki) 0 0 t
173.25 512.62 (prot) 0 0 t
173.25 486.70 (dna) 0 0 t
173.25 460.78 (ctree) 0 0 t
173.25 434.86 (osm) 0 0 t
np
101.63 293.51 m
22.41 25.91 l
29.88 28.24 l
29.89 17.05 l
29.88 22.91 l
29.88 29.68 l
29.89 -2.35 l
29.88 23.56 l
29.88 -14.84 l
29.89 -11.84 l
29.88 -9.63 l
29.89 -4.95 l
29.88 4.95 l
29.88 -24.99 l
29.89 -7.42 l
29.88 8.72 l
29.88 -10.28 l
o
101.63 293.51 4.59 c p2
124.04 319.42 4.59 c p2
153.92 347.66 4.59 c p2
183.81 364.71 4.59 c p2
213.69 387.62 4.59 c p2
243.57 417.30 4.59 c p2
273.46 414.95 4.59 c p2
303.34 438.51 4.59 c p2
333.22 423.67 4.59 c p2
363.11 411.83 4.59 c p2
392.99 402.20 4.59 c p2
422.88 397.25 4.59 c p2
452.76 402.20 4.59 c p2
482.64 377.21 4.59 c p2
512.53 369.79 4.59 c p2
542.41 378.51 4.59 c p2
572.29 368.23 4.59 c p2
np
101.63 292.99 m
22.41 24.47 l
29.88 27.34 l
29.89 21.21 l
29.88 25.90 l
29.88 13.28 l
29.89 11.98 l
29.88 6.37 l
29.88 -2.73 l
29.89 25.90 l
29.88 -12.10 l
29.89 -11.20 l
29.88 -3.38 l
29.88 -21.35 l
29.89 -17.18 l
29.88 -9.11 l
29.88 15.88 l
o
np
101.63 300.13 m
6.18 -10.71 l
-12.37 0 l
6.19 10.71 l
o
np
124.04 324.60 m
6.18 -10.71 l
-12.36 0 l
6.18 10.71 l
o
np
153.92 351.93 m
6.18 -10.70 l
-12.36 0 l
6.18 10.70 l
o
np
183.81 373.15 m
6.18 -10.71 l
-12.37 0 l
6.19 10.71 l
o
np
213.69 399.05 m
6.18 -10.70 l
-12.36 0 l
6.18 10.70 l
o
np
243.57 412.33 m
6.19 -10.71 l
-12.37 0 l
6.18 10.71 l
o
np
273.46 424.30 m
6.18 -10.70 l
-12.36 0 l
6.18 10.70 l
o
np
303.34 430.68 m
6.18 -10.71 l
-12.36 0 l
6.18 10.71 l
o
np
333.22 427.95 m
6.19 -10.71 l
-12.37 0 l
6.18 10.71 l
o
np
363.11 453.85 m
6.18 -10.71 l
-12.36 0 l
6.18 10.71 l
o
np
392.99 441.74 m
6.18 -10.70 l
-12.36 0 l
6.18 10.70 l
o
np
422.88 430.55 m
6.18 -10.71 l
-12.37 0 l
6.19 10.71 l
o
np
452.76 427.17 m
6.18 -10.71 l
-12.36 0 l
6.18 10.71 l
o
np
482.64 405.82 m
6.18 -10.71 l
-12.36 0 l
6.18 10.71 l
o
np
512.53 388.64 m
6.18 -10.71 l
-12.37 0 l
6.19 10.71 l
o
np
542.41 379.53 m
6.18 -10.71 l
-12.36 0 l
6.18 10.71 l
o
np
572.29 395.41 m
6.19 -10.71 l
-12.37 0 l
6.18 10.71 l
o
np
101.63 292.86 m
22.41 23.69 l
29.88 30.33 l
29.89 20.30 l
29.88 25.52 l
29.88 13.53 l
29.89 19.53 l
29.88 -1.83 l
29.88 17.05 l
29.89 10.16 l
29.88 3.12 l
29.89 4.43 l
29.88 -11.98 l
29.88 1.95 l
29.89 -21.21 l
29.88 8.07 l
29.88 4.81 l
o
np
 101.63 300.00 m
6.18 -10.71 l
-12.37 0 l
cp p2
np
 124.04 323.69 m
6.18 -10.71 l
-12.36 0 l
cp p2
np
 153.92 354.02 m
6.18 -10.71 l
-12.36 0 l
cp p2
np
 183.81 374.32 m
6.18 -10.70 l
-12.37 0 l
cp p2
np
 213.69 399.83 m
6.18 -10.70 l
-12.36 0 l
cp p2
np
 243.57 413.37 m
6.19 -10.71 l
-12.37 0 l
cp p2
np
 273.46 432.89 m
6.18 -10.70 l
-12.36 0 l
cp p2
np
 303.34 431.07 m
6.18 -10.71 l
-12.36 0 l
cp p2
np
 333.22 448.12 m
6.19 -10.70 l
-12.37 0 l
cp p2
np
 363.11 458.27 m
6.18 -10.70 l
-12.36 0 l
cp p2
np
 392.99 461.40 m
6.18 -10.71 l
-12.36 0 l
cp p2
np
 422.88 465.82 m
6.18 -10.70 l
-12.37 0 l
cp p2
np
 452.76 453.85 m
6.18 -10.71 l
-12.36 0 l
cp p2
np
 482.64 455.80 m
6.18 -10.71 l
-12.36 0 l
cp p2
np
 512.53 434.59 m
6.18 -10.71 l
-12.37 0 l
cp p2
np
 542.41 442.66 m
6.18 -10.71 l
-12.36 0 l
cp p2
np
 572.29 447.47 m
6.19 -10.71 l
-12.37 0 l
cp p2
np
101.63 293.51 m
22.41 26.69 l
29.88 33.45 l
29.89 27.98 l
29.88 30.98 l
29.88 18.22 l
29.89 14.45 l
29.88 14.32 l
29.88 1.56 l
29.89 32.80 l
29.88 9.24 l
29.89 -7.55 l
29.88 10.15 l
29.88 -5.07 l
29.89 0.65 l
29.88 1.69 l
29.88 -16.01 l
o
np
97.04 288.92 m
9.18 9.18 l
o
np
97.04 298.10 m
9.18 -9.18 l
o
np
95.14 293.51 m
12.98 0 l
o
np
101.63 287.02 m
0 12.99 l
o
np
119.45 315.61 m
9.18 9.18 l
o
np
119.45 324.79 m
9.18 -9.18 l
o
np
117.55 320.20 m
12.98 0 l
o
np
124.04 313.71 m
0 12.98 l
o
np
149.33 349.06 m
9.18 9.18 l
o
np
149.33 358.24 m
9.18 -9.18 l
o
np
147.43 353.65 m
12.98 0 l
o
np
153.92 347.16 m
0 12.98 l
o
np
179.22 377.04 m
9.18 9.18 l
o
np
179.22 386.22 m
9.18 -9.18 l
o
np
177.32 381.63 m
12.98 0 l
o
np
183.81 375.14 m
0 12.98 l
o
np
209.10 408.02 m
9.18 9.18 l
o
np
209.10 417.20 m
9.18 -9.18 l
o
np
207.20 412.61 m
12.98 0 l
o
np
213.69 406.12 m
0 12.98 l
o
np
238.98 426.24 m
9.18 9.18 l
o
np
238.98 435.42 m
9.18 -9.18 l
o
np
237.08 430.83 m
12.98 0 l
o
np
243.57 424.34 m
0 12.98 l
o
np
268.87 440.69 m
9.18 9.18 l
o
np
268.87 449.87 m
9.18 -9.18 l
o
np
266.97 445.28 m
12.98 0 l
o
np
273.46 438.79 m
0 12.98 l
o
np
298.75 455.01 m
9.18 9.18 l
o
np
298.75 464.19 m
9.18 -9.18 l
o
np
296.85 459.60 m
12.98 0 l
o
np
303.34 453.11 m
0 12.98 l
o
np
328.63 456.57 m
9.18 9.18 l
o
np
328.63 465.75 m
9.18 -9.18 l
o
np
326.73 461.16 m
12.99 0 l
o
np
333.22 454.67 m
0 12.98 l
o
np
358.52 489.37 m
9.18 9.18 l
o
np
358.52 498.55 m
9.18 -9.18 l
o
np
356.62 493.96 m
12.98 0 l
o
np
363.11 487.47 m
0 12.98 l
o
np
388.40 498.61 m
9.18 9.18 l
o
np
388.40 507.79 m
9.18 -9.18 l
o
np
386.50 503.20 m
12.98 0 l
o
np
392.99 496.71 m
0 12.98 l
o
np
418.29 491.06 m
9.18 9.18 l
o
np
418.29 500.24 m
9.18 -9.18 l
o
np
416.38 495.65 m
12.99 0 l
o
np
422.88 489.16 m
0 12.98 l
o
np
448.17 501.21 m
9.18 9.18 l
o
np
448.17 510.39 m
9.18 -9.18 l
o
np
446.27 505.80 m
12.98 0 l
o
np
452.76 499.31 m
0 12.98 l
o
np
478.05 496.14 m
9.18 9.18 l
o
np
478.05 505.32 m
9.18 -9.18 l
o
np
476.15 500.73 m
12.98 0 l
o
np
482.64 494.24 m
0 12.98 l
o
np
507.94 496.79 m
9.18 9.18 l
o
np
507.94 505.97 m
9.18 -9.18 l
o
np
506.03 501.38 m
12.99 0 l
o
np
512.53 494.89 m
0 12.98 l
o
np
537.82 498.48 m
9.18 9.18 l
o
np
537.82 507.66 m
9.18 -9.18 l
o
np
535.92 503.07 m
12.98 0 l
o
np
542.41 496.58 m
0 12.98 l
o
np
567.70 482.47 m
9.18 9.18 l
o
np
567.70 491.65 m
9.18 -9.18 l
o
np
565.80 487.06 m
12.98 0 l
o
np
572.29 480.57 m
0 12.98 l
o
np
101.63 292.99 m
22.41 24.86 l
29.88 33.06 l
29.89 26.17 l
29.88 32.02 l
29.88 24.60 l
29.89 13.40 l
29.88 19.00 l
29.88 22.00 l
29.89 13.67 l
29.88 10.28 l
29.89 16.01 l
29.88 -5.47 l
29.88 14.19 l
29.89 0.52 l
29.88 0.13 l
29.88 8.20 l
o
101.63 292.99 4.59 c p1
124.04 317.85 4.59 c p1
153.92 350.91 4.59 c p1
183.81 377.08 4.59 c p1
213.69 409.10 4.59 c p1
243.57 433.70 4.59 c p1
273.46 447.10 4.59 c p1
303.34 466.10 4.59 c p1
333.22 488.10 4.59 c p1
363.11 501.77 4.59 c p1
392.99 512.05 4.59 c p1
422.88 528.06 4.59 c p1
452.76 522.59 4.59 c p1
482.64 536.78 4.59 c p1
512.53 537.30 4.59 c p1
542.41 537.43 4.59 c p1
572.29 545.63 4.59 c p1
ep
%%Trailer
%%Pages: 1
%%EOF
