%!PS-Adobe-3.0 EPSF-3.0
%%DocumentNeededResources: font Times-Roman
%%+ font Times-Bold
%%+ font Times-Italic
%%+ font Times-BoldItalic
%%+ font Symbol
%%Title: R Graphics Output
%%Creator: R Software
%%Pages: (atend)
%%BoundingBox: 18 216 594 576
%%EndComments
%%BeginProlog
/bp  { gs sRGB gs } def
% begin .ps.prolog
/gs  { gsave } bind def
/gr  { grestore } bind def
/ep  { showpage gr gr } bind def
/m   { moveto } bind def
/l  { rlineto } bind def
/np  { newpath } bind def
/cp  { closepath } bind def
/f   { fill } bind def
/o   { stroke } bind def
/c   { newpath 0 360 arc } bind def
/r   { 4 2 roll moveto 1 copy 3 -1 roll exch 0 exch rlineto 0 rlineto -1 mul 0 exch rlineto closepath } bind def
/p1  { stroke } bind def
/p2  { gsave bg fill grestore newpath } bind def
/p3  { gsave bg fill grestore stroke } bind def
/p6  { gsave bg eofill grestore newpath } bind def
/p7  { gsave bg eofill grestore stroke } bind def
/t   { 5 -2 roll moveto gsave rotate
       1 index stringwidth pop
       mul neg 0 rmoveto show grestore } bind def
/ta  { 4 -2 roll moveto gsave rotate show } bind def
/tb  { 2 -1 roll 0 rmoveto show } bind def
/cl  { grestore gsave newpath 3 index 3 index moveto 1 index
       4 -1 roll lineto  exch 1 index lineto lineto
       closepath clip newpath } bind def
/rgb { setrgbcolor } bind def
/s   { scalefont setfont } bind def
% end   .ps.prolog
/sRGB { [ /CIEBasedABC
          << /DecodeLMN
               [ { dup 0.03928 le
                        {12.92321 div}
                        {0.055 add 1.055 div 2.4 exp }
                     ifelse
                 } bind dup dup
               ]
             /MatrixLMN [0.412457 0.212673 0.019334
                         0.357576 0.715152 0.119192
                         0.180437 0.072175 0.950301]
             /WhitePoint [0.9505 1.0 1.0890]
           >>
         ] setcolorspace } bind def
/srgb { setcolor } bind def
%%IncludeResource: font Times-Roman
/Times-Roman findfont
dup length dict begin
  {1 index /FID ne {def} {pop pop} ifelse} forall
  /Encoding ISOLatin1Encoding def
  currentdict
  end
/Font1 exch definefont pop
%%IncludeResource: font Times-Bold
/Times-Bold findfont
dup length dict begin
  {1 index /FID ne {def} {pop pop} ifelse} forall
  /Encoding ISOLatin1Encoding def
  currentdict
  end
/Font2 exch definefont pop
%%IncludeResource: font Times-Italic
/Times-Italic findfont
dup length dict begin
  {1 index /FID ne {def} {pop pop} ifelse} forall
  /Encoding ISOLatin1Encoding def
  currentdict
  end
/Font3 exch definefont pop
%%IncludeResource: font Times-BoldItalic
/Times-BoldItalic findfont
dup length dict begin
  {1 index /FID ne {def} {pop pop} ifelse} forall
  /Encoding ISOLatin1Encoding def
  currentdict
  end
/Font4 exch definefont pop
%%IncludeResource: font Symbol
/Symbol findfont
dup length dict begin
  {1 index /FID ne {def} {pop pop} ifelse} forall
  currentdict
  end
/Font5 exch definefont pop
%%EndProlog
%%Page: 1 1
bp
18.00 216.00 594.00 576.00 cl
0 0 0 srgb
0.75 setlinewidth
[] 0 setdash
1 setlinecap
1 setlinejoin
10.00 setmiterlimit
np
82.80 568.80 m
0 -295.20 l
508.32 0 l
o
18.00 216.00 594.00 576.00 cl
/Font1 findfont 24 s
0 0 0 srgb
336.96 218.88 (Number of threads) .5 0 t
36.72 421.20 (Speedup) .5 90 t
18.00 216.00 594.00 576.00 cl
0 0 0 srgb
0.75 setlinewidth
[] 0 setdash
1 setlinecap
1 setlinejoin
10.00 setmiterlimit
np
101.63 273.60 m
470.66 0 l
o
np
101.63 273.60 m
0 5.90 l
o
np
124.04 273.60 m
0 5.90 l
o
np
153.92 273.60 m
0 5.90 l
o
np
183.81 273.60 m
0 5.90 l
o
np
213.69 273.60 m
0 5.90 l
o
np
243.57 273.60 m
0 5.90 l
o
np
273.46 273.60 m
0 5.90 l
o
np
303.34 273.60 m
0 5.90 l
o
np
333.22 273.60 m
0 5.90 l
o
np
363.11 273.60 m
0 5.90 l
o
np
392.99 273.60 m
0 5.90 l
o
np
422.88 273.60 m
0 5.90 l
o
np
452.76 273.60 m
0 5.90 l
o
np
482.64 273.60 m
0 5.90 l
o
np
512.53 273.60 m
0 5.90 l
o
np
542.41 273.60 m
0 5.90 l
o
np
572.29 273.60 m
0 5.90 l
o
18.00 216.00 594.00 576.00 cl
/Font1 findfont 19 s
0 0 0 srgb
101.63 253.87 (1) .5 0 t
124.04 253.87 (4) .5 0 t
153.92 253.87 (8) .5 0 t
183.81 253.87 (12) .5 0 t
213.69 253.87 (16) .5 0 t
243.57 253.87 (20) .5 0 t
273.46 253.87 (24) .5 0 t
303.34 253.87 (28) .5 0 t
333.22 253.87 (32) .5 0 t
363.11 253.87 (36) .5 0 t
392.99 253.87 (40) .5 0 t
422.88 253.87 (44) .5 0 t
452.76 253.87 (48) .5 0 t
482.64 253.87 (52) .5 0 t
512.53 253.87 (56) .5 0 t
542.41 253.87 (60) .5 0 t
572.29 253.87 (64) .5 0 t
18.00 216.00 594.00 576.00 cl
0 0 0 srgb
0.75 setlinewidth
[] 0 setdash
1 setlinecap
1 setlinejoin
10.00 setmiterlimit
np
82.80 284.53 m
0 256.25 l
o
np
82.80 284.53 m
5.90 0 l
o
np
82.80 327.24 m
5.90 0 l
o
np
82.80 369.95 m
5.90 0 l
o
np
82.80 412.66 m
5.90 0 l
o
np
82.80 455.37 m
5.90 0 l
o
np
82.80 498.07 m
5.90 0 l
o
np
82.80 540.78 m
5.90 0 l
o
18.00 216.00 594.00 576.00 cl
/Font1 findfont 19 s
0 0 0 srgb
75.60 280.34 (0) 1 0 t
75.60 323.05 (5) 1 0 t
75.60 365.76 (10) 1 0 t
75.60 408.47 (15) 1 0 t
75.60 451.17 (20) 1 0 t
75.60 493.88 (25) 1 0 t
75.60 536.59 (30) 1 0 t
82.80 273.60 591.12 568.80 cl
0 0 0 srgb
0.75 setlinewidth
[] 0 setdash
1 setlinecap
1 setlinejoin
10.00 setmiterlimit
np
114.93 550.07 m
38.88 0 l
o
np
114.93 524.15 m
38.88 0 l
o
np
114.93 498.23 m
38.88 0 l
o
np
114.93 472.31 m
38.88 0 l
o
np
114.93 446.39 m
38.88 0 l
o
/bg { 0 0 0 srgb } def
134.37 550.07 4.86 c p2
np
134.37 531.71 m
6.54 -11.34 l
-13.09 0 l
6.55 11.34 l
o
np
 134.37 505.79 m
6.54 -11.34 l
-13.09 0 l
cp p2
np
129.51 467.45 m
9.72 9.72 l
o
np
129.51 477.17 m
9.72 -9.72 l
o
np
127.50 472.31 m
13.74 0 l
o
np
134.37 465.44 m
0 13.75 l
o
134.37 446.39 4.86 c p1
/Font1 findfont 22 s
173.25 542.79 (wiki) 0 0 t
173.25 516.87 (prot) 0 0 t
173.25 490.95 (dna) 0 0 t
173.25 465.03 (ctree) 0 0 t
173.25 439.11 (osm) 0 0 t
np
101.63 293.07 m
22.41 24.78 l
29.88 26.90 l
29.89 16.23 l
29.88 21.78 l
29.88 28.36 l
29.89 -2.31 l
29.88 22.47 l
29.88 -14.09 l
29.89 -11.36 l
29.88 -9.23 l
29.89 -4.61 l
29.88 4.78 l
29.88 -23.92 l
29.89 -7.09 l
29.88 8.38 l
29.88 -9.83 l
o
101.63 293.07 4.59 c p2
124.04 317.85 4.59 c p2
153.92 344.75 4.59 c p2
183.81 360.98 4.59 c p2
213.69 382.76 4.59 c p2
243.57 411.12 4.59 c p2
273.46 408.81 4.59 c p2
303.34 431.28 4.59 c p2
333.22 417.19 4.59 c p2
363.11 405.83 4.59 c p2
392.99 396.60 4.59 c p2
422.88 391.99 4.59 c p2
452.76 396.77 4.59 c p2
482.64 372.85 4.59 c p2
512.53 365.76 4.59 c p2
542.41 374.14 4.59 c p2
572.29 364.31 4.59 c p2
np
101.63 293.07 m
22.41 24.69 l
29.88 27.68 l
29.89 21.35 l
29.88 26.22 l
29.88 13.33 l
29.89 12.13 l
29.88 6.49 l
29.88 -2.73 l
29.89 26.05 l
29.88 -12.22 l
29.89 -11.27 l
29.88 -3.33 l
29.88 -21.70 l
29.89 -17.25 l
29.88 -9.31 l
29.88 16.05 l
o
np
101.63 300.21 m
6.18 -10.70 l
-12.37 0 l
6.19 10.70 l
o
np
124.04 324.90 m
6.18 -10.71 l
-12.36 0 l
6.18 10.71 l
o
np
153.92 352.57 m
6.18 -10.70 l
-12.36 0 l
6.18 10.70 l
o
np
183.81 373.93 m
6.18 -10.71 l
-12.37 0 l
6.19 10.71 l
o
np
213.69 400.15 m
6.18 -10.71 l
-12.36 0 l
6.18 10.71 l
o
np
243.57 413.48 m
6.19 -10.71 l
-12.37 0 l
6.18 10.71 l
o
np
273.46 425.60 m
6.18 -10.70 l
-12.36 0 l
6.18 10.70 l
o
np
303.34 432.10 m
6.18 -10.71 l
-12.36 0 l
6.18 10.71 l
o
np
333.22 429.36 m
6.19 -10.70 l
-12.37 0 l
6.18 10.70 l
o
np
363.11 455.42 m
6.18 -10.71 l
-12.36 0 l
6.18 10.71 l
o
np
392.99 443.20 m
6.18 -10.71 l
-12.36 0 l
6.18 10.71 l
o
np
422.88 431.93 m
6.18 -10.71 l
-12.37 0 l
6.19 10.71 l
o
np
452.76 428.59 m
6.18 -10.70 l
-12.36 0 l
6.18 10.70 l
o
np
482.64 406.90 m
6.18 -10.71 l
-12.36 0 l
6.18 10.71 l
o
np
512.53 389.64 m
6.18 -10.70 l
-12.37 0 l
6.19 10.70 l
o
np
542.41 380.33 m
6.18 -10.70 l
-12.36 0 l
6.18 10.70 l
o
np
572.29 396.39 m
6.19 -10.70 l
-12.37 0 l
6.18 10.70 l
o
np
101.63 293.16 m
22.41 24.69 l
29.88 31.51 l
29.89 21.19 l
29.88 26.39 l
29.88 14.10 l
29.89 20.24 l
29.88 -1.79 l
29.88 17.68 l
29.89 10.50 l
29.88 3.33 l
29.89 4.62 l
29.88 -12.47 l
29.88 1.96 l
29.89 -21.95 l
29.88 8.28 l
29.88 5.04 l
o
np
 101.63 300.30 m
6.18 -10.71 l
-12.37 0 l
cp p2
np
 124.04 324.98 m
6.18 -10.70 l
-12.36 0 l
cp p2
np
 153.92 356.50 m
6.18 -10.70 l
-12.36 0 l
cp p2
np
 183.81 377.69 m
6.18 -10.71 l
-12.37 0 l
cp p2
np
 213.69 404.08 m
6.18 -10.71 l
-12.36 0 l
cp p2
np
 243.57 418.17 m
6.19 -10.70 l
-12.37 0 l
cp p2
np
 273.46 438.42 m
6.18 -10.71 l
-12.36 0 l
cp p2
np
 303.34 436.62 m
6.18 -10.70 l
-12.36 0 l
cp p2
np
 333.22 454.30 m
6.19 -10.70 l
-12.37 0 l
cp p2
np
 363.11 464.81 m
6.18 -10.71 l
-12.36 0 l
cp p2
np
 392.99 468.14 m
6.18 -10.70 l
-12.36 0 l
cp p2
np
 422.88 472.75 m
6.18 -10.70 l
-12.37 0 l
cp p2
np
 452.76 460.28 m
6.18 -10.70 l
-12.36 0 l
cp p2
np
 482.64 462.25 m
6.18 -10.71 l
-12.36 0 l
cp p2
np
 512.53 440.30 m
6.18 -10.71 l
-12.37 0 l
cp p2
np
 542.41 448.58 m
6.18 -10.71 l
-12.36 0 l
cp p2
np
 572.29 453.62 m
6.19 -10.71 l
-12.37 0 l
cp p2
np
101.63 293.07 m
22.41 25.46 l
29.88 31.95 l
29.89 26.73 l
29.88 29.55 l
29.88 17.34 l
29.89 13.84 l
29.88 13.67 l
29.88 1.45 l
29.89 31.35 l
29.88 8.80 l
29.89 -7.18 l
29.88 9.65 l
29.88 -4.95 l
29.89 0.68 l
29.88 1.71 l
29.88 -15.29 l
o
np
97.04 288.49 m
9.18 9.17 l
o
np
97.04 297.66 m
9.18 -9.17 l
o
np
95.14 293.07 m
12.98 0 l
o
np
101.63 286.58 m
0 12.99 l
o
np
119.45 313.94 m
9.18 9.18 l
o
np
119.45 323.12 m
9.18 -9.18 l
o
np
117.55 318.53 m
12.98 0 l
o
np
124.04 312.04 m
0 12.98 l
o
np
149.33 345.89 m
9.18 9.17 l
o
np
149.33 355.06 m
9.18 -9.17 l
o
np
147.43 350.48 m
12.98 0 l
o
np
153.92 343.98 m
0 12.99 l
o
np
179.22 372.62 m
9.18 9.18 l
o
np
179.22 381.80 m
9.18 -9.18 l
o
np
177.32 377.21 m
12.98 0 l
o
np
183.81 370.72 m
0 12.98 l
o
np
209.10 402.17 m
9.18 9.18 l
o
np
209.10 411.35 m
9.18 -9.18 l
o
np
207.20 406.76 m
12.98 0 l
o
np
213.69 400.27 m
0 12.99 l
o
np
238.98 419.51 m
9.18 9.18 l
o
np
238.98 428.69 m
9.18 -9.18 l
o
np
237.08 424.10 m
12.98 0 l
o
np
243.57 417.61 m
0 12.99 l
o
np
268.87 433.35 m
9.18 9.18 l
o
np
268.87 442.53 m
9.18 -9.18 l
o
np
266.97 437.94 m
12.98 0 l
o
np
273.46 431.45 m
0 12.98 l
o
np
298.75 447.02 m
9.18 9.18 l
o
np
298.75 456.20 m
9.18 -9.18 l
o
np
296.85 451.61 m
12.98 0 l
o
np
303.34 445.12 m
0 12.98 l
o
np
328.63 448.47 m
9.18 9.18 l
o
np
328.63 457.65 m
9.18 -9.18 l
o
np
326.73 453.06 m
12.99 0 l
o
np
333.22 446.57 m
0 12.98 l
o
np
358.52 479.82 m
9.18 9.18 l
o
np
358.52 489.00 m
9.18 -9.18 l
o
np
356.62 484.41 m
12.98 0 l
o
np
363.11 477.92 m
0 12.98 l
o
np
388.40 488.62 m
9.18 9.18 l
o
np
388.40 497.80 m
9.18 -9.18 l
o
np
386.50 493.21 m
12.98 0 l
o
np
392.99 486.72 m
0 12.98 l
o
np
418.29 481.44 m
9.18 9.18 l
o
np
418.29 490.62 m
9.18 -9.18 l
o
np
416.38 486.03 m
12.99 0 l
o
np
422.88 479.54 m
0 12.98 l
o
np
448.17 491.09 m
9.18 9.18 l
o
np
448.17 500.27 m
9.18 -9.18 l
o
np
446.27 495.68 m
12.98 0 l
o
np
452.76 489.19 m
0 12.98 l
o
np
478.05 486.14 m
9.18 9.18 l
o
np
478.05 495.32 m
9.18 -9.18 l
o
np
476.15 490.73 m
12.98 0 l
o
np
482.64 484.24 m
0 12.98 l
o
np
507.94 486.82 m
9.18 9.18 l
o
np
507.94 496.00 m
9.18 -9.18 l
o
np
506.03 491.41 m
12.99 0 l
o
np
512.53 484.92 m
0 12.98 l
o
np
537.82 488.53 m
9.18 9.18 l
o
np
537.82 497.71 m
9.18 -9.18 l
o
np
535.92 493.12 m
12.98 0 l
o
np
542.41 486.63 m
0 12.98 l
o
np
567.70 473.24 m
9.18 9.18 l
o
np
567.70 482.42 m
9.18 -9.18 l
o
np
565.80 477.83 m
12.98 0 l
o
np
572.29 471.34 m
0 12.98 l
o
np
101.63 293.07 m
22.41 25.29 l
29.88 33.57 l
29.89 26.48 l
29.88 32.54 l
29.88 24.94 l
29.89 13.67 l
29.88 19.22 l
29.88 22.29 l
29.89 13.92 l
29.88 10.51 l
29.89 16.14 l
29.88 -5.55 l
29.88 14.35 l
29.89 0.60 l
29.88 0.08 l
29.88 8.38 l
o
101.63 293.07 4.59 c p1
124.04 318.36 4.59 c p1
153.92 351.93 4.59 c p1
183.81 378.41 4.59 c p1
213.69 410.95 4.59 c p1
243.57 435.89 4.59 c p1
273.46 449.56 4.59 c p1
303.34 468.78 4.59 c p1
333.22 491.07 4.59 c p1
363.11 504.99 4.59 c p1
392.99 515.50 4.59 c p1
422.88 531.64 4.59 c p1
452.76 526.09 4.59 c p1
482.64 540.44 4.59 c p1
512.53 541.04 4.59 c p1
542.41 541.12 4.59 c p1
572.29 549.50 4.59 c p1
ep
%%Trailer
%%Pages: 1
%%EOF
