%!PS-Adobe-3.0 EPSF-3.0
%%DocumentNeededResources: font Times-Roman
%%+ font Times-Bold
%%+ font Times-Italic
%%+ font Times-BoldItalic
%%+ font Symbol
%%Title: R Graphics Output
%%Creator: R Software
%%Pages: (atend)
%%BoundingBox: 18 216 594 576
%%EndComments
%%BeginProlog
/bp  { gs sRGB gs } def
% begin .ps.prolog
/gs  { gsave } bind def
/gr  { grestore } bind def
/ep  { showpage gr gr } bind def
/m   { moveto } bind def
/l  { rlineto } bind def
/np  { newpath } bind def
/cp  { closepath } bind def
/f   { fill } bind def
/o   { stroke } bind def
/c   { newpath 0 360 arc } bind def
/r   { 4 2 roll moveto 1 copy 3 -1 roll exch 0 exch rlineto 0 rlineto -1 mul 0 exch rlineto closepath } bind def
/p1  { stroke } bind def
/p2  { gsave bg fill grestore newpath } bind def
/p3  { gsave bg fill grestore stroke } bind def
/p6  { gsave bg eofill grestore newpath } bind def
/p7  { gsave bg eofill grestore stroke } bind def
/t   { 5 -2 roll moveto gsave rotate
       1 index stringwidth pop
       mul neg 0 rmoveto show grestore } bind def
/ta  { 4 -2 roll moveto gsave rotate show } bind def
/tb  { 2 -1 roll 0 rmoveto show } bind def
/cl  { grestore gsave newpath 3 index 3 index moveto 1 index
       4 -1 roll lineto  exch 1 index lineto lineto
       closepath clip newpath } bind def
/rgb { setrgbcolor } bind def
/s   { scalefont setfont } bind def
% end   .ps.prolog
/sRGB { [ /CIEBasedABC
          << /DecodeLMN
               [ { dup 0.03928 le
                        {12.92321 div}
                        {0.055 add 1.055 div 2.4 exp }
                     ifelse
                 } bind dup dup
               ]
             /MatrixLMN [0.412457 0.212673 0.019334
                         0.357576 0.715152 0.119192
                         0.180437 0.072175 0.950301]
             /WhitePoint [0.9505 1.0 1.0890]
           >>
         ] setcolorspace } bind def
/srgb { setcolor } bind def
%%IncludeResource: font Times-Roman
/Times-Roman findfont
dup length dict begin
  {1 index /FID ne {def} {pop pop} ifelse} forall
  /Encoding ISOLatin1Encoding def
  currentdict
  end
/Font1 exch definefont pop
%%IncludeResource: font Times-Bold
/Times-Bold findfont
dup length dict begin
  {1 index /FID ne {def} {pop pop} ifelse} forall
  /Encoding ISOLatin1Encoding def
  currentdict
  end
/Font2 exch definefont pop
%%IncludeResource: font Times-Italic
/Times-Italic findfont
dup length dict begin
  {1 index /FID ne {def} {pop pop} ifelse} forall
  /Encoding ISOLatin1Encoding def
  currentdict
  end
/Font3 exch definefont pop
%%IncludeResource: font Times-BoldItalic
/Times-BoldItalic findfont
dup length dict begin
  {1 index /FID ne {def} {pop pop} ifelse} forall
  /Encoding ISOLatin1Encoding def
  currentdict
  end
/Font4 exch definefont pop
%%IncludeResource: font Symbol
/Symbol findfont
dup length dict begin
  {1 index /FID ne {def} {pop pop} ifelse} forall
  currentdict
  end
/Font5 exch definefont pop
%%EndProlog
%%Page: 1 1
bp
18.00 216.00 594.00 576.00 cl
0 0 0 srgb
0.75 setlinewidth
[] 0 setdash
1 setlinecap
1 setlinejoin
10.00 setmiterlimit
np
82.80 568.80 m
0 -295.20 l
508.32 0 l
o
18.00 216.00 594.00 576.00 cl
/Font1 findfont 24 s
0 0 0 srgb
336.96 218.88 (Number of threads) .5 0 t
36.72 421.20 (Speedup) .5 90 t
18.00 216.00 594.00 576.00 cl
0 0 0 srgb
0.75 setlinewidth
[] 0 setdash
1 setlinecap
1 setlinejoin
10.00 setmiterlimit
np
101.63 273.60 m
470.66 0 l
o
np
101.63 273.60 m
0 -7.20 l
o
np
124.04 273.60 m
0 -7.20 l
o
np
153.92 273.60 m
0 -7.20 l
o
np
183.81 273.60 m
0 -7.20 l
o
np
213.69 273.60 m
0 -7.20 l
o
np
243.57 273.60 m
0 -7.20 l
o
np
273.46 273.60 m
0 -7.20 l
o
np
303.34 273.60 m
0 -7.20 l
o
np
333.22 273.60 m
0 -7.20 l
o
np
363.11 273.60 m
0 -7.20 l
o
np
392.99 273.60 m
0 -7.20 l
o
np
422.88 273.60 m
0 -7.20 l
o
np
452.76 273.60 m
0 -7.20 l
o
np
482.64 273.60 m
0 -7.20 l
o
np
512.53 273.60 m
0 -7.20 l
o
np
542.41 273.60 m
0 -7.20 l
o
np
572.29 273.60 m
0 -7.20 l
o
/Font1 findfont 16 s
101.63 247.68 (1) .5 0 t
124.04 247.68 (4) .5 0 t
153.92 247.68 (8) .5 0 t
183.81 247.68 (12) .5 0 t
213.69 247.68 (16) .5 0 t
243.57 247.68 (20) .5 0 t
273.46 247.68 (24) .5 0 t
303.34 247.68 (28) .5 0 t
333.22 247.68 (32) .5 0 t
363.11 247.68 (36) .5 0 t
392.99 247.68 (40) .5 0 t
422.88 247.68 (44) .5 0 t
452.76 247.68 (48) .5 0 t
482.64 247.68 (52) .5 0 t
512.53 247.68 (56) .5 0 t
542.41 247.68 (60) .5 0 t
572.29 247.68 (64) .5 0 t
np
82.80 284.53 m
0 273.34 l
o
np
82.80 284.53 m
5.90 0 l
o
np
82.80 309.38 m
5.90 0 l
o
np
82.80 334.23 m
5.90 0 l
o
np
82.80 359.08 m
5.90 0 l
o
np
82.80 383.93 m
5.90 0 l
o
np
82.80 408.78 m
5.90 0 l
o
np
82.80 433.62 m
5.90 0 l
o
np
82.80 458.47 m
5.90 0 l
o
np
82.80 483.32 m
5.90 0 l
o
np
82.80 508.17 m
5.90 0 l
o
np
82.80 533.02 m
5.90 0 l
o
np
82.80 557.87 m
5.90 0 l
o
18.00 216.00 594.00 576.00 cl
/Font1 findfont 19 s
0 0 0 srgb
75.60 280.34 (0) 1 0 t
75.60 305.19 (1) 1 0 t
75.60 330.04 (2) 1 0 t
75.60 354.89 (3) 1 0 t
75.60 379.74 (4) 1 0 t
75.60 404.58 (5) 1 0 t
75.60 429.43 (6) 1 0 t
75.60 454.28 (7) 1 0 t
75.60 479.13 (8) 1 0 t
75.60 503.98 (9) 1 0 t
75.60 528.83 (10) 1 0 t
75.60 553.67 (11) 1 0 t
82.80 273.60 591.12 568.80 cl
0 0 0 srgb
0.75 setlinewidth
[] 0 setdash
1 setlinecap
1 setlinejoin
10.00 setmiterlimit
np
428.06 366.50 m
34.56 0 l
o
np
428.06 343.46 m
34.56 0 l
o
np
428.06 320.42 m
34.56 0 l
o
np
441.02 362.18 m
8.64 8.64 l
o
np
441.02 370.82 m
8.64 -8.64 l
o
np
439.23 366.50 m
12.22 0 l
o
np
445.34 360.39 m
0 12.21 l
o
/bg { 0 0 0 srgb } def
np
 445.34 350.17 m
5.82 -10.07 l
-11.64 0 l
cp p2
np
445.34 327.13 m
5.82 -10.07 l
-11.64 0 l
5.82 10.07 l
o
/Font1 findfont 19 s
479.90 360.21 (ctree25) 0 0 t
479.90 337.17 (dna) 0 0 t
479.90 314.13 (prot) 0 0 t
np
101.63 307.74 m
22.41 60.90 l
29.88 50.13 l
29.89 26.79 l
29.88 32.71 l
29.88 -8.62 l
29.89 1.08 l
29.88 27.47 l
29.88 -3.55 l
29.89 -3.29 l
29.88 1.14 l
29.89 -2.29 l
29.88 -0.03 l
29.88 12.79 l
29.89 -1.88 l
29.88 15.09 l
29.88 -34.59 l
o
np
97.04 303.15 m
9.18 9.18 l
o
np
97.04 312.33 m
9.18 -9.18 l
o
np
95.14 307.74 m
12.98 0 l
o
np
101.63 301.24 m
0 12.99 l
o
np
119.45 364.05 m
9.18 9.18 l
o
np
119.45 373.23 m
9.18 -9.18 l
o
np
117.55 368.64 m
12.98 0 l
o
np
124.04 362.14 m
0 12.99 l
o
np
149.33 414.18 m
9.18 9.18 l
o
np
149.33 423.36 m
9.18 -9.18 l
o
np
147.43 418.77 m
12.98 0 l
o
np
153.92 412.28 m
0 12.98 l
o
np
179.22 440.97 m
9.18 9.18 l
o
np
179.22 450.15 m
9.18 -9.18 l
o
np
177.32 445.56 m
12.98 0 l
o
np
183.81 439.07 m
0 12.99 l
o
np
209.10 473.68 m
9.18 9.18 l
o
np
209.10 482.86 m
9.18 -9.18 l
o
np
207.20 478.27 m
12.98 0 l
o
np
213.69 471.78 m
0 12.98 l
o
np
238.98 465.06 m
9.18 9.18 l
o
np
238.98 474.24 m
9.18 -9.18 l
o
np
237.08 469.65 m
12.98 0 l
o
np
243.57 463.16 m
0 12.98 l
o
np
268.87 466.14 m
9.18 9.18 l
o
np
268.87 475.32 m
9.18 -9.18 l
o
np
266.97 470.73 m
12.98 0 l
o
np
273.46 464.24 m
0 12.98 l
o
np
298.75 493.61 m
9.18 9.18 l
o
np
298.75 502.79 m
9.18 -9.18 l
o
np
296.85 498.20 m
12.98 0 l
o
np
303.34 491.71 m
0 12.98 l
o
np
328.63 490.06 m
9.18 9.18 l
o
np
328.63 499.24 m
9.18 -9.18 l
o
np
326.73 494.65 m
12.99 0 l
o
np
333.22 488.16 m
0 12.98 l
o
np
358.52 486.77 m
9.18 9.18 l
o
np
358.52 495.95 m
9.18 -9.18 l
o
np
356.62 491.36 m
12.98 0 l
o
np
363.11 484.87 m
0 12.98 l
o
np
388.40 487.91 m
9.18 9.18 l
o
np
388.40 497.09 m
9.18 -9.18 l
o
np
386.50 492.50 m
12.98 0 l
o
np
392.99 486.01 m
0 12.98 l
o
np
418.29 485.62 m
9.18 9.18 l
o
np
418.29 494.80 m
9.18 -9.18 l
o
np
416.38 490.21 m
12.99 0 l
o
np
422.88 483.72 m
0 12.98 l
o
np
448.17 485.59 m
9.18 9.18 l
o
np
448.17 494.77 m
9.18 -9.18 l
o
np
446.27 490.18 m
12.98 0 l
o
np
452.76 483.69 m
0 12.98 l
o
np
478.05 498.38 m
9.18 9.18 l
o
np
478.05 507.56 m
9.18 -9.18 l
o
np
476.15 502.97 m
12.98 0 l
o
np
482.64 496.48 m
0 12.98 l
o
np
507.94 496.50 m
9.18 9.18 l
o
np
507.94 505.68 m
9.18 -9.18 l
o
np
506.03 501.09 m
12.99 0 l
o
np
512.53 494.60 m
0 12.98 l
o
np
537.82 511.59 m
9.18 9.18 l
o
np
537.82 520.77 m
9.18 -9.18 l
o
np
535.92 516.18 m
12.98 0 l
o
np
542.41 509.69 m
0 12.98 l
o
np
567.70 477.00 m
9.18 9.18 l
o
np
567.70 486.18 m
9.18 -9.18 l
o
np
565.80 481.59 m
12.98 0 l
o
np
572.29 475.09 m
0 12.99 l
o
np
101.63 307.47 m
22.41 61.16 l
29.88 49.89 l
29.89 56.42 l
29.88 45.61 l
29.88 1.66 l
29.89 12.43 l
29.88 -4.81 l
29.88 -15.17 l
29.89 5.64 l
29.88 3.76 l
29.89 1.90 l
29.88 11.64 l
29.88 -8.36 l
29.89 1.78 l
29.88 -1.10 l
29.88 8.22 l
o
np
 101.63 314.60 m
6.18 -10.70 l
-12.37 0 l
cp p2
np
 124.04 375.77 m
6.18 -10.71 l
-12.36 0 l
cp p2
np
 153.92 425.66 m
6.18 -10.71 l
-12.36 0 l
cp p2
np
 183.81 482.08 m
6.18 -10.71 l
-12.37 0 l
cp p2
np
 213.69 527.69 m
6.18 -10.70 l
-12.36 0 l
cp p2
np
 243.57 529.35 m
6.19 -10.71 l
-12.37 0 l
cp p2
np
 273.46 541.78 m
6.18 -10.71 l
-12.36 0 l
cp p2
np
 303.34 536.97 m
6.18 -10.71 l
-12.36 0 l
cp p2
np
 333.22 521.80 m
6.19 -10.70 l
-12.37 0 l
cp p2
np
 363.11 527.43 m
6.18 -10.70 l
-12.36 0 l
cp p2
np
 392.99 531.20 m
6.18 -10.71 l
-12.36 0 l
cp p2
np
 422.88 533.10 m
6.18 -10.71 l
-12.37 0 l
cp p2
np
 452.76 544.74 m
6.18 -10.71 l
-12.36 0 l
cp p2
np
 482.64 536.38 m
6.18 -10.70 l
-12.36 0 l
cp p2
np
 512.53 538.15 m
6.18 -10.70 l
-12.37 0 l
cp p2
np
 542.41 537.06 m
6.18 -10.71 l
-12.36 0 l
cp p2
np
 572.29 545.28 m
6.19 -10.70 l
-12.37 0 l
cp p2
np
101.63 306.88 m
22.41 60.87 l
29.88 51.68 l
29.89 60.16 l
29.88 17.56 l
29.88 15.12 l
29.89 0.37 l
29.88 9.33 l
29.88 -6.60 l
29.89 10.03 l
29.88 6.03 l
29.89 -0.84 l
29.88 16.45 l
29.88 -6.97 l
29.89 2.78 l
29.88 -14.04 l
29.88 10.84 l
o
np
101.63 314.02 m
6.18 -10.71 l
-12.37 0 l
6.19 10.71 l
o
np
124.04 374.89 m
6.18 -10.71 l
-12.36 0 l
6.18 10.71 l
o
np
153.92 426.57 m
6.18 -10.71 l
-12.36 0 l
6.18 10.71 l
o
np
183.81 486.73 m
6.18 -10.71 l
-12.37 0 l
6.19 10.71 l
o
np
213.69 504.29 m
6.18 -10.71 l
-12.36 0 l
6.18 10.71 l
o
np
243.57 519.40 m
6.19 -10.70 l
-12.37 0 l
6.18 10.70 l
o
np
273.46 519.78 m
6.18 -10.71 l
-12.36 0 l
6.18 10.71 l
o
np
303.34 529.11 m
6.18 -10.71 l
-12.36 0 l
6.18 10.71 l
o
np
333.22 522.51 m
6.19 -10.71 l
-12.37 0 l
6.18 10.71 l
o
np
363.11 532.54 m
6.18 -10.71 l
-12.36 0 l
6.18 10.71 l
o
np
392.99 538.57 m
6.18 -10.71 l
-12.36 0 l
6.18 10.71 l
o
np
422.88 537.73 m
6.18 -10.71 l
-12.37 0 l
6.19 10.71 l
o
np
452.76 554.18 m
6.18 -10.71 l
-12.36 0 l
6.18 10.71 l
o
np
482.64 547.21 m
6.18 -10.71 l
-12.36 0 l
6.18 10.71 l
o
np
512.53 549.99 m
6.18 -10.71 l
-12.37 0 l
6.19 10.71 l
o
np
542.41 535.95 m
6.18 -10.71 l
-12.36 0 l
6.18 10.71 l
o
np
572.29 546.79 m
6.19 -10.71 l
-12.37 0 l
6.18 10.71 l
o
ep
%%Trailer
%%Pages: 1
%%EOF
