%!PS-Adobe-3.0 EPSF-3.0
%%DocumentNeededResources: font Times-Roman
%%+ font Times-Bold
%%+ font Times-Italic
%%+ font Times-BoldItalic
%%+ font Symbol
%%Title: R Graphics Output
%%Creator: R Software
%%Pages: (atend)
%%BoundingBox: 18 216 594 576
%%EndComments
%%BeginProlog
/bp  { gs sRGB gs } def
% begin .ps.prolog
/gs  { gsave } bind def
/gr  { grestore } bind def
/ep  { showpage gr gr } bind def
/m   { moveto } bind def
/l  { rlineto } bind def
/np  { newpath } bind def
/cp  { closepath } bind def
/f   { fill } bind def
/o   { stroke } bind def
/c   { newpath 0 360 arc } bind def
/r   { 4 2 roll moveto 1 copy 3 -1 roll exch 0 exch rlineto 0 rlineto -1 mul 0 exch rlineto closepath } bind def
/p1  { stroke } bind def
/p2  { gsave bg fill grestore newpath } bind def
/p3  { gsave bg fill grestore stroke } bind def
/p6  { gsave bg eofill grestore newpath } bind def
/p7  { gsave bg eofill grestore stroke } bind def
/t   { 5 -2 roll moveto gsave rotate
       1 index stringwidth pop
       mul neg 0 rmoveto show grestore } bind def
/ta  { 4 -2 roll moveto gsave rotate show } bind def
/tb  { 2 -1 roll 0 rmoveto show } bind def
/cl  { grestore gsave newpath 3 index 3 index moveto 1 index
       4 -1 roll lineto  exch 1 index lineto lineto
       closepath clip newpath } bind def
/rgb { setrgbcolor } bind def
/s   { scalefont setfont } bind def
% end   .ps.prolog
/sRGB { [ /CIEBasedABC
          << /DecodeLMN
               [ { dup 0.03928 le
                        {12.92321 div}
                        {0.055 add 1.055 div 2.4 exp }
                     ifelse
                 } bind dup dup
               ]
             /MatrixLMN [0.412457 0.212673 0.019334
                         0.357576 0.715152 0.119192
                         0.180437 0.072175 0.950301]
             /WhitePoint [0.9505 1.0 1.0890]
           >>
         ] setcolorspace } bind def
/srgb { setcolor } bind def
%%IncludeResource: font Times-Roman
/Times-Roman findfont
dup length dict begin
  {1 index /FID ne {def} {pop pop} ifelse} forall
  /Encoding ISOLatin1Encoding def
  currentdict
  end
/Font1 exch definefont pop
%%IncludeResource: font Times-Bold
/Times-Bold findfont
dup length dict begin
  {1 index /FID ne {def} {pop pop} ifelse} forall
  /Encoding ISOLatin1Encoding def
  currentdict
  end
/Font2 exch definefont pop
%%IncludeResource: font Times-Italic
/Times-Italic findfont
dup length dict begin
  {1 index /FID ne {def} {pop pop} ifelse} forall
  /Encoding ISOLatin1Encoding def
  currentdict
  end
/Font3 exch definefont pop
%%IncludeResource: font Times-BoldItalic
/Times-BoldItalic findfont
dup length dict begin
  {1 index /FID ne {def} {pop pop} ifelse} forall
  /Encoding ISOLatin1Encoding def
  currentdict
  end
/Font4 exch definefont pop
%%IncludeResource: font Symbol
/Symbol findfont
dup length dict begin
  {1 index /FID ne {def} {pop pop} ifelse} forall
  currentdict
  end
/Font5 exch definefont pop
%%EndProlog
%%Page: 1 1
bp
18.00 216.00 594.00 576.00 cl
0 0 0 srgb
0.75 setlinewidth
[] 0 setdash
1 setlinecap
1 setlinejoin
10.00 setmiterlimit
np
82.80 568.80 m
0 -295.20 l
508.32 0 l
o
18.00 216.00 594.00 576.00 cl
/Font1 findfont 24 s
0 0 0 srgb
336.96 218.88 (Number of threads) .5 0 t
36.72 421.20 (Speedup) .5 90 t
18.00 216.00 594.00 576.00 cl
0 0 0 srgb
0.75 setlinewidth
[] 0 setdash
1 setlinecap
1 setlinejoin
10.00 setmiterlimit
np
101.63 273.60 m
470.66 0 l
o
np
101.63 273.60 m
0 -7.20 l
o
np
124.04 273.60 m
0 -7.20 l
o
np
153.92 273.60 m
0 -7.20 l
o
np
183.81 273.60 m
0 -7.20 l
o
np
213.69 273.60 m
0 -7.20 l
o
np
243.57 273.60 m
0 -7.20 l
o
np
273.46 273.60 m
0 -7.20 l
o
np
303.34 273.60 m
0 -7.20 l
o
np
333.22 273.60 m
0 -7.20 l
o
np
363.11 273.60 m
0 -7.20 l
o
np
392.99 273.60 m
0 -7.20 l
o
np
422.88 273.60 m
0 -7.20 l
o
np
452.76 273.60 m
0 -7.20 l
o
np
482.64 273.60 m
0 -7.20 l
o
np
512.53 273.60 m
0 -7.20 l
o
np
542.41 273.60 m
0 -7.20 l
o
np
572.29 273.60 m
0 -7.20 l
o
/Font1 findfont 16 s
101.63 247.68 (1) .5 0 t
124.04 247.68 (4) .5 0 t
153.92 247.68 (8) .5 0 t
183.81 247.68 (12) .5 0 t
213.69 247.68 (16) .5 0 t
243.57 247.68 (20) .5 0 t
273.46 247.68 (24) .5 0 t
303.34 247.68 (28) .5 0 t
333.22 247.68 (32) .5 0 t
363.11 247.68 (36) .5 0 t
392.99 247.68 (40) .5 0 t
422.88 247.68 (44) .5 0 t
452.76 247.68 (48) .5 0 t
482.64 247.68 (52) .5 0 t
512.53 247.68 (56) .5 0 t
542.41 247.68 (60) .5 0 t
572.29 247.68 (64) .5 0 t
np
82.80 284.53 m
0 254.27 l
o
np
82.80 284.53 m
5.90 0 l
o
np
82.80 309.96 m
5.90 0 l
o
np
82.80 335.39 m
5.90 0 l
o
np
82.80 360.81 m
5.90 0 l
o
np
82.80 386.24 m
5.90 0 l
o
np
82.80 411.67 m
5.90 0 l
o
np
82.80 437.09 m
5.90 0 l
o
np
82.80 462.52 m
5.90 0 l
o
np
82.80 487.94 m
5.90 0 l
o
np
82.80 513.37 m
5.90 0 l
o
np
82.80 538.80 m
5.90 0 l
o
18.00 216.00 594.00 576.00 cl
/Font1 findfont 19 s
0 0 0 srgb
75.60 280.34 (0) 1 0 t
75.60 305.77 (4) 1 0 t
75.60 331.19 (8) 1 0 t
75.60 356.62 (12) 1 0 t
75.60 382.05 (16) 1 0 t
75.60 407.47 (20) 1 0 t
75.60 432.90 (24) 1 0 t
75.60 458.33 (28) 1 0 t
75.60 483.75 (32) 1 0 t
75.60 509.18 (36) 1 0 t
75.60 534.60 (40) 1 0 t
82.80 273.60 591.12 568.80 cl
0 0 0 srgb
0.75 setlinewidth
[] 0 setdash
1 setlinecap
1 setlinejoin
10.00 setmiterlimit
np
428.06 369.48 m
34.56 0 l
o
np
428.06 346.44 m
34.56 0 l
o
np
428.06 323.40 m
34.56 0 l
o
np
441.02 365.16 m
8.64 8.64 l
o
np
441.02 373.80 m
8.64 -8.64 l
o
np
439.23 369.48 m
12.22 0 l
o
np
445.34 363.37 m
0 12.22 l
o
/bg { 0 0 0 srgb } def
np
 445.34 353.15 m
5.82 -10.07 l
-11.64 0 l
cp p2
np
445.34 330.11 m
5.82 -10.07 l
-11.64 0 l
5.82 10.07 l
o
/Font1 findfont 19 s
479.90 363.19 (ctree25) 0 0 t
479.90 340.15 (dna) 0 0 t
479.90 317.11 (prot) 0 0 t
np
101.63 290.90 m
22.41 18.66 l
29.88 24.11 l
29.89 23.68 l
29.88 22.52 l
29.88 21.86 l
29.89 21.04 l
29.88 19.02 l
29.88 3.07 l
29.89 16.15 l
29.88 16.97 l
29.89 11.84 l
29.88 13.03 l
29.88 12.67 l
29.89 10.51 l
29.88 11.72 l
29.88 2.92 l
o
np
97.04 286.31 m
9.18 9.18 l
o
np
97.04 295.49 m
9.18 -9.18 l
o
np
95.14 290.90 m
12.98 0 l
o
np
101.63 284.41 m
0 12.98 l
o
np
119.45 304.97 m
9.18 9.18 l
o
np
119.45 314.15 m
9.18 -9.18 l
o
np
117.55 309.56 m
12.98 0 l
o
np
124.04 303.07 m
0 12.98 l
o
np
149.33 329.08 m
9.18 9.18 l
o
np
149.33 338.26 m
9.18 -9.18 l
o
np
147.43 333.67 m
12.98 0 l
o
np
153.92 327.18 m
0 12.98 l
o
np
179.22 352.76 m
9.18 9.18 l
o
np
179.22 361.94 m
9.18 -9.18 l
o
np
177.32 357.35 m
12.98 0 l
o
np
183.81 350.86 m
0 12.98 l
o
np
209.10 375.28 m
9.18 9.18 l
o
np
209.10 384.46 m
9.18 -9.18 l
o
np
207.20 379.87 m
12.98 0 l
o
np
213.69 373.38 m
0 12.98 l
o
np
238.98 397.14 m
9.18 9.18 l
o
np
238.98 406.32 m
9.18 -9.18 l
o
np
237.08 401.73 m
12.98 0 l
o
np
243.57 395.23 m
0 12.99 l
o
np
268.87 418.18 m
9.18 9.18 l
o
np
268.87 427.36 m
9.18 -9.18 l
o
np
266.97 422.77 m
12.98 0 l
o
np
273.46 416.28 m
0 12.98 l
o
np
298.75 437.20 m
9.18 9.18 l
o
np
298.75 446.38 m
9.18 -9.18 l
o
np
296.85 441.79 m
12.98 0 l
o
np
303.34 435.30 m
0 12.98 l
o
np
328.63 440.27 m
9.18 9.18 l
o
np
328.63 449.45 m
9.18 -9.18 l
o
np
326.73 444.86 m
12.99 0 l
o
np
333.22 438.37 m
0 12.98 l
o
np
358.52 456.42 m
9.18 9.18 l
o
np
358.52 465.60 m
9.18 -9.18 l
o
np
356.62 461.01 m
12.98 0 l
o
np
363.11 454.52 m
0 12.98 l
o
np
388.40 473.39 m
9.18 9.18 l
o
np
388.40 482.57 m
9.18 -9.18 l
o
np
386.50 477.98 m
12.98 0 l
o
np
392.99 471.49 m
0 12.98 l
o
np
418.29 485.23 m
9.18 9.18 l
o
np
418.29 494.41 m
9.18 -9.18 l
o
np
416.38 489.82 m
12.99 0 l
o
np
422.88 483.33 m
0 12.99 l
o
np
448.17 498.26 m
9.18 9.18 l
o
np
448.17 507.44 m
9.18 -9.18 l
o
np
446.27 502.85 m
12.98 0 l
o
np
452.76 496.36 m
0 12.98 l
o
np
478.05 510.93 m
9.18 9.18 l
o
np
478.05 520.11 m
9.18 -9.18 l
o
np
476.15 515.52 m
12.98 0 l
o
np
482.64 509.03 m
0 12.99 l
o
np
507.94 521.44 m
9.18 9.18 l
o
np
507.94 530.62 m
9.18 -9.18 l
o
np
506.03 526.03 m
12.99 0 l
o
np
512.53 519.54 m
0 12.98 l
o
np
537.82 533.16 m
9.18 9.18 l
o
np
537.82 542.34 m
9.18 -9.18 l
o
np
535.92 537.75 m
12.98 0 l
o
np
542.41 531.26 m
0 12.98 l
o
np
567.70 536.08 m
9.18 9.18 l
o
np
567.70 545.26 m
9.18 -9.18 l
o
np
565.80 540.67 m
12.98 0 l
o
np
572.29 534.18 m
0 12.98 l
o
np
101.63 290.90 m
22.41 18.73 l
29.88 24.21 l
29.89 23.51 l
29.88 22.58 l
29.88 21.52 l
29.89 20.57 l
29.88 19.02 l
29.88 3.70 l
29.89 14.54 l
29.88 15.96 l
29.89 14.03 l
29.88 13.75 l
29.88 13.37 l
29.89 14.82 l
29.88 11.93 l
29.88 11.35 l
o
np
 101.63 298.04 m
6.18 -10.71 l
-12.37 0 l
cp p2
np
 124.04 316.76 m
6.18 -10.70 l
-12.36 0 l
cp p2
np
 153.92 340.98 m
6.18 -10.70 l
-12.36 0 l
cp p2
np
 183.81 364.49 m
6.18 -10.71 l
-12.37 0 l
cp p2
np
 213.69 387.06 m
6.18 -10.70 l
-12.36 0 l
cp p2
np
 243.57 408.59 m
6.19 -10.71 l
-12.37 0 l
cp p2
np
 273.46 429.16 m
6.18 -10.70 l
-12.36 0 l
cp p2
np
 303.34 448.18 m
6.18 -10.71 l
-12.36 0 l
cp p2
np
 333.22 451.88 m
6.19 -10.71 l
-12.37 0 l
cp p2
np
 363.11 466.42 m
6.18 -10.71 l
-12.36 0 l
cp p2
np
 392.99 482.38 m
6.18 -10.71 l
-12.36 0 l
cp p2
np
 422.88 496.41 m
6.18 -10.70 l
-12.37 0 l
cp p2
np
 452.76 510.15 m
6.18 -10.70 l
-12.36 0 l
cp p2
np
 482.64 523.53 m
6.18 -10.71 l
-12.36 0 l
cp p2
np
 512.53 538.34 m
6.18 -10.70 l
-12.37 0 l
cp p2
np
 542.41 550.27 m
6.18 -10.70 l
-12.36 0 l
cp p2
np
 572.29 561.63 m
6.19 -10.71 l
-12.37 0 l
cp p2
np
101.63 290.90 m
22.41 18.74 l
29.88 24.21 l
29.89 23.36 l
29.88 22.52 l
29.88 21.00 l
29.89 20.39 l
29.88 20.21 l
29.88 18.91 l
29.89 -0.73 l
29.88 15.56 l
29.89 14.17 l
29.88 13.18 l
29.88 13.79 l
29.89 12.97 l
29.88 14.39 l
29.88 6.46 l
o
np
101.63 298.04 m
6.18 -10.71 l
-12.37 0 l
6.19 10.71 l
o
np
124.04 316.78 m
6.18 -10.70 l
-12.36 0 l
6.18 10.70 l
o
np
153.92 340.98 m
6.18 -10.70 l
-12.36 0 l
6.18 10.70 l
o
np
183.81 364.35 m
6.18 -10.71 l
-12.37 0 l
6.19 10.71 l
o
np
213.69 386.87 m
6.18 -10.71 l
-12.36 0 l
6.18 10.71 l
o
np
243.57 407.86 m
6.19 -10.70 l
-12.37 0 l
6.18 10.70 l
o
np
273.46 428.25 m
6.18 -10.70 l
-12.36 0 l
6.18 10.70 l
o
np
303.34 448.47 m
6.18 -10.71 l
-12.36 0 l
6.18 10.71 l
o
np
333.22 467.38 m
6.19 -10.71 l
-12.37 0 l
6.18 10.71 l
o
np
363.11 466.65 m
6.18 -10.71 l
-12.36 0 l
6.18 10.71 l
o
np
392.99 482.21 m
6.18 -10.71 l
-12.36 0 l
6.18 10.71 l
o
np
422.88 496.38 m
6.18 -10.71 l
-12.37 0 l
6.19 10.71 l
o
np
452.76 509.55 m
6.18 -10.70 l
-12.36 0 l
6.18 10.70 l
o
np
482.64 523.35 m
6.18 -10.71 l
-12.36 0 l
6.18 10.71 l
o
np
512.53 536.32 m
6.18 -10.71 l
-12.37 0 l
6.19 10.71 l
o
np
542.41 550.71 m
6.18 -10.71 l
-12.36 0 l
6.18 10.71 l
o
np
572.29 557.17 m
6.19 -10.71 l
-12.37 0 l
6.18 10.71 l
o
ep
%%Trailer
%%Pages: 1
%%EOF
